<?xml version="1.0" encoding="UTF-8" standalone="no"?>
<svg
   xmlns:dc="http://purl.org/dc/elements/1.1/"
   xmlns:cc="http://creativecommons.org/ns#"
   xmlns:rdf="http://www.w3.org/1999/02/22-rdf-syntax-ns#"
   xmlns:svg="http://www.w3.org/2000/svg"
   xmlns="http://www.w3.org/2000/svg"
   xmlns:sodipodi="http://sodipodi.sourceforge.net/DTD/sodipodi-0.dtd"
   xmlns:inkscape="http://www.inkscape.org/namespaces/inkscape"
   version="1.1"
   width="512"
   height="512"
   x="0"
   y="0"
   viewBox="0 0 454 454"
   style="enable-background:new 0 0 512 512"
   xml:space="preserve"
   class=""
   id="svg16"
   sodipodi:docname="600.svg"
   inkscape:version="0.92.4 (5da689c313, 2019-01-14)"
   inkscape:export-filename="/home/whitehole/Downloads/img/800.png"
   inkscape:export-xdpi="96"
   inkscape:export-ydpi="96"><metadata
     id="metadata22"><rdf:RDF><cc:Work
         rdf:about=""><dc:format>image/svg+xml</dc:format><dc:type
           rdf:resource="http://purl.org/dc/dcmitype/StillImage" /><dc:title></dc:title></cc:Work></rdf:RDF></metadata><defs
     id="defs20" /><sodipodi:namedview
     pagecolor="#ffffff"
     bordercolor="#666666"
     borderopacity="1"
     objecttolerance="10"
     gridtolerance="10"
     guidetolerance="10"
     inkscape:pageopacity="0"
     inkscape:pageshadow="2"
     inkscape:window-width="1920"
     inkscape:window-height="1043"
     id="namedview18"
     showgrid="false"
     inkscape:zoom="1.84375"
     inkscape:cx="236.70844"
     inkscape:cy="246.44891"
     inkscape:window-x="0"
     inkscape:window-y="0"
     inkscape:window-maximized="1"
     inkscape:current-layer="svg16" /><rect
     style="opacity:0;fill:#ff0017;fill-opacity:1;stroke:none;stroke-width:1.1413691;stroke-linejoin:round;stroke-miterlimit:4;stroke-dasharray:none;stroke-dashoffset:0;stroke-opacity:1"
     id="rect833"
     width="319.0751"
     height="319.96182"
     x="67.422546"
     y="67.23629" /><rect
     style="opacity:0;fill:#eb3a49;fill-opacity:1;stroke:none;stroke-width:1.1413691;stroke-linejoin:round;stroke-miterlimit:4;stroke-dasharray:none;stroke-dashoffset:0;stroke-opacity:1"
     id="rect833-3"
     width="319.0751"
     height="319.96182"
     x="67.422539"
     y="67.23629" /><g
     id="g958"
     transform="translate(0.17674801,-7.4657729)"><g
       transform="matrix(0.69846921,0,0,0.69846921,-342.24225,193.9133)"
       id="g914"><path
         inkscape:connector-curvature="0"
         d="m 633.20808,-7.3991345 c -3.51562,-27.5546845 10.05078,-54.4843685 34.28516,-68.0546885 24.23828,-13.57421 54.28906,-11.07031 75.94531,6.32813 23.97656,-35.457027 66.50781,-53.562497 108.68359,-46.277337 42.17578,7.28906 76.16016,38.621087 86.85156,80.066399 26.53125,-12.992192 58.3125,-8.378902 80.0508,11.621094 21.7422,20.0039025 28.9805,51.292972 18.2422,78.812503 -10.7422,27.515619 -37.2656,45.628904 -66.80471,45.613284 H 641.57918 c -28.41016,0.0156 -52.04688,-21.847665 -54.23829,-50.179695 -2.19531,-28.32812 17.79297,-53.5703095 45.86719,-57.9296895 z m 0,0"
         data-original="#d9ecf2"
         style="fill:#d9ecf2"
         id="path812" /><path
         inkscape:connector-curvature="0"
         d="m 970.46199,-42.699913 c -6.48438,0.008 -12.9336,0.90625 -19.17188,2.66797 34.55078,9.578124 56.71099,43.2148485 51.87109,78.742188 -4.83984,35.52734 -35.18359,62.011725 -71.03906,62.000005 h 38.33985 c 39.60161,0 71.70311,-32.105474 71.70311,-71.703135 0,-39.60156 -32.1015,-71.707028 -71.70311,-71.707028 z m 0,0"
         data-original="#bdd9e5"
         style="fill:#bdd9e5"
         id="path816" /><path
         inkscape:connector-curvature="0"
         d="m 900.62995,-35.340537 c 9.79297,-4.835936 20.56641,-7.351566 31.48829,-7.363286 1.59765,0 3.13281,0.13672 4.69922,0.23829 -17,-51.34375 -69.16797,-82.374997 -122.40235,-72.800787 41.87891,7.52735 75.54297,38.738287 86.21484,79.925783 z m 0,0"
         data-original="#bdd9e5"
         style="fill:#bdd9e5"
         id="path818" /><path
         inkscape:connector-curvature="0"
         d="m 937.23152,17.468055 c 0,0 21.71093,-11.0781195 22.5039,-59.324218 -7.21093,1.10547 -14.21093,3.30078 -20.76172,6.515626 3.60938,17.492187 3.01172,35.59375248 -1.74218,52.808592 z m 0,0"
         data-original="#bdd9e5"
         style="fill:#bdd9e5"
         id="path820" /><g
         style="fill:#168aa5"
         id="g878" /><path
         sodipodi:nodetypes="sssssccccsc"
         inkscape:connector-curvature="0"
         d="m 694.98667,138.32924 c 0,7.22266 -5.85938,13.08204 -13.08594,13.08204 -7.22265,0 -13.08203,-5.85938 -13.08203,-13.08204 0,-7.22656 5.85938,-13.08593 13.08203,-13.08593 7.22656,0 13.08594,5.85937 13.08594,13.08593 z m 243.30566,2.5561 c -9.66407,0.0117 -17.48828,7.85156 -17.48438,17.51172 0.004,9.66406 7.83594,17.49609 17.5,17.49609 9.66016,0.004 17.5,-7.82422 17.50781,-17.48828 0.004,-4.64844 -1.83984,-9.10547 -5.1289,-12.39453 -3.28516,-3.28516 -7.7461,-5.12891 -12.39453,-5.125 z"
         data-original="#d9ecf2"
         style="fill:#d9ecf2"
         id="path906" /><path
         inkscape:connector-curvature="0"
         d="m 681.90073,125.24331 c -1.83984,0.004 -3.66015,0.40234 -5.33984,1.16406 4.71094,2.09375 7.74609,6.76562 7.74609,11.92187 0,5.15625 -3.03515,9.82813 -7.74609,11.92188 4.87109,2.18359 10.57812,1.1875 14.41797,-2.51172 3.84375,-3.69922 5.05468,-9.36719 3.05859,-14.3125 -1.99609,-4.94922 -6.80078,-8.1875 -12.13672,-8.18359 z m 0,0"
         data-original="#bdd9e5"
         style="fill:#bdd9e5"
         id="path908" /><path
         sodipodi:nodetypes="ccsccscc"
         inkscape:connector-curvature="0"
         d="m 938.29233,140.88533 c -1.81641,0.0234 -3.6211,0.33594 -5.33985,0.92188 7.23828,2.28125 12.15625,8.99609 12.15625,16.58593 0,7.58985 -4.91797,14.30078 -12.15625,16.58594 1.71875,0.58203 3.52344,0.89453 5.33985,0.91797 9.66797,0 17.5039,-7.83594 17.5039,-17.50391 0,-9.66797 -7.83593,-17.5039 -17.5039,-17.5039 z"
         data-original="#bdd9e5"
         style="fill:#bdd9e5"
         id="path912" /><path
         id="path895"
         style="fill:#d9ecf2"
         data-original="#d9ecf2"
         d="m 784.74529,198.72369 c -9.66407,0.0117 -17.48828,7.85156 -17.48438,17.51172 0.004,9.66406 7.83594,17.49609 17.5,17.49609 9.66016,0.004 17.5,-7.82422 17.50781,-17.48828 0.004,-4.64844 -1.83984,-9.10547 -5.1289,-12.39453 -3.28516,-3.28516 -7.7461,-5.12891 -12.39453,-5.125 z"
         inkscape:connector-curvature="0"
         sodipodi:nodetypes="ccccsc" /><path
         id="path897"
         style="fill:#bdd9e5"
         data-original="#bdd9e5"
         d="m 784.74529,198.72368 c -1.81641,0.0234 -3.6211,0.33594 -5.33985,0.92188 7.23828,2.28125 12.15625,8.99609 12.15625,16.58593 0,7.58985 -4.91797,14.30078 -12.15625,16.58594 1.71875,0.58203 3.52344,0.89453 5.33985,0.91797 9.66797,0 17.5039,-7.83594 17.5039,-17.50391 0,-9.66797 -7.83593,-17.5039 -17.5039,-17.5039 z"
         inkscape:connector-curvature="0"
         sodipodi:nodetypes="ccsccscc" /></g><g
       transform="translate(416.80495,2.3433288)"
       id="g1105"><path
         id="path814-3"
         style="fill:#bdd9e5;stroke-width:0.69846922"
         data-original="#bdd9e5"
         d="m -140.35116,257.07449 h -5.50316 l 4.86472,-4.86745 c 1.90988,-1.90988 1.90988,-5.00661 0,-6.91376 -1.90715,-1.90987 -5.00387,-1.90987 -6.91375,0 l -11.77849,11.78121 h -16.08388 l 11.71027,-11.70754 c 1.90988,-1.90988 1.90988,-5.00388 0,-6.91376 -1.90988,-1.90987 -5.00388,-1.90987 -6.91375,0 l -11.71301,11.71028 v -16.08662 l 11.78394,-11.78121 c 1.90715,-1.90988 1.90715,-5.00388 0,-6.91376 -1.90988,-1.90987 -5.0066,-1.90987 -6.91648,0 l -4.86746,4.87019 v -5.50863 c 0,-2.69838 -2.18817,-4.88928 -4.88928,-4.88928 -2.69839,0 -4.88929,2.1909 -4.88929,4.88928 v 5.50863 l -4.86473,-4.86746 c -1.90987,-1.90988 -5.0066,-1.90988 -6.91648,0 -1.90987,1.90988 -1.90987,5.00388 0,6.91376 l 11.78121,11.78121 v 16.08389 l -11.71027,-11.71028 c -1.90988,-1.90987 -5.0066,-1.90987 -6.91648,0 -1.90988,1.90988 -1.90988,5.00388 0,6.91376 l 11.713,11.713 h -16.08116 l -11.78121,-11.78121 c -1.90988,-1.90988 -5.00661,-1.90988 -6.91648,0 -1.90988,1.90988 -1.90988,5.00388 0,6.91375 l 4.862,4.862 h -5.50318 c -2.70111,0 -4.88928,2.18817 -4.88928,4.88929 h 102.45124 c 0.59479,0 1.1732,-0.0709 1.76254,-0.09 -0.0464,-2.66292 -2.21819,-4.79925 -4.8811,-4.79925 z m 0,0"
         inkscape:connector-curvature="0" /><path
         id="path846-6"
         style="fill:#26a3b9;stroke-width:0.69846922"
         data-original="#26a3b9"
         d="m -140.34843,261.96378 c 0,-2.70112 -2.18816,-4.88929 -4.88927,-4.88929 h -5.50591 l 4.86473,-4.86745 c 1.90987,-1.90988 1.90987,-5.00661 0,-6.91376 -1.90715,-1.90987 -5.00388,-1.90987 -6.91376,0 l -11.77848,11.78121 h -16.08389 l 11.71027,-11.70754 c 1.90988,-1.90988 1.90988,-5.00388 0,-6.91376 -1.90987,-1.90987 -5.00387,-1.90987 -6.91375,0 l -11.713,11.71028 v -16.08662 l 11.78394,-11.78121 c 1.90715,-1.90988 1.90715,-5.00388 0,-6.91376 -1.90988,-1.90987 -5.00661,-1.90987 -6.91649,0 l -4.86472,4.87019 v -5.50863 c 0,-2.69838 -2.18817,-4.88928 -4.88929,-4.88928 -2.69838,0 -4.88928,2.1909 -4.88928,4.88928 v 5.50863 l -4.86473,-4.86746 c -1.90988,-1.90988 -5.0066,-1.90988 -6.91648,0 -1.90988,1.90988 -1.90988,5.00388 0,6.91376 l 11.78121,11.78121 v 16.08389 l -11.71027,-11.71028 c -1.90988,-1.90987 -5.00661,-1.90987 -6.91649,0 -1.90987,1.90988 -1.90987,5.00388 0,6.91376 l 11.713,11.713 h -16.08934 l -11.78121,-11.78121 c -1.90988,-1.90988 -5.00661,-1.90988 -6.91648,0 -1.90988,1.90988 -1.90988,5.00388 0,6.91375 l 4.86745,4.86746 h -5.50317 c -2.70111,0 -4.88929,2.18817 -4.88929,4.88928 0,2.70112 2.18818,4.88929 4.88929,4.88929 h 5.50317 l -4.86745,4.86745 c -1.90988,1.90988 -1.90988,5.00388 0,6.91376 1.90987,1.90987 5.0066,1.90987 6.91648,0 l 11.78121,-11.78667 h 16.08389 l -11.713,11.71027 c -1.90988,1.90988 -1.90988,5.00661 0,6.91649 1.90987,1.90987 5.0066,1.90987 6.91648,0 l 11.71027,-11.713 v 16.08389 l -11.78121,11.78393 c -1.90988,1.90716 -1.90988,5.00389 0,6.91376 1.90987,1.90988 5.00661,1.90988 6.91376,0 l 4.86745,-4.86746 v 5.50318 c 0,2.7011 2.19091,4.88927 4.88929,4.88927 2.7011,0 4.88928,-2.18817 4.88928,-4.88927 v -5.50318 l 4.86746,4.86746 c 1.90987,1.90988 5.00661,1.90988 6.91648,0 1.90715,-1.90987 1.90715,-5.0066 0,-6.91376 l -11.78394,-11.78393 v -16.08389 l 11.713,11.713 c 1.90715,1.90987 5.00388,1.90987 6.91376,0.003 1.90987,-1.90988 1.9126,-5.00388 0.003,-6.91648 l -11.71028,-11.71301 h 16.08389 l 11.78121,11.78122 c 1.90987,1.90987 5.00661,1.90987 6.91376,0 1.90986,-1.90989 1.90986,-5.00389 0,-6.91376 l -4.86746,-4.86746 h 5.5059 c 2.70111,0 4.88928,-2.18817 4.88928,-4.88928 z m 0,0"
         inkscape:connector-curvature="0" /><path
         id="path848-7"
         style="fill:#168aa5;stroke-width:0.69846922"
         data-original="#168aa5"
         d="m -213.79683,238.44774 11.713,11.71027 v -4.74741 l -6.98469,-6.98469 c -1.547,-1.53882 -3.92616,-1.86622 -5.82512,-0.79669 0.40108,0.21827 0.77214,0.49384 1.09681,0.81852 z m 0,0"
         inkscape:connector-curvature="0" /><path
         id="path850-5"
         style="fill:#168aa5;stroke-width:0.69846922"
         data-original="#168aa5"
         d="m -209.06033,285.47982 6.98469,-6.98469 v -4.75014 l -11.713,11.713 c -0.32468,0.31377 -0.69028,0.58115 -1.08863,0.79669 1.89623,1.08317 4.28904,0.7585 5.82512,-0.79669 z m 0,0"
         inkscape:connector-curvature="0" /><path
         id="path852-3"
         style="fill:#168aa5;stroke-width:0.69846922"
         data-original="#168aa5"
         d="m -206.94037,215.38461 4.86745,4.86746 v -4.75013 l -0.13096,-0.13097 c -1.547,-1.53882 -3.92616,-1.86622 -5.82512,-0.79669 0.39834,0.21555 0.76395,0.48838 1.08863,0.81033 z m 0,0"
         inkscape:connector-curvature="0" /><path
         id="path854-5"
         style="fill:#168aa5;stroke-width:0.69846922"
         data-original="#168aa5"
         d="m -236.86268,245.29601 11.78121,11.78121 h 4.75014 l -11.78122,-11.78121 c -1.547,-1.53882 -3.92616,-1.86622 -5.82512,-0.79669 0.39289,0.21281 0.75577,0.48293 1.07499,0.79669 z m 0,0"
         inkscape:connector-curvature="0" /><path
         id="path856-6"
         style="fill:#168aa5;stroke-width:0.69846922"
         data-original="#168aa5"
         d="m -150.61265,245.29601 c 0.91674,0.91674 1.43241,2.15816 1.43241,3.45688 0,1.29598 -0.51567,2.54013 -1.43241,3.45687 l -4.86745,4.86473 h 4.75013 l 4.86746,-4.86745 c 1.73525,-1.71889 1.9317,-4.45547 0.45837,-6.40355 -1.47061,-1.94807 -4.15807,-2.50739 -6.28349,-1.3069 0.39288,0.21554 0.75575,0.48293 1.07498,0.79942 z m 0,0"
         inkscape:connector-curvature="0" /><path
         id="path858-2"
         style="fill:#168aa5;stroke-width:0.69846922"
         data-original="#168aa5"
         d="m -180.52404,215.38461 c 0.91674,0.91674 1.4324,2.16089 1.4324,3.45688 0,1.29599 -0.51566,2.54014 -1.4324,3.45688 l -11.78122,11.78121 v 16.08389 l 4.74741,-4.74741 v -11.33921 l 11.78394,-11.78121 c 1.73526,-1.71889 1.9317,-4.45547 0.45837,-6.40355 -1.4706,-1.94807 -4.15808,-2.50739 -6.2835,-1.3069 0.39289,0.21555 0.75577,0.48293 1.075,0.79942 z m 0,0"
         inkscape:connector-curvature="0" /><path
         id="path860-9"
         style="fill:#168aa5;stroke-width:0.69846922"
         data-original="#168aa5"
         d="m -173.6785,238.44774 c 0.91674,0.91674 1.43241,2.16089 1.43241,3.45688 0,1.29599 -0.51567,2.54013 -1.43241,3.45687 l -11.713,11.713 h 4.75013 l 11.69663,-11.70754 c 1.73526,-1.71616 1.93443,-4.45547 0.4611,-6.40354 -1.4706,-1.94808 -4.15807,-2.5074 -6.28622,-1.3069 0.39834,0.21281 0.76668,0.47746 1.09136,0.79123 z m 0,0"
         inkscape:connector-curvature="0" /><path
         id="path862-1"
         style="fill:#168aa5;stroke-width:0.69846922"
         data-original="#168aa5"
         d="m -192.30526,214.74344 v 5.50863 l 4.74741,-4.75013 v -0.77214 c 0,-2.70111 -2.18817,-4.88929 -4.88929,-4.88929 -0.82943,0.006 -1.64521,0.22373 -2.36824,0.63845 1.55246,0.85671 2.51285,2.49102 2.51012,4.26448 z m 0,0"
         inkscape:connector-curvature="0" /><path
         id="path864-2"
         style="fill:#168aa5;stroke-width:0.69846922"
         data-original="#168aa5"
         d="m -150.74361,266.85306 h -4.75014 l 4.86746,4.86746 c 0.91674,0.91674 1.43241,2.15816 1.43241,3.45688 0,1.29599 -0.51567,2.54013 -1.43241,3.45688 -0.32468,0.31649 -0.69301,0.58387 -1.09136,0.79668 2.12815,1.2005 4.81562,0.64118 6.28622,-1.3069 1.47334,-1.9508 1.27416,-4.68738 -0.46109,-6.40354 z m 0,0"
         inkscape:connector-curvature="0" /><path
         id="path866-7"
         style="fill:#168aa5;stroke-width:0.69846922"
         data-original="#168aa5"
         d="m -180.65501,266.85306 h -4.75013 l 11.713,11.71027 c 0.91674,0.91674 1.4324,2.16089 1.4324,3.45961 0,1.29599 -0.51566,2.54014 -1.4324,3.45688 -0.32469,0.31376 -0.69302,0.58387 -1.09136,0.79669 2.12814,1.19777 4.81289,0.64117 6.28622,-1.30963 1.47061,-1.94808 1.27416,-4.68466 -0.4611,-6.40355 z m 0,0"
         inkscape:connector-curvature="0" /><path
         id="path868-0"
         style="fill:#168aa5;stroke-width:0.69846922"
         data-original="#168aa5"
         d="m -225.08147,266.85306 -11.78121,11.78122 c -0.32468,0.31649 -0.69029,0.58387 -1.08863,0.79668 1.89623,1.08591 4.28631,0.7585 5.82512,-0.79668 l 11.77576,-11.78122 z m 0,0"
         inkscape:connector-curvature="0" /><path
         id="path870-9"
         style="fill:#168aa5;stroke-width:0.69846922"
         data-original="#168aa5"
         d="m -145.2377,257.07449 h -4.75015 c 2.70112,0 4.88929,2.18817 4.88929,4.88929 0,2.70111 -2.18817,4.88928 -4.88929,4.88928 h 4.75015 c 2.70111,0 4.88927,-2.18817 4.88927,-4.88928 0,-2.70112 -2.18816,-4.88929 -4.88927,-4.88929 z m 0,0"
         inkscape:connector-curvature="0" /><path
         id="path872-3"
         style="fill:#168aa5;stroke-width:0.69846922"
         data-original="#168aa5"
         d="m -202.08383,303.67821 -4.85654,4.86746 c -0.32468,0.31376 -0.69029,0.58387 -1.08863,0.79669 1.89896,1.06679 4.27812,0.74212 5.82512,-0.79669 l 0.13096,-0.13096 z m 0,0"
         inkscape:connector-curvature="0" /><path
         id="path874-6"
         style="fill:#168aa5;stroke-width:0.69846922"
         data-original="#168aa5"
         d="m -192.30526,303.67821 v 5.50318 c -0.003,1.77072 -0.96585,3.39958 -2.51558,4.25356 0.72302,0.41199 1.53881,0.63298 2.36825,0.63571 2.70111,0 4.88928,-2.18816 4.88928,-4.88927 v -0.76668 z m 0,0"
         inkscape:connector-curvature="0" /><path
         id="path876-0"
         style="fill:#168aa5;stroke-width:0.69846922"
         data-original="#168aa5"
         d="m -187.56876,289.85071 v -11.3474 l -4.74741,-4.75014 v 16.08389 l 11.78121,11.78394 c 0.91674,0.91402 1.4324,2.15817 1.4324,3.45688 0,1.29599 -0.51566,2.54014 -1.4324,3.45688 -0.32468,0.31376 -0.69302,0.58388 -1.09136,0.79669 2.12815,1.20049 4.81562,0.64116 6.28622,-1.3069 1.47334,-1.95081 1.2769,-4.68739 -0.46109,-6.40355 z m 0,0"
         inkscape:connector-curvature="0" /></g></g></svg>