<?xml version="1.0" encoding="UTF-8" standalone="no"?>
<svg
   xmlns:dc="http://purl.org/dc/elements/1.1/"
   xmlns:cc="http://creativecommons.org/ns#"
   xmlns:rdf="http://www.w3.org/1999/02/22-rdf-syntax-ns#"
   xmlns:svg="http://www.w3.org/2000/svg"
   xmlns="http://www.w3.org/2000/svg"
   xmlns:sodipodi="http://sodipodi.sourceforge.net/DTD/sodipodi-0.dtd"
   xmlns:inkscape="http://www.inkscape.org/namespaces/inkscape"
   version="1.1"
   width="512"
   height="512"
   x="0"
   y="0"
   viewBox="0 0 454 454"
   style="enable-background:new 0 0 512 512"
   xml:space="preserve"
   class=""
   id="svg16"
   sodipodi:docname="612.svg"
   inkscape:version="0.92.4 (5da689c313, 2019-01-14)"
   inkscape:export-filename="/home/whitehole/Downloads/img/800.png"
   inkscape:export-xdpi="96"
   inkscape:export-ydpi="96"><metadata
     id="metadata22"><rdf:RDF><cc:Work
         rdf:about=""><dc:format>image/svg+xml</dc:format><dc:type
           rdf:resource="http://purl.org/dc/dcmitype/StillImage" /><dc:title></dc:title></cc:Work></rdf:RDF></metadata><defs
     id="defs20" /><sodipodi:namedview
     pagecolor="#ffffff"
     bordercolor="#666666"
     borderopacity="1"
     objecttolerance="10"
     gridtolerance="10"
     guidetolerance="10"
     inkscape:pageopacity="0"
     inkscape:pageshadow="2"
     inkscape:window-width="1920"
     inkscape:window-height="1043"
     id="namedview18"
     showgrid="false"
     inkscape:zoom="1.2968459"
     inkscape:cx="273.62628"
     inkscape:cy="260.70506"
     inkscape:window-x="0"
     inkscape:window-y="0"
     inkscape:window-maximized="1"
     inkscape:current-layer="svg16" /><rect
     style="opacity:0;fill:#ff0017;fill-opacity:1;stroke:none;stroke-width:1.1413691;stroke-linejoin:round;stroke-miterlimit:4;stroke-dasharray:none;stroke-dashoffset:0;stroke-opacity:1"
     id="rect833"
     width="319.0751"
     height="319.96182"
     x="67.548515"
     y="66.953705" /><g
     id="g1098"
     transform="translate(-0.76112542,38.168785)"><g
       transform="matrix(0.73863373,0,0,0.73863373,68.94759,66.584028)"
       id="g840"><path
         inkscape:connector-curvature="0"
         d="M 43.511719,103.76172 C 40.164062,77.695312 52.992188,52.210938 75.921875,39.371094 98.851562,26.53125 127.28516,28.914062 147.75781,45.386719 170.42969,11.863281 210.64844,-5.261719 250.53125,1.628906 c 39.88281,6.890625 72.02344,36.515625 82.13281,75.707032 25.08594,-12.285157 55.14453,-7.921876 75.70313,10.992187 20.55468,18.914065 27.40625,48.503905 17.24609,74.527345 -10.15625,26.02344 -35.23828,43.14844 -63.17578,43.13281 H 51.441406 C 24.578125,206 2.230469,185.32812 0.152344,158.54687 c -2.078125,-26.78515 16.8125,-50.65624 43.359375,-54.78515 z m 0,0"
         data-original="#26a3b9"
         style="fill:#d9ecf2;fill-opacity:1"
         id="path812" /><path
         inkscape:connector-curvature="0"
         d="m 205.46875,202.125 c 0.082,-8.86328 -4.85547,-17.00781 -12.75391,-21.03125 -7.89453,-4.02344 -17.38672,-3.23047 -24.50781,2.04297 -7.12109,5.27734 -10.64453,14.125 -9.09766,22.85156 h 46 c 0.22657,-1.27734 0.34766,-2.57031 0.35938,-3.86328 z m 0,0"
         data-original="#168aa5"
         style="fill:#bdd9e5;fill-opacity:1"
         id="path814" /><path
         inkscape:connector-curvature="0"
         d="m 303.41797,77.335938 c 8.47265,-4.167969 17.72656,-6.511719 27.16015,-6.878907 -15.69531,-47.304687 -63.09375,-76.5 -112.39843,-69.234375 41.17187,5.832032 74.80078,35.859375 85.23828,76.113282 z m 0,0"
         data-original="#168aa5"
         style="fill:#bdd9e5;fill-opacity:1"
         id="path816" /><path
         inkscape:connector-curvature="0"
         d="m 362.4375,70.375 c -4.91016,0.0078 -9.80078,0.554688 -14.58984,1.632812 33.82421,7.425782 56.61718,39.152348 52.85546,73.578128 -3.76562,34.42578 -32.875,60.48047 -67.5039,60.42187 h 29.23828 c 37.16016,-0.40234 67.06641,-30.64062 67.06641,-67.80078 0,-37.16015 -29.90625,-67.39453 -67.06641,-67.80078 z m 0,0"
         data-original="#168aa5"
         style="fill:#bdd9e5;fill-opacity:1"
         id="path818" /><path
         inkscape:connector-curvature="0"
         d="m 331.01953,127.27734 c 12.76172,-16.7539 21.70313,-36.093746 26.19922,-56.667965 -8.53906,0.667969 -16.87109,2.953125 -24.55469,6.730469 3.41016,16.539062 2.84766,33.656246 -1.64453,49.937496 z m 0,0"
         data-original="#168aa5"
         style="fill:#bdd9e5;fill-opacity:1"
         id="path820" /><path
         sodipodi:nodetypes="ssssscssccccssccc"
         inkscape:connector-curvature="0"
         d="m 166.48047,178.75391 c -12.89844,0 -23.35938,10.45703 -23.35938,23.35937 0,12.89844 10.46094,23.35938 23.35938,23.35938 12.90234,0 23.36328,-10.46094 23.36328,-23.35938 0,-12.90234 -10.46094,-23.35937 -23.36328,-23.35937 z m -31.75865,115.69252 c -7.76953,0 -14.07031,6.29687 -14.07031,14.0664 0,7.76954 6.30078,14.07032 14.07031,14.07032 7.76954,0 14.06641,-6.30078 14.06641,-14.07032 -0.008,-7.76562 -6.30469,-14.05468 -14.07031,-14.05078 z m 183.06064,-72.96245 c -7.76953,0 -14.07031,6.30078 -14.07031,14.07031 0,7.76953 6.30078,14.06641 14.07031,14.06641 7.76953,0 14.0664,-6.29688 14.0664,-14.06641 -0.008,-7.76562 -6.30468,-14.05468 -14.0664,-14.05468 z"
         data-original="#d9ecf2"
         style="fill:#26a3b9;fill-opacity:1"
         id="path822" /><g
         style="fill:#bdd9e5"
         id="g838"><path
           sodipodi:nodetypes="ccsccscc"
           inkscape:connector-curvature="0"
           d="m 134.71792,294.46205 c -2.67578,0.004 -5.29297,0.77735 -7.53906,2.22266 4.0664,2.56641 6.53125,7.03516 6.53125,11.84375 0,4.80469 -2.46485,9.27734 -6.53125,11.83984 5.04687,3.21485 11.57812,2.88282 16.26953,-0.83203 4.69531,-3.71484 6.52343,-9.99219 4.55468,-15.64453 -1.96875,-5.65234 -7.30078,-9.4375 -13.28515,-9.43359 z"
           data-original="#bdd9e5"
           style="fill:#168aa5;fill-opacity:1"
           id="path824" /><path
           inkscape:connector-curvature="0"
           d="m 166.48047,178.75391 c -2.5625,0.004 -5.11328,0.42968 -7.53906,1.26562 9.45703,3.22266 15.8125,12.10156 15.8125,22.08984 0,9.98829 -6.35547,18.8711 -15.8125,22.08985 8.76953,3 18.48437,0.52734 24.7539,-6.29688 6.26953,-6.82422 7.91016,-16.71093 4.17969,-25.19531 -3.73047,-8.48437 -12.125,-13.96094 -21.39453,-13.95312 z m 0,0"
           data-original="#bdd9e5"
           style="fill:#168aa5;fill-opacity:1"
           id="path830" /><path
           sodipodi:nodetypes="ccsccccc"
           inkscape:connector-curvature="0"
           d="m 317.78246,221.49961 c -2.67578,0.004 -5.29297,0.77734 -7.54297,2.22656 4.06641,2.5625 6.53516,7.03515 6.53516,11.83984 0,4.8086 -2.46875,9.27735 -6.53516,11.84375 5.05078,3.21485 11.57812,2.87891 16.27344,-0.83594 4.6914,-3.71093 6.51953,-9.99218 4.55078,-15.64453 -1.96485,-5.65234 -7.29688,-9.4375 -13.28125,-9.43359 z"
           data-original="#bdd9e5"
           style="fill:#168aa5;fill-opacity:1"
           id="path834" /></g></g><g
       transform="translate(-58.802525,8.8887535)"
       id="g1049"><path
         id="path822-3"
         style="fill:#d9ecf2;fill-opacity:1;stroke-width:0.73863369"
         data-original="#d9ecf2"
         d="m 286.31521,237.29868 c -10.16776,0 -18.41102,8.24327 -18.41102,18.41102 0,10.16776 8.24326,18.40814 18.41102,18.40814 10.16775,0 18.40813,-8.24038 18.40813,-18.40814 0,-10.16775 -8.24038,-18.41102 -18.40813,-18.41102 z"
         inkscape:connector-curvature="0"
         sodipodi:nodetypes="sssss" /><path
         id="path836-6"
         style="fill:#bdd9e5;fill-opacity:1;stroke-width:0.73863369"
         data-original="#bdd9e5"
         d="m 286.31521,237.29868 c -1.88987,0 -3.76819,0.29141 -5.56861,0.8627 7.64313,2.42941 12.83664,9.52722 12.83664,17.54832 0,8.0211 -5.19351,15.1218 -12.83664,17.54832 6.91315,2.19282 14.46972,0.1183 19.29969,-5.2945 4.82709,-5.4128 6.02737,-13.15691 3.06129,-19.77865 -2.9632,-6.61886 -9.53876,-10.88043 -16.79237,-10.88619 z"
         inkscape:connector-curvature="0"
         sodipodi:nodetypes="ccscccc" /></g><g
       transform="matrix(0.81430376,0,0,0.81430376,-108.19752,45.432972)"
       id="g1055"><path
         sodipodi:nodetypes="sssss"
         inkscape:connector-curvature="0"
         d="m 286.31521,237.29868 c -10.16776,0 -18.41102,8.24327 -18.41102,18.41102 0,10.16776 8.24326,18.40814 18.41102,18.40814 10.16775,0 18.40813,-8.24038 18.40813,-18.40814 0,-10.16775 -8.24038,-18.41102 -18.40813,-18.41102 z"
         data-original="#d9ecf2"
         style="fill:#d9ecf2;fill-opacity:1;stroke-width:0.73863369"
         id="path1051" /><path
         sodipodi:nodetypes="ccscccc"
         inkscape:connector-curvature="0"
         d="m 286.31521,237.29868 c -1.88987,0 -3.76819,0.29141 -5.56861,0.8627 7.64313,2.42941 12.83664,9.52722 12.83664,17.54832 0,8.0211 -5.19351,15.1218 -12.83664,17.54832 6.91315,2.19282 14.46972,0.1183 19.29969,-5.2945 4.82709,-5.4128 6.02737,-13.15691 3.06129,-19.77865 -2.9632,-6.61886 -9.53876,-10.88043 -16.79237,-10.88619 z"
         data-original="#bdd9e5"
         style="fill:#bdd9e5;fill-opacity:1;stroke-width:0.73863369"
         id="path1053" /></g><g
       transform="matrix(0.81430376,0,0,0.81430376,55.145016,87.643937)"
       id="g1055-7"><path
         sodipodi:nodetypes="sssss"
         inkscape:connector-curvature="0"
         d="m 286.31521,237.29868 c -10.16776,0 -18.41102,8.24327 -18.41102,18.41102 0,10.16776 8.24326,18.40814 18.41102,18.40814 10.16775,0 18.40813,-8.24038 18.40813,-18.40814 0,-10.16775 -8.24038,-18.41102 -18.40813,-18.41102 z"
         data-original="#d9ecf2"
         style="fill:#d9ecf2;fill-opacity:1;stroke-width:0.73863369"
         id="path1051-5" /><path
         sodipodi:nodetypes="ccscccc"
         inkscape:connector-curvature="0"
         d="m 286.31521,237.29868 c -1.88987,0 -3.76819,0.29141 -5.56861,0.8627 7.64313,2.42941 12.83664,9.52722 12.83664,17.54832 0,8.0211 -5.19351,15.1218 -12.83664,17.54832 6.91315,2.19282 14.46972,0.1183 19.29969,-5.2945 4.82709,-5.4128 6.02737,-13.15691 3.06129,-19.77865 -2.9632,-6.61886 -9.53876,-10.88043 -16.79237,-10.88619 z"
         data-original="#bdd9e5"
         style="fill:#bdd9e5;fill-opacity:1;stroke-width:0.73863369"
         id="path1053-3" /></g></g></svg>