<?xml version="1.0" encoding="UTF-8" standalone="no"?>
<svg
   xmlns:dc="http://purl.org/dc/elements/1.1/"
   xmlns:cc="http://creativecommons.org/ns#"
   xmlns:rdf="http://www.w3.org/1999/02/22-rdf-syntax-ns#"
   xmlns:svg="http://www.w3.org/2000/svg"
   xmlns="http://www.w3.org/2000/svg"
   xmlns:sodipodi="http://sodipodi.sourceforge.net/DTD/sodipodi-0.dtd"
   xmlns:inkscape="http://www.inkscape.org/namespaces/inkscape"
   version="1.1"
   width="512"
   height="512"
   x="0"
   y="0"
   viewBox="0 0 454 454"
   style="enable-background:new 0 0 512 512"
   xml:space="preserve"
   class=""
   id="svg16"
   sodipodi:docname="701.svg"
   inkscape:version="0.92.4 (5da689c313, 2019-01-14)"
   inkscape:export-filename="/home/whitehole/Downloads/img/7xx/d/701.png"
   inkscape:export-xdpi="96"
   inkscape:export-ydpi="96"><metadata
     id="metadata22"><rdf:RDF><cc:Work
         rdf:about=""><dc:format>image/svg+xml</dc:format><dc:type
           rdf:resource="http://purl.org/dc/dcmitype/StillImage" /><dc:title></dc:title></cc:Work></rdf:RDF></metadata><defs
     id="defs20"><clipPath
       id="clipPath936"
       clipPathUnits="userSpaceOnUse"><path
         id="path938"
         style="fill:#f59a1d;fill-opacity:1;stroke-width:0.98704565"
         data-original="#26a3b9"
         d="m 352.27251,212.90387 c -13.14391,0.004 -26.02948,3.66672 -37.21085,10.5799 -12.92413,-48.54646 -58.45546,-81.11124 -108.57116,-77.66044 -50.11956,3.45079 -90.75422,41.9533 -96.90012,91.81452 -22.397463,-5.49815 -45.959316,2.39051 -60.529802,20.26914 -14.57435,17.87478 -17.550913,42.5432 -7.65346,63.3714 9.901304,20.83207 30.906861,34.10321 53.97134,34.09163 H 352.27251 c 39.34303,0 71.23308,-31.89004 71.23308,-71.23307 0,-39.33916 -31.89005,-71.23308 -71.23308,-71.23308 z m 0,0"
         inkscape:connector-curvature="0" /></clipPath></defs><sodipodi:namedview
     pagecolor="#ffffff"
     bordercolor="#666666"
     borderopacity="1"
     objecttolerance="10"
     gridtolerance="10"
     guidetolerance="10"
     inkscape:pageopacity="0"
     inkscape:pageshadow="2"
     inkscape:window-width="1920"
     inkscape:window-height="1043"
     id="namedview18"
     showgrid="false"
     inkscape:zoom="1.1383002"
     inkscape:cx="-92.1641"
     inkscape:cy="289.36653"
     inkscape:window-x="0"
     inkscape:window-y="0"
     inkscape:window-maximized="1"
     inkscape:current-layer="svg16" /><rect
     style="opacity:0;fill:#ff0017;fill-opacity:1;stroke:none;stroke-width:1.1413691;stroke-linejoin:round;stroke-miterlimit:4;stroke-dasharray:none;stroke-dashoffset:0;stroke-opacity:1"
     id="rect833"
     width="319.0751"
     height="319.96182"
     x="67.493172"
     y="67.23629" /><g
     id="g1138"
     transform="translate(-2.5844727e-6,-5.7950361)"><g
       transform="translate(-1.8358361,-89.661639)"
       id="g986"><g
         transform="matrix(0.7,0,0,0.7,68.1,68.1)"
         id="g14"><g
           style="fill:#f59a1d"
           id="g10" /></g><g
         transform="matrix(0.7,0,0,0.7,68.100003,68.100003)"
         id="g14-5"
         clip-path="url(#clipPath936)"
         style="fill:#f59a1d;fill-opacity:1"><g
           style="fill:#f59a1d;fill-opacity:1"
           id="g10-2" /></g><g
         id="g853"
         transform="matrix(0.69093194,0,0,0.69093194,93.441806,-159.77607)"><path
           id="path837"
           style="fill:#d9ecf2;fill-opacity:1"
           data-original="#26a3b9"
           d="m 320.21815,569.17397 c -13.31641,0.004 -26.37109,3.71484 -37.69922,10.71875 -13.09375,-49.1836 -59.22265,-82.17578 -109.99609,-78.67969 -50.77735,3.49609 -91.945312,42.50391 -98.171874,93.01953 -22.691406,-5.57031 -46.5625,2.42188 -61.324219,20.53516 -14.7656254,18.10937 -17.7812504,43.10156 -7.7539064,64.20312 10.0312504,21.10547 31.3125004,34.55078 54.6796874,34.53906 H 320.21815 c 39.85938,0 72.16797,-32.30859 72.16797,-72.16796 0,-39.85547 -32.30859,-72.16797 -72.16797,-72.16797 z m 0,0"
           inkscape:connector-curvature="0" /><path
           id="path839"
           style="fill:#bdd9e5;fill-opacity:1"
           data-original="#168aa5"
           d="m 320.21815,569.17397 c -5.32812,0.004 -10.64062,0.60547 -15.83984,1.79297 35.88672,8.04687 59.97656,41.80078 55.92187,78.35156 -4.05859,36.55469 -34.96094,64.20312 -71.73437,64.1875 h 31.65234 c 39.85938,0 72.16797,-32.3086 72.16797,-72.16797 0,-39.85547 -32.30859,-72.16797 -72.16797,-72.16797 z m 0,0"
           inkscape:connector-curvature="0" /><path
           id="path841"
           style="fill:#bdd9e5;fill-opacity:1"
           data-original="#168aa5"
           d="m 279.02284,569.30678 c -17.80078,-46.72656 -65.80078,-74.69141 -115.23047,-67.13672 40.39844,5.96875 73.51172,36.91406 85.69922,75.12109 -7.08984,17.48047 -4.85547,37.36329 5.9414,52.83204 0,0 0,-33.95313 27.08594,-50.23438 -0.91015,-3.42578 -1.99609,-6.80078 -3.25781,-10.10937 -0.0625,-0.16797 -0.15234,-0.3125 -0.23828,-0.47266 z m 0,0"
           inkscape:connector-curvature="0" /><g
           id="g851"
           style="fill:#168aa5" /></g></g><g
       transform="matrix(0.703583,0,0,-0.7035821,68.130903,523.18385)"
       id="g1056"><g
         style="fill:#168aa5"
         id="g1042"><path
           sodipodi:nodetypes="cc"
           inkscape:connector-curvature="0"
           d="m 216,218.65234 c 325.42703,293.91078 162.71352,146.95539 0,0 z"
           data-original="#168aa5"
           style="fill:#168aa5"
           id="path1032" /></g><path
         inkscape:connector-curvature="0"
         d="m 160.42969,344.875 h 183.8789 c 7.20313,0 13.03907,5.83984 13.03907,13.03906 0,7.20313 -5.83594,13.04297 -13.03907,13.04297 h -183.8789 c -7.20313,0 -13.04297,-5.83984 -13.04297,-13.04297 0,-7.19922 5.83984,-13.03906 13.04297,-13.03906 z m 160.99609,-52.72656 c 0,7.20312 5.83594,13.03906 13.03906,13.03906 h 51.33594 c 7.19922,0 13.03906,-5.83594 13.03906,-13.03906 0,-7.20313 -5.83984,-13.03907 -13.03906,-13.03907 h -51.33984 c -7.19922,0 -13.03516,5.83985 -13.03516,13.03907 z m -264.679686,0 c 0,7.20312 5.839844,13.03906 13.042968,13.03906 H 280.45312 c 7.19922,0 13.03907,-5.83594 13.03907,-13.03906 0,-7.20313 -5.83985,-13.03907 -13.03907,-13.03907 H 69.785156 c -7.203125,0 -13.042968,5.83594 -13.042968,13.03907 z M 0,357.91406 c 0,7.20313 5.839844,13.04297 13.039062,13.04297 h 92.601568 c 7.19921,0 13.03906,-5.83984 13.03906,-13.04297 0,-7.19922 -5.83985,-13.03906 -13.03906,-13.03906 H 13.046875 C 5.84375,344.87109 0,350.71094 0,357.91406 Z m 385.79687,0 c 0,7.20313 5.83594,13.04297 13.03907,13.04297 h 39.8125 c 7.20312,0 13.03906,-5.83984 13.03906,-13.04297 0,-7.19922 -5.83594,-13.03906 -13.03906,-13.03906 h -39.82032 c -7.19921,0.004 -13.03125,5.84375 -13.03125,13.03906 z m 0,0"
         data-original="#d9ecf2"
         style="fill:#d9ecf2"
         id="path1044" /><path
         inkscape:connector-curvature="0"
         d="m 379.14453,292.15234 c 0,7.20313 -5.83984,13.03907 -13.03906,13.03907 h 19.6914 c 7.19922,0 13.03907,-5.83594 13.03907,-13.03907 0,-7.20312 -5.83985,-13.03906 -13.03907,-13.03906 h -19.6914 c 7.19922,0 13.03906,5.83594 13.03906,13.03906 z m 0,0"
         data-original="#bdd9e5"
         style="fill:#bdd9e5"
         id="path1046" /><path
         inkscape:connector-curvature="0"
         d="m 273.80078,292.15234 c 0,7.20313 -5.83984,13.03907 -13.03906,13.03907 h 19.6914 c 7.19922,0 13.03907,-5.83594 13.03907,-13.03907 0,-7.20312 -5.83985,-13.03906 -13.03907,-13.03906 h -19.6914 c 7.19922,0 13.03906,5.83594 13.03906,13.03906 z m 0,0"
         data-original="#bdd9e5"
         style="fill:#bdd9e5"
         id="path1048" /><path
         inkscape:connector-curvature="0"
         d="m 438.64844,344.875 h -19.69141 c 7.19922,0 13.03906,5.83984 13.03906,13.03906 0,7.20313 -5.83984,13.04297 -13.03906,13.04297 h 19.69141 c 7.20312,0 13.03906,-5.83984 13.03906,-13.04297 0,-7.19922 -5.83594,-13.03906 -13.03906,-13.03906 z m 0,0"
         data-original="#bdd9e5"
         style="fill:#bdd9e5"
         id="path1050" /><path
         inkscape:connector-curvature="0"
         d="m 344.30859,344.875 h -19.69531 c 7.19922,0 13.03906,5.83984 13.03906,13.03906 0,7.20313 -5.83984,13.04297 -13.03906,13.04297 h 19.69141 c 7.19922,0 13.03906,-5.83984 13.03906,-13.04297 0,-7.19922 -5.83984,-13.03906 -13.03906,-13.03906 z m 0,0"
         data-original="#bdd9e5"
         style="fill:#bdd9e5"
         id="path1052" /><path
         inkscape:connector-curvature="0"
         d="M 105.64063,344.875 H 85.949219 c 7.199219,0 13.039062,5.83984 13.039062,13.03906 0,7.20313 -5.839843,13.04297 -13.039062,13.04297 h 19.691411 c 7.19921,0 13.03906,-5.83984 13.03906,-13.04297 0,-7.19922 -5.83985,-13.03906 -13.03906,-13.03906 z m 0,0"
         data-original="#bdd9e5"
         style="fill:#bdd9e5"
         id="path1054" /></g></g></svg>