<?xml version="1.0" encoding="UTF-8" standalone="no"?>
<svg
   xmlns:dc="http://purl.org/dc/elements/1.1/"
   xmlns:cc="http://creativecommons.org/ns#"
   xmlns:rdf="http://www.w3.org/1999/02/22-rdf-syntax-ns#"
   xmlns:svg="http://www.w3.org/2000/svg"
   xmlns="http://www.w3.org/2000/svg"
   xmlns:sodipodi="http://sodipodi.sourceforge.net/DTD/sodipodi-0.dtd"
   xmlns:inkscape="http://www.inkscape.org/namespaces/inkscape"
   version="1.1"
   width="512"
   height="512"
   x="0"
   y="0"
   viewBox="0 0 454 454"
   style="enable-background:new 0 0 512 512"
   xml:space="preserve"
   class=""
   id="svg16"
   sodipodi:docname="721.svg"
   inkscape:export-filename="/home/whitehole/Downloads/img/7xx/d/721.png"
   inkscape:export-xdpi="96"
   inkscape:export-ydpi="96"
   inkscape:version="0.92.4 (5da689c313, 2019-01-14)"><metadata
     id="metadata22"><rdf:RDF><cc:Work
         rdf:about=""><dc:format>image/svg+xml</dc:format><dc:type
           rdf:resource="http://purl.org/dc/dcmitype/StillImage" /><dc:title></dc:title></cc:Work></rdf:RDF></metadata><defs
     id="defs20"><clipPath
       clipPathUnits="userSpaceOnUse"
       id="clipPath936"><path
         inkscape:connector-curvature="0"
         d="m 352.27251,212.90387 c -13.14391,0.004 -26.02948,3.66672 -37.21085,10.5799 -12.92413,-48.54646 -58.45546,-81.11124 -108.57116,-77.66044 -50.11956,3.45079 -90.75422,41.9533 -96.90012,91.81452 -22.397463,-5.49815 -45.959316,2.39051 -60.529802,20.26914 -14.57435,17.87478 -17.550913,42.5432 -7.65346,63.3714 9.901304,20.83207 30.906861,34.10321 53.97134,34.09163 H 352.27251 c 39.34303,0 71.23308,-31.89004 71.23308,-71.23307 0,-39.33916 -31.89005,-71.23308 -71.23308,-71.23308 z m 0,0"
         data-original="#26a3b9"
         style="fill:#f59a1d;fill-opacity:1;stroke-width:0.98704565"
         id="path938" /></clipPath></defs><sodipodi:namedview
     pagecolor="#ffffff"
     bordercolor="#666666"
     borderopacity="1"
     objecttolerance="10"
     gridtolerance="10"
     guidetolerance="10"
     inkscape:pageopacity="0"
     inkscape:pageshadow="2"
     inkscape:window-width="1920"
     inkscape:window-height="1043"
     id="namedview18"
     showgrid="false"
     inkscape:zoom="0.83972969"
     inkscape:cx="208.08393"
     inkscape:cy="276.08411"
     inkscape:window-x="0"
     inkscape:window-y="0"
     inkscape:window-maximized="1"
     inkscape:current-layer="svg16" /><g
     transform="matrix(0.7,0,0,0.7,68.10000000000002,68.10000000000002)"
     id="g14"><path
       d="m375.808594 227c0 82.183594-66.625 148.808594-148.808594 148.808594s-148.808594-66.625-148.808594-148.808594 66.625-148.808594 148.808594-148.808594 148.808594 66.625 148.808594 148.808594zm0 0"
       fill="#fabe02"
       data-original="#fabe02"
       style=""
       id="path2" /><g
       fill="#f59a1d"
       id="g10"><path
         d="m227 78.199219c-5.8125.011719-11.621094.359375-17.390625 1.042969 74.882813 8.875 131.289063 72.363281 131.289063 147.769531s-56.40625 138.890625-131.289063 147.765625c54.871094 6.46875 108.808594-17.996094 140.085937-63.539063 31.277344-45.546875 34.746094-104.671875 9.003907-153.5625-25.738281-48.886719-76.449219-79.488281-131.699219-79.476562zm0 0"
         fill="#f59a1d"
         data-original="#f59a1d"
         style=""
         id="path4" /><path
         d="m 132.42256,155.3496 c -0.66851,-2.09109 -0.31313,-4.37658 0.9589,-6.16777 1.16431,-1.63866 2.3676,-3.24451 3.61238,-4.82244 2.39231,-3.03529 6.79358,-3.55678 9.83003,-1.16074 3.03528,2.39233 3.55677,6.79359 1.16072,9.83003 -1.0982,1.39274 -2.15979,2.81083 -3.1836,4.25801 -1.53559,2.16458 -4.16444,3.27208 -6.78625,2.86257 -2.62183,-0.40952 -4.78937,-2.26763 -5.59218,-4.79966 z m 0,0"
         data-original="#f59a1d"
         style="fill:#f59a1d"
         id="path6"
         inkscape:connector-curvature="0" /><path
         d="m 151.93805,134.27754 c -0.8515,-2.71327 0.0248,-5.67402 2.21402,-7.49102 11.67671,-9.67872 25.13383,-16.9848 39.61405,-21.50045 3.68976,-1.15795 7.61689,0.89307 8.77484,4.58282 1.15795,3.68976 -0.89306,7.61688 -4.58283,8.77484 -12.74714,3.97181 -24.59371,10.39576 -34.87483,18.91184 -1.79416,1.48422 -4.2133,1.9814 -6.45141,1.32045 -2.23693,-0.65726 -3.99653,-2.38951 -4.69852,-4.6134 z m 0,0"
         data-original="#f59a1d"
         style="fill:#f59a1d"
         id="path8"
         inkscape:connector-curvature="0" /></g><path
       d="m 227,50.164062 c -3.86719,0 -7,-3.132812 -7,-7 V 7 c 0,-3.867188 3.13281,-7 7,-7 3.86719,0 7,3.132812 7,7 v 36.164062 c 0,3.867188 -3.13281,7 -7,7 z m -88.39844,23.691407 c 3.34766,-1.933594 4.4961,-6.214844 2.5625,-9.5625 L 123.07813,32.972656 c -1.94532,-3.320312 -6.20313,-4.445312 -9.53516,-2.523437 -3.33594,1.925781 -4.48828,6.179687 -2.58594,9.523437 l 18.08203,31.320313 c 0.92969,1.609375 2.45703,2.78125 4.25,3.265625 1.79688,0.480468 3.70703,0.226562 5.31641,-0.703125 z M 73.855469,138.60156 c 1.933593,-3.35156 0.785156,-7.63281 -2.5625,-9.5664 L 39.972656,110.95313 c -2.167968,-1.27344 -4.847656,-1.28516 -7.027344,-0.0312 -2.179687,1.25 -3.519531,3.57421 -3.511718,6.08593 0.0039,2.51172 1.355468,4.82813 3.539062,6.06641 l 31.320313,18.08594 c 1.605469,0.92968 3.519531,1.18359 5.3125,0.69922 1.792969,-0.48047 3.324219,-1.65235 4.25,-3.26172 z m 315.851561,2.5625 31.32031,-18.08593 c 3.32032,-1.94532 4.44532,-6.20313 2.52344,-9.53516 -1.92578,-3.33594 -6.17969,-4.48828 -9.52344,-2.58594 l -31.32031,18.08203 c -2.18359,1.24219 -3.53515,3.5586 -3.53906,6.07032 -0.004,2.51171 1.33594,4.83593 3.51172,6.08593 2.17969,1.25 4.85937,1.23828 7.02734,-0.0312 z M 325,71.292969 343.08594,39.972656 c 1.89843,-3.34375 0.74609,-7.597656 -2.58594,-9.523437 -3.33203,-1.921875 -7.59375,-0.796875 -9.53906,2.523437 L 312.875,64.292969 c -1.26953,2.167969 -1.28125,4.847656 -0.0312,7.027343 1.25391,2.175782 3.57422,3.515626 6.08594,3.511719 2.51172,-0.0039 4.82812,-1.355469 6.07031,-3.539062 z M 454,227 c 0,-3.86719 -3.13281,-7 -7,-7 h -36.16406 c -3.86719,0 -7,3.13281 -7,7 0,3.86719 3.13281,7 7,7 H 447 c 3.86719,0 7,-3.13281 7,-7 z m -403.835938,0 c 0,-3.86719 -3.132812,-7 -7,-7 H 7 c -3.867188,0 -7,3.13281 -7,7 0,3.86719 3.132812,7 7,7 h 36.164062 c 3.867188,0 7,-3.13281 7,-7 z"
       data-original="#fabe02"
       style="fill:#fabe02"
       id="path12"
       inkscape:connector-curvature="0"
       sodipodi:nodetypes="sssssssccccccccccccccccccccccccsccccccccscssssssssssssss" /></g><g
     transform="matrix(0.7,0,0,0.7,68.100003,68.100003)"
     id="g14-5"
     clip-path="url(#clipPath936)"
     style="fill:#f59a1d;fill-opacity:1"><path
       inkscape:connector-curvature="0"
       d="m 375.80859,227 c 0,82.18359 -66.625,148.80859 -148.80859,148.80859 -82.18359,0 -148.808594,-66.625 -148.808594,-148.80859 0,-82.18359 66.625004,-148.808594 148.808594,-148.808594 82.18359,0 148.80859,66.625004 148.80859,148.808594 z m 0,0"
       data-original="#fabe02"
       style="fill:#f59a1d;fill-opacity:1"
       id="path2-6" /><g
       style="fill:#f59a1d;fill-opacity:1"
       id="g10-2"><path
         inkscape:connector-curvature="0"
         d="m 227,78.199219 c -5.8125,0.01172 -11.62109,0.359375 -17.39063,1.042969 74.88282,8.875 131.28907,72.363282 131.28907,147.769532 0,75.40625 -56.40625,138.89062 -131.28907,147.76562 54.8711,6.46875 108.8086,-17.99609 140.08594,-63.53906 31.27735,-45.54687 34.7461,-104.67187 9.00391,-153.5625 C 332.96094,108.78906 282.25,78.1875 227,78.199219 Z m 0,0"
         data-original="#f59a1d"
         style="fill:#f59a1d;fill-opacity:1"
         id="path4-9" /><path
         d="m 132.42256,155.3496 c -0.66851,-2.09109 -0.31313,-4.37658 0.9589,-6.16777 1.16431,-1.63866 2.3676,-3.24451 3.61238,-4.82244 2.39231,-3.03529 6.79358,-3.55678 9.83003,-1.16074 3.03528,2.39233 3.55677,6.79359 1.16072,9.83003 -1.0982,1.39274 -2.15979,2.81083 -3.1836,4.25801 -1.53559,2.16458 -4.16444,3.27208 -6.78625,2.86257 -2.62183,-0.40952 -4.78937,-2.26763 -5.59218,-4.79966 z m 0,0"
         data-original="#f59a1d"
         style="fill:#f59a1d;fill-opacity:1"
         id="path6-1"
         inkscape:connector-curvature="0" /><path
         d="m 151.93805,134.27754 c -0.8515,-2.71327 0.0248,-5.67402 2.21402,-7.49102 11.67671,-9.67872 25.13383,-16.9848 39.61405,-21.50045 3.68976,-1.15795 7.61689,0.89307 8.77484,4.58282 1.15795,3.68976 -0.89306,7.61688 -4.58283,8.77484 -12.74714,3.97181 -24.59371,10.39576 -34.87483,18.91184 -1.79416,1.48422 -4.2133,1.9814 -6.45141,1.32045 -2.23693,-0.65726 -3.99653,-2.38951 -4.69852,-4.6134 z m 0,0"
         data-original="#f59a1d"
         style="fill:#f59a1d;fill-opacity:1"
         id="path8-2"
         inkscape:connector-curvature="0" /></g><path
       d="m 227,50.164062 c -3.86719,0 -7,-3.132812 -7,-7 V 7 c 0,-3.867188 3.13281,-7 7,-7 3.86719,0 7,3.132812 7,7 v 36.164062 c 0,3.867188 -3.13281,7 -7,7 z m -88.39844,23.691407 c 3.34766,-1.933594 4.4961,-6.214844 2.5625,-9.5625 L 123.07813,32.972656 c -1.94532,-3.320312 -6.20313,-4.445312 -9.53516,-2.523437 -3.33594,1.925781 -4.48828,6.179687 -2.58594,9.523437 l 18.08203,31.320313 c 0.92969,1.609375 2.45703,2.78125 4.25,3.265625 1.79688,0.480468 3.70703,0.226562 5.31641,-0.703125 z M 73.855469,138.60156 c 1.933593,-3.35156 0.785156,-7.63281 -2.5625,-9.5664 L 39.972656,110.95313 c -2.167968,-1.27344 -4.847656,-1.28516 -7.027344,-0.0312 -2.179687,1.25 -3.519531,3.57421 -3.511718,6.08593 0.0039,2.51172 1.355468,4.82813 3.539062,6.06641 l 31.320313,18.08594 c 1.605469,0.92968 3.519531,1.18359 5.3125,0.69922 1.792969,-0.48047 3.324219,-1.65235 4.25,-3.26172 z m 315.851561,2.5625 31.32031,-18.08593 c 3.32032,-1.94532 4.44532,-6.20313 2.52344,-9.53516 -1.92578,-3.33594 -6.17969,-4.48828 -9.52344,-2.58594 l -31.32031,18.08203 c -2.18359,1.24219 -3.53515,3.5586 -3.53906,6.07032 -0.004,2.51171 1.33594,4.83593 3.51172,6.08593 2.17969,1.25 4.85937,1.23828 7.02734,-0.0312 z M 325,71.292969 343.08594,39.972656 c 1.89843,-3.34375 0.74609,-7.597656 -2.58594,-9.523437 -3.33203,-1.921875 -7.59375,-0.796875 -9.53906,2.523437 L 312.875,64.292969 c -1.26953,2.167969 -1.28125,4.847656 -0.0312,7.027343 1.25391,2.175782 3.57422,3.515626 6.08594,3.511719 2.51172,-0.0039 4.82812,-1.355469 6.07031,-3.539062 z M 454,227 c 0,-3.86719 -3.13281,-7 -7,-7 h -36.16406 c -3.86719,0 -7,3.13281 -7,7 0,3.86719 3.13281,7 7,7 H 447 c 3.86719,0 7,-3.13281 7,-7 z m -403.835938,0 c 0,-3.86719 -3.132812,-7 -7,-7 H 7 c -3.867188,0 -7,3.13281 -7,7 0,3.86719 3.132812,7 7,7 h 36.164062 c 3.867188,0 7,-3.13281 7,-7 z"
       data-original="#fabe02"
       style="fill:#f59a1d;fill-opacity:1"
       id="path12-7"
       inkscape:connector-curvature="0"
       sodipodi:nodetypes="sssssssccccccccccccccccccccccccsccccccccscssssssssssssss" /></g><g
     id="g853"
     transform="matrix(0.69093194,0,0,0.69093194,93.441806,-159.77607)"><path
       id="path837"
       style="fill:#88b3bd;fill-opacity:1"
       data-original="#26a3b9"
       d="m 320.21815,569.17397 c -13.31641,0.004 -26.37109,3.71484 -37.69922,10.71875 -13.09375,-49.1836 -59.22265,-82.17578 -109.99609,-78.67969 -50.77735,3.49609 -91.945312,42.50391 -98.171874,93.01953 -22.691406,-5.57031 -46.5625,2.42188 -61.324219,20.53516 -14.7656254,18.10937 -17.7812504,43.10156 -7.7539064,64.20312 10.0312504,21.10547 31.3125004,34.55078 54.6796874,34.53906 H 320.21815 c 39.85938,0 72.16797,-32.30859 72.16797,-72.16796 0,-39.85547 -32.30859,-72.16797 -72.16797,-72.16797 z m 0,0"
       inkscape:connector-curvature="0" /><path
       id="path839"
       style="fill:#7aa0aa;fill-opacity:1"
       data-original="#168aa5"
       d="m 320.21815,569.17397 c -5.32812,0.004 -10.64062,0.60547 -15.83984,1.79297 35.88672,8.04687 59.97656,41.80078 55.92187,78.35156 -4.05859,36.55469 -34.96094,64.20312 -71.73437,64.1875 h 31.65234 c 39.85938,0 72.16797,-32.3086 72.16797,-72.16797 0,-39.85547 -32.30859,-72.16797 -72.16797,-72.16797 z m 0,0"
       inkscape:connector-curvature="0" /><path
       id="path841"
       style="fill:#7aa0aa;fill-opacity:1"
       data-original="#168aa5"
       d="m 279.02284,569.30678 c -17.80078,-46.72656 -65.80078,-74.69141 -115.23047,-67.13672 40.39844,5.96875 73.51172,36.91406 85.69922,75.12109 -7.08984,17.48047 -4.85547,37.36329 5.9414,52.83204 0,0 0,-33.95313 27.08594,-50.23438 -0.91015,-3.42578 -1.99609,-6.80078 -3.25781,-10.10937 -0.0625,-0.16797 -0.15234,-0.3125 -0.23828,-0.47266 z m 0,0"
       inkscape:connector-curvature="0" /><g
       id="g851"
       style="fill:#168aa5" /></g><g
     id="g896"
     transform="matrix(0.69464481,0,0,0.69464481,67.194143,81.385705)"><g
       id="g866"
       style="fill:#fabe02" /><path
       id="path870"
       class=""
       style="fill:#7aa0aa;fill-opacity:1"
       data-original="#168aa5"
       d="m 53.871094,307.96875 c 9.390625,14.09375 25.160156,22.60937 42.09375,22.73828 H 271.66797 c 7.28906,0 13.19922,-5.91015 13.19922,-13.19922 0,-7.29297 -5.91016,-13.20312 -13.19922,-13.20312 H 62.984375 c -3.398437,0 -6.664063,1.3125 -9.113281,3.66406 z m 0,0"
       inkscape:connector-curvature="0" /><path
       id="path878"
       style="fill:#d9ecf2"
       data-original="#d9ecf2"
       d="M 257.44922,330.70703 H 48.761719 c -7.292969,0 -13.203125,-5.91016 -13.203125,-13.19922 0,-7.29297 5.910156,-13.20312 13.203125,-13.20312 H 257.44922 c 7.28906,0 13.19922,5.91015 13.19922,13.20312 0,7.28906 -5.91016,13.19922 -13.19922,13.19922 z m 114.0664,-13.19922 c 0,-7.29297 -5.91015,-13.20312 -13.19921,-13.20312 h -42.07032 c -7.28906,0 -13.19922,5.91015 -13.19922,13.20312 0,7.28906 5.91016,13.19922 13.19922,13.19922 h 42.0625 c 3.50391,0.004 6.86719,-1.38281 9.34766,-3.86328 2.48047,-2.47656 3.875,-5.83984 3.87109,-9.34375 z m 68.69922,0 c 0,-7.29297 -5.91015,-13.20312 -13.19922,-13.20312 h -14.42187 c -7.29297,0 -13.20313,5.91015 -13.20313,13.20312 0,7.28906 5.91016,13.19922 13.20313,13.19922 h 14.42187 c 7.29297,-0.004 13.19922,-5.91797 13.19532,-13.20703 z m -89.73047,58.20313 c 0,-7.28907 -5.91015,-13.19922 -13.19921,-13.19922 H 140.42188 c -7.29297,0 -13.20313,5.91015 -13.20313,13.19922 0,7.28906 5.91016,13.19922 13.20313,13.19922 h 196.85546 c 7.29297,0.004 13.20703,-5.90625 13.20703,-13.19922 z m -117.39062,58.21484 c 0,-7.28906 -5.91016,-13.19922 -13.20313,-13.19922 H 66.726562 c -7.289062,0 -13.199218,5.91016 -13.199218,13.19922 0,7.28906 5.910156,13.19922 13.199218,13.19922 H 219.88281 c 7.29297,0.008 13.21094,-5.90625 13.21094,-13.19922 z m 166.91797,0 c 0,-7.28906 -5.91016,-13.19922 -13.19922,-13.19922 h -99.06641 c -7.28906,0 -13.19922,5.91016 -13.19922,13.19922 0,7.28906 5.91016,13.19922 13.19922,13.19922 h 99.05469 c 7.29297,0.008 13.21094,-5.90234 13.21094,-13.19922 z m 57.48047,-58.21484 c 0,-7.28907 -5.91016,-13.19922 -13.19922,-13.19922 h -51.52344 c -7.29297,0 -13.20312,5.91015 -13.20312,13.19922 0,7.28906 5.91015,13.19922 13.20312,13.19922 h 51.51172 c 7.29297,0.004 13.20703,-5.90625 13.20703,-13.19922 z m -359.093752,0 c 0,-7.28907 -5.910157,-13.19922 -13.199219,-13.19922 h -72 C 5.910156,362.51172 0,368.42187 0,375.71094 0,383 5.910156,388.91016 13.199219,388.91016 h 72 c 7.289062,0 13.195312,-5.91016 13.195312,-13.19922 z m 0,0"
       inkscape:connector-curvature="0" /><path
       id="path880"
       style="fill:#bdd9e5"
       data-original="#bdd9e5"
       d="m 319.70312,388.91797 h 17.57422 c 7.28907,0 13.19922,-5.91016 13.19922,-13.19922 0,-7.28906 -5.91015,-13.19922 -13.19922,-13.19922 h -17.57422 c 7.29297,0 13.19922,5.91016 13.19922,13.19922 0,7.28906 -5.90625,13.19922 -13.19922,13.19922 z m 0,0"
       inkscape:connector-curvature="0" /><path
       id="path882"
       style="fill:#bdd9e5"
       data-original="#bdd9e5"
       d="m 422.64062,317.5 c -0.0156,6.66797 -5.01171,12.27344 -11.63671,13.04687 0.51953,0.0859 1.04687,0.13672 1.57031,0.16016 H 427 c 7.28906,0 13.19922,-5.91016 13.19922,-13.19922 0,-7.29297 -5.91016,-13.20312 -13.19922,-13.20312 h -14.42578 c -0.52344,0.0234 -1.05078,0.0781 -1.57031,0.16015 6.61718,0.77344 11.61328,6.3711 11.63671,13.03516 z m 0,0"
       inkscape:connector-curvature="0" /><path
       id="path884"
       style="fill:#bdd9e5"
       data-original="#bdd9e5"
       d="M 67.617188,388.91797 H 85.1875 c 7.289062,0 13.199219,-5.91016 13.199219,-13.19922 0,-7.28906 -5.910157,-13.19922 -13.199219,-13.19922 H 67.617188 c 7.289062,0 13.199218,5.91016 13.199218,13.19922 0,7.28906 -5.910156,13.19922 -13.199218,13.19922 z m 0,0"
       inkscape:connector-curvature="0" /><path
       inkscape:connector-curvature="0"
       d="m 366.42132,317.5 c 0,7.28906 -5.91016,13.19922 -13.20313,13.19922 h 17.57422 c 7.28906,0 13.19922,-5.91016 13.19922,-13.19922 0,-7.29297 -5.91016,-13.20313 -13.19922,-13.20313 h -17.57422 c 7.29297,0 13.20313,5.91016 13.20313,13.20313 z m 0,0"
       data-original="#bdd9e5"
       style="fill:#7aa0aa;fill-opacity:1"
       id="path1005" /><path
       id="path886"
       style="fill:#bdd9e5"
       data-original="#bdd9e5"
       d="m 353.92969,317.5 c 0,7.28906 -5.91016,13.19922 -13.20313,13.19922 h 17.57422 c 7.28906,0 13.19922,-5.91016 13.19922,-13.19922 0,-7.29297 -5.91016,-13.20313 -13.19922,-13.20313 h -17.57422 c 7.29297,0 13.20313,5.91016 13.20313,13.20313 z m 0,0"
       inkscape:connector-curvature="0" /><path
       id="path888"
       style="fill:#bdd9e5"
       data-original="#bdd9e5"
       d="m 444.28125,362.50391 h -17.55469 c 7.29297,0 13.20313,5.91015 13.20313,13.19921 0,7.28907 -5.91016,13.19922 -13.20313,13.19922 h 17.57422 c 7.28906,0 13.19922,-5.91015 13.19922,-13.19922 0,-7.28906 -5.91016,-13.19921 -13.19922,-13.19921 z m 0,0"
       inkscape:connector-curvature="0" /><path
       id="path890"
       style="fill:#bdd9e5"
       data-original="#bdd9e5"
       d="m 253.08594,317.5 c 0,7.28906 -5.91016,13.19922 -13.20313,13.19922 h 17.56641 c 7.28906,0 13.19922,-5.91016 13.19922,-13.19922 0,-7.29297 -5.91016,-13.20313 -13.19922,-13.20313 H 239.875 c 7.29297,-0.004 13.21094,5.91016 13.21094,13.20313 z m 0,0"
       inkscape:connector-curvature="0" /><path
       id="path892"
       style="fill:#bdd9e5"
       data-original="#bdd9e5"
       d="m 386.80469,420.71875 h -17.57422 c 7.29297,0 13.20312,5.91016 13.20312,13.19922 0,7.28906 -5.91015,13.19922 -13.20312,13.19922 h 17.57422 c 7.28906,0 13.19922,-5.91016 13.19922,-13.19922 0,-7.28906 -5.91016,-13.19922 -13.19922,-13.19922 z m 0,0"
       inkscape:connector-curvature="0" /><path
       id="path894"
       style="fill:#bdd9e5"
       data-original="#bdd9e5"
       d="m 219.88281,420.71875 h -17.55469 c 7.28907,0 13.19922,5.91016 13.19922,13.19922 0,7.28906 -5.91015,13.19922 -13.19922,13.19922 h 17.57032 c 7.29297,0 13.20312,-5.91016 13.20312,-13.19922 0,-7.28906 -5.91015,-13.19922 -13.20312,-13.19922 z m 0,0"
       inkscape:connector-curvature="0" /></g></svg>