<?xml version="1.0" encoding="UTF-8" standalone="no"?>
<svg
   xmlns:dc="http://purl.org/dc/elements/1.1/"
   xmlns:cc="http://creativecommons.org/ns#"
   xmlns:rdf="http://www.w3.org/1999/02/22-rdf-syntax-ns#"
   xmlns:svg="http://www.w3.org/2000/svg"
   xmlns="http://www.w3.org/2000/svg"
   xmlns:sodipodi="http://sodipodi.sourceforge.net/DTD/sodipodi-0.dtd"
   xmlns:inkscape="http://www.inkscape.org/namespaces/inkscape"
   version="1.1"
   width="512"
   height="512"
   x="0"
   y="0"
   viewBox="0 0 454 454"
   style="enable-background:new 0 0 512 512"
   xml:space="preserve"
   class=""
   id="svg16"
   sodipodi:docname="711.svg"
   inkscape:version="0.92.4 (5da689c313, 2019-01-14)"
   inkscape:export-filename="/home/whitehole/Downloads/img/7xx/d/762.png"
   inkscape:export-xdpi="96"
   inkscape:export-ydpi="96"><metadata
     id="metadata22"><rdf:RDF><cc:Work
         rdf:about=""><dc:format>image/svg+xml</dc:format><dc:type
           rdf:resource="http://purl.org/dc/dcmitype/StillImage" /><dc:title></dc:title></cc:Work></rdf:RDF></metadata><defs
     id="defs20"><clipPath
       id="clipPath936"
       clipPathUnits="userSpaceOnUse"><path
         id="path938"
         style="fill:#f59a1d;fill-opacity:1;stroke-width:0.98704565"
         data-original="#26a3b9"
         d="m 352.27251,212.90387 c -13.14391,0.004 -26.02948,3.66672 -37.21085,10.5799 -12.92413,-48.54646 -58.45546,-81.11124 -108.57116,-77.66044 -50.11956,3.45079 -90.75422,41.9533 -96.90012,91.81452 -22.397463,-5.49815 -45.959316,2.39051 -60.529802,20.26914 -14.57435,17.87478 -17.550913,42.5432 -7.65346,63.3714 9.901304,20.83207 30.906861,34.10321 53.97134,34.09163 H 352.27251 c 39.34303,0 71.23308,-31.89004 71.23308,-71.23307 0,-39.33916 -31.89005,-71.23308 -71.23308,-71.23308 z m 0,0"
         inkscape:connector-curvature="0" /></clipPath></defs><sodipodi:namedview
     pagecolor="#ffffff"
     bordercolor="#666666"
     borderopacity="1"
     objecttolerance="10"
     gridtolerance="10"
     guidetolerance="10"
     inkscape:pageopacity="0"
     inkscape:pageshadow="2"
     inkscape:window-width="1920"
     inkscape:window-height="1043"
     id="namedview18"
     showgrid="false"
     inkscape:zoom="1.1383002"
     inkscape:cx="9.7309079"
     inkscape:cy="289.36653"
     inkscape:window-x="0"
     inkscape:window-y="0"
     inkscape:window-maximized="1"
     inkscape:current-layer="svg16" /><rect
     style="opacity:0;fill:#ff0017;fill-opacity:1;stroke:none;stroke-width:1.1413691;stroke-linejoin:round;stroke-miterlimit:4;stroke-dasharray:none;stroke-dashoffset:0;stroke-opacity:1"
     id="rect833"
     width="319.0751"
     height="319.96182"
     x="67.493172"
     y="67.23629" /><g
     id="g1056"
     transform="matrix(0.703583,0,0,0.70358122,68.1309,-1.4700542)"><g
       id="g1042"
       style="fill:#168aa5" /><path
       id="path1044"
       style="fill:#d9ecf2"
       data-original="#d9ecf2"
       d="m 160.42969,344.875 h 183.8789 c 7.20313,0 13.03907,5.83984 13.03907,13.03906 0,7.20313 -5.83594,13.04297 -13.03907,13.04297 h -183.8789 c -7.20313,0 -13.04297,-5.83984 -13.04297,-13.04297 0,-7.19922 5.83984,-13.03906 13.04297,-13.03906 z m 160.99609,-52.72656 c 0,7.20312 5.83594,13.03906 13.03906,13.03906 h 51.33594 c 7.19922,0 13.03906,-5.83594 13.03906,-13.03906 0,-7.20313 -5.83984,-13.03907 -13.03906,-13.03907 h -51.33984 c -7.19922,0 -13.03516,5.83985 -13.03516,13.03907 z m -264.679686,0 c 0,7.20312 5.839844,13.03906 13.042968,13.03906 H 280.45312 c 7.19922,0 13.03907,-5.83594 13.03907,-13.03906 0,-7.20313 -5.83985,-13.03907 -13.03907,-13.03907 H 69.785156 c -7.203125,0 -13.042968,5.83594 -13.042968,13.03907 z M 0,357.91406 c 0,7.20313 5.839844,13.04297 13.039062,13.04297 h 92.601568 c 7.19921,0 13.03906,-5.83984 13.03906,-13.04297 0,-7.19922 -5.83985,-13.03906 -13.03906,-13.03906 H 13.046875 C 5.84375,344.87109 0,350.71094 0,357.91406 Z m 385.79687,0 c 0,7.20313 5.83594,13.04297 13.03907,13.04297 h 39.8125 c 7.20312,0 13.03906,-5.83984 13.03906,-13.04297 0,-7.19922 -5.83594,-13.03906 -13.03906,-13.03906 h -39.82032 c -7.19921,0.004 -13.03125,5.84375 -13.03125,13.03906 z m 0,0"
       inkscape:connector-curvature="0" /><path
       id="path1046"
       style="fill:#bdd9e5"
       data-original="#bdd9e5"
       d="m 379.14453,292.15234 c 0,7.20313 -5.83984,13.03907 -13.03906,13.03907 h 19.6914 c 7.19922,0 13.03907,-5.83594 13.03907,-13.03907 0,-7.20312 -5.83985,-13.03906 -13.03907,-13.03906 h -19.6914 c 7.19922,0 13.03906,5.83594 13.03906,13.03906 z m 0,0"
       inkscape:connector-curvature="0" /><path
       id="path1048"
       style="fill:#bdd9e5"
       data-original="#bdd9e5"
       d="m 273.80078,292.15234 c 0,7.20313 -5.83984,13.03907 -13.03906,13.03907 h 19.6914 c 7.19922,0 13.03907,-5.83594 13.03907,-13.03907 0,-7.20312 -5.83985,-13.03906 -13.03907,-13.03906 h -19.6914 c 7.19922,0 13.03906,5.83594 13.03906,13.03906 z m 0,0"
       inkscape:connector-curvature="0" /><path
       id="path1050"
       style="fill:#bdd9e5"
       data-original="#bdd9e5"
       d="m 438.64844,344.875 h -19.69141 c 7.19922,0 13.03906,5.83984 13.03906,13.03906 0,7.20313 -5.83984,13.04297 -13.03906,13.04297 h 19.69141 c 7.20312,0 13.03906,-5.83984 13.03906,-13.04297 0,-7.19922 -5.83594,-13.03906 -13.03906,-13.03906 z m 0,0"
       inkscape:connector-curvature="0" /><path
       id="path1052"
       style="fill:#bdd9e5"
       data-original="#bdd9e5"
       d="m 344.30859,344.875 h -19.69531 c 7.19922,0 13.03906,5.83984 13.03906,13.03906 0,7.20313 -5.83984,13.04297 -13.03906,13.04297 h 19.69141 c 7.19922,0 13.03906,-5.83984 13.03906,-13.04297 0,-7.19922 -5.83984,-13.03906 -13.03906,-13.03906 z m 0,0"
       inkscape:connector-curvature="0" /><path
       id="path1054"
       style="fill:#bdd9e5"
       data-original="#bdd9e5"
       d="M 105.64063,344.875 H 85.949219 c 7.199219,0 13.039062,5.83984 13.039062,13.03906 0,7.20313 -5.839843,13.04297 -13.039062,13.04297 h 19.691411 c 7.19921,0 13.03906,-5.83984 13.03906,-13.04297 0,-7.19922 -5.83985,-13.03906 -13.03906,-13.03906 z m 0,0"
       inkscape:connector-curvature="0" /></g></svg>