<?xml version="1.0" encoding="UTF-8" standalone="no"?>
<svg
   xmlns:dc="http://purl.org/dc/elements/1.1/"
   xmlns:cc="http://creativecommons.org/ns#"
   xmlns:rdf="http://www.w3.org/1999/02/22-rdf-syntax-ns#"
   xmlns:svg="http://www.w3.org/2000/svg"
   xmlns="http://www.w3.org/2000/svg"
   xmlns:sodipodi="http://sodipodi.sourceforge.net/DTD/sodipodi-0.dtd"
   xmlns:inkscape="http://www.inkscape.org/namespaces/inkscape"
   version="1.1"
   width="512"
   height="512"
   x="0"
   y="0"
   viewBox="0 0 454 454"
   style="enable-background:new 0 0 512 512"
   xml:space="preserve"
   class=""
   id="svg16"
   sodipodi:docname="615.svg"
   inkscape:version="0.92.4 (5da689c313, 2019-01-14)"
   inkscape:export-filename="/home/whitehole/Downloads/img/800.png"
   inkscape:export-xdpi="96"
   inkscape:export-ydpi="96"><metadata
     id="metadata22"><rdf:RDF><cc:Work
         rdf:about=""><dc:format>image/svg+xml</dc:format><dc:type
           rdf:resource="http://purl.org/dc/dcmitype/StillImage" /><dc:title></dc:title></cc:Work></rdf:RDF></metadata><defs
     id="defs20" /><sodipodi:namedview
     pagecolor="#ffffff"
     bordercolor="#666666"
     borderopacity="1"
     objecttolerance="10"
     gridtolerance="10"
     guidetolerance="10"
     inkscape:pageopacity="0"
     inkscape:pageshadow="2"
     inkscape:window-width="1920"
     inkscape:window-height="1043"
     id="namedview18"
     showgrid="false"
     inkscape:zoom="1.3037281"
     inkscape:cx="144.82611"
     inkscape:cy="291.38631"
     inkscape:window-x="0"
     inkscape:window-y="0"
     inkscape:window-maximized="1"
     inkscape:current-layer="svg16" /><rect
     style="opacity:0;fill:#ff0017;fill-opacity:1;stroke:none;stroke-width:1.1413691;stroke-linejoin:round;stroke-miterlimit:4;stroke-dasharray:none;stroke-dashoffset:0;stroke-opacity:1"
     id="rect833"
     width="319.0751"
     height="319.96182"
     x="67.422546"
     y="67.23629" /><g
     id="g844"
     transform="matrix(0.70694082,0,0,0.70694082,68.0599,88.7145)"><path
       id="path812"
       class=""
       style="fill:#d9ecf2"
       data-original="#d9ecf2"
       d="M 45.601562,108.53125 C 42.128906,81.316406 55.53125,54.71875 79.46875,41.3125 c 23.94141,-13.40625 53.625,-10.933594 75.01562,6.25 23.67969,-35.027344 65.69141,-52.921875 107.35547,-45.722656 41.66407,7.199218 75.23828,38.152344 85.79297,79.09375 26.20703,-12.816406 57.58985,-8.25 79.05469,11.503906 21.46484,19.75391 28.61719,50.65234 18.01172,77.82812 -10.60156,27.17969 -36.78906,45.07032 -65.96094,45.06641 H 53.871094 c -28.117188,0.0859 -51.539063,-21.52734 -53.710938,-49.55859 -2.171875,-28.03125 17.644532,-52.9961 45.4375,-57.24219 z m 0,0"
       inkscape:connector-curvature="0" /><path
       id="path814"
       class=""
       style="fill:#bdd9e5"
       data-original="#bdd9e5"
       d="m 307.70312,80.933594 c 9.67188,-4.773438 20.31641,-7.261719 31.10157,-7.269532 2.27343,0 4.51172,0.132813 6.72656,0.339844 C 328.57812,22.839844 276.37109,-7.875 223.41406,2.164062 264.39844,9.875 297.23828,40.566406 307.70312,80.933594 Z m 0,0"
       inkscape:connector-curvature="0" /><path
       id="path816"
       class=""
       style="fill:#bdd9e5"
       data-original="#bdd9e5"
       d="m 378.73047,73.664062 c -6.75391,0 -13.46875,0.980469 -19.94141,2.910157 33.82422,9.898437 55.21485,43.167971 50.1836,78.046871 -5.02735,34.88282 -34.94141,60.75391 -70.1836,60.69922 h 39.92578 c 39.11719,0 70.82813,-31.71094 70.82813,-70.82812 0,-39.11719 -31.71094,-70.828128 -70.82813,-70.828128 z m 0,0"
       inkscape:connector-curvature="0" /><path
       id="path818"
       class=""
       style="fill:#bdd9e5"
       data-original="#bdd9e5"
       d="m 345.90625,133.09766 c 0,0 21.19922,-18.60547 26.49609,-59.121098 -8.62109,0.78125 -17.02734,3.136719 -24.80078,6.953126 3.57422,17.277343 2.99219,35.156252 -1.69531,52.167972 z m 0,0"
       inkscape:connector-curvature="0" /><path
       id="path820"
       class=""
       style="fill:#d9ecf2"
       data-original="#d9ecf2"
       d="m 356.50391,354.29297 c 0,11.24609 -9.11719,20.36328 -20.36719,20.36328 -11.2461,0 -20.36328,-9.11719 -20.36328,-20.36328 0,-11.2461 9.11718,-20.36328 20.36328,-20.36328 11.25,0 20.36719,9.11718 20.36719,20.36328 z M 47.894531,298.47656 c -11.25,0 -20.367187,9.1211 -20.363281,20.3711 0.0039,11.24609 9.125,20.36328 20.375,20.35937 11.246094,-0.008 20.359375,-9.13281 20.351562,-20.38281 C 68.25,307.58594 59.136719,298.47656 47.894531,298.47656 Z m 95.339839,29.77735 c -14.3789,0 -26.03515,11.65625 -26.03515,26.03515 0,14.37891 11.65625,26.03516 26.03515,26.03516 14.37891,0 26.03516,-11.65625 26.03516,-26.03516 0,-14.3789 -11.65625,-26.03515 -26.03516,-26.03515 z m 197.78516,-86.16407 c -8.11719,0 -14.69531,6.57813 -14.69531,14.69532 0,8.11718 6.57812,14.69531 14.69531,14.69531 8.11719,0 14.69531,-6.57813 14.69531,-14.69531 0,-8.11719 -6.57812,-14.69532 -14.69531,-14.69532 z m 0,0"
       inkscape:connector-curvature="0" /><path
       id="path822"
       class=""
       style="fill:#bdd9e5"
       data-original="#bdd9e5"
       d="m 343.54687,256.78516 c -0.008,5.75 -3.375,10.96875 -8.61328,13.34375 6.17188,2.84765 13.48828,1.09375 17.69922,-4.2461 4.20703,-5.33594 4.20703,-12.85937 0,-18.19531 -4.21094,-5.33984 -11.52734,-7.09375 -17.69922,-4.24609 5.23828,2.375 8.60547,7.59375 8.61328,13.34375 z m 0,0"
       inkscape:connector-curvature="0" /><path
       id="path824"
       class=""
       style="fill:#bdd9e5"
       data-original="#bdd9e5"
       d="m 47.894531,298.47656 c -2.070312,0.0274 -4.121093,0.375 -6.082031,1.02735 8.488281,2.60937 14.285156,10.45312 14.285156,19.33593 0,8.88282 -5.796875,16.72657 -14.285156,19.33594 1.960938,0.65625 4.011719,1 6.082031,1.03125 11.246094,0 20.363281,-9.12109 20.363281,-20.36719 0,-11.24609 -9.117187,-20.36328 -20.363281,-20.36328 z m 0,0"
       inkscape:connector-curvature="0" /><path
       id="path826"
       class=""
       style="fill:#bdd9e5"
       data-original="#bdd9e5"
       d="m 143.23437,328.25391 c -2.05078,0.008 -4.09375,0.25781 -6.08203,0.74218 11.70703,2.79297 19.97266,13.25391 19.97266,25.29297 0,12.03906 -8.26563,22.5 -19.97266,25.29297 9.75782,2.35547 20.00391,-1.10937 26.32813,-8.91016 6.32422,-7.79687 7.59765,-18.53906 3.27344,-27.60156 -4.32422,-9.0625 -13.47657,-14.82812 -23.51954,-14.8164 z m 0,0"
       inkscape:connector-curvature="0" /><path
       id="path828"
       class=""
       style="fill:#bdd9e5"
       data-original="#bdd9e5"
       d="m 336.13672,333.92969 c -2.06641,0.0273 -4.11719,0.375 -6.08203,1.02734 8.48828,2.60938 14.28125,10.45313 14.28125,19.33594 0,8.8789 -5.79297,16.72265 -14.28125,19.33203 1.96484,0.65234 4.01562,1 6.08203,1.02734 11.25,0 20.36719,-9.11718 20.36719,-20.36328 0,-11.24609 -9.11719,-20.36328 -20.36719,-20.36328 z m 0,0"
       inkscape:connector-curvature="0" /><g
       id="g842"
       style="fill:#26a3b9"><path
         id="path830"
         class=""
         style="fill:#26a3b9"
         data-original="#26a3b9"
         d="m 73.710938,278.48047 c -2.6875,0 -5.140626,-1.54297 -6.304688,-3.96875 -1.164062,-2.42188 -0.835938,-5.29688 0.839844,-7.39844 l 21.414062,-26.82031 c 1.539063,-2.01563 4.050782,-3.03906 6.558594,-2.67578 2.511719,0.36328 4.62891,2.05469 5.53516,4.42187 0.90625,2.36719 0.46484,5.04297 -1.16016,6.98828 l -21.410156,26.82032 c -1.328125,1.66797 -3.34375,2.63672 -5.472656,2.63281 z m 0,0"
         inkscape:connector-curvature="0" /><path
         id="path832"
         class=""
         style="fill:#26a3b9"
         data-original="#26a3b9"
         d="m 112.99609,310.82422 c -2.6914,0 -5.14062,-1.54297 -6.30859,-3.96485 -1.16406,-2.42187 -0.83984,-5.30078 0.83984,-7.40234 l 30.24219,-37.88672 c 2.41406,-3.02344 6.82031,-3.51953 9.83984,-1.10547 3.02344,2.41407 3.51954,6.81641 1.10547,9.83985 l -30.24609,37.88672 c -1.32812,1.66796 -3.34375,2.63671 -5.47266,2.63281 z m 0,0"
         inkscape:connector-curvature="0" /><path
         id="path834"
         class=""
         style="fill:#26a3b9"
         data-original="#26a3b9"
         d="m 178.09375,310.82422 c -2.6875,0 -5.14063,-1.54297 -6.30469,-3.96485 -1.16797,-2.42187 -0.83984,-5.30078 0.83594,-7.40234 l 40.64453,-50.91406 c 2.41406,-3.02344 6.82031,-3.51953 9.83984,-1.10547 3.02344,2.41016 3.51954,6.81641 1.10547,9.83984 l -40.64062,50.91407 c -1.32813,1.66796 -3.34766,2.63671 -5.48047,2.63281 z m 0,0"
         inkscape:connector-curvature="0" /><path
         id="path836"
         class=""
         style="fill:#26a3b9"
         data-original="#26a3b9"
         d="m 214.95703,346.20703 c -2.69141,0 -5.14844,-1.54297 -6.31641,-3.96875 -1.16406,-2.42969 -0.83593,-5.3125 0.85157,-7.41406 l 75.46484,-94.53125 c 2.41406,-3.02344 6.82031,-3.51563 9.83984,-1.10547 3.02344,2.41406 3.51954,6.82031 1.10547,9.83984 l -75.46875,94.54688 c -1.32812,1.66406 -3.34375,2.63281 -5.47656,2.63281 z m 0,0"
         inkscape:connector-curvature="0" /><path
         id="path838"
         class=""
         style="fill:#26a3b9"
         data-original="#26a3b9"
         d="m 243.85156,391.57031 c -2.6914,-0.004 -5.14062,-1.54297 -6.30859,-3.96875 -1.16406,-2.42187 -0.83985,-5.30078 0.83984,-7.40234 l 71.91797,-90.09766 c 2.46485,-2.82031 6.71485,-3.20312 9.64063,-0.86718 2.92968,2.33593 3.49609,6.5625 1.29297,9.58984 l -71.91797,90.10156 c -1.32422,1.66797 -3.33594,2.64063 -5.46485,2.64453 z m 0,0"
         inkscape:connector-curvature="0" /><path
         id="path840"
         class=""
         style="fill:#26a3b9"
         data-original="#26a3b9"
         d="m 373.40625,310.82422 c -2.6875,0 -5.14063,-1.54297 -6.30469,-3.96485 -1.16797,-2.42187 -0.83984,-5.30078 0.83594,-7.40234 l 28.36328,-35.53516 c 2.41406,-3.02343 6.82031,-3.51562 9.84375,-1.10546 3.01953,2.41406 3.51563,6.82031 1.10156,9.83984 l -28.36328,35.53516 c -1.32812,1.66797 -3.34375,2.63672 -5.47656,2.63281 z m 0,0"
         inkscape:connector-curvature="0" /></g></g></svg>