<?xml version="1.0" encoding="UTF-8" standalone="no"?>
<svg
   xmlns:dc="http://purl.org/dc/elements/1.1/"
   xmlns:cc="http://creativecommons.org/ns#"
   xmlns:rdf="http://www.w3.org/1999/02/22-rdf-syntax-ns#"
   xmlns:svg="http://www.w3.org/2000/svg"
   xmlns="http://www.w3.org/2000/svg"
   xmlns:sodipodi="http://sodipodi.sourceforge.net/DTD/sodipodi-0.dtd"
   xmlns:inkscape="http://www.inkscape.org/namespaces/inkscape"
   version="1.1"
   width="512"
   height="512"
   x="0"
   y="0"
   viewBox="0 0 454 454"
   style="enable-background:new 0 0 512 512"
   xml:space="preserve"
   class=""
   id="svg16"
   sodipodi:docname="801.svg"
   inkscape:export-filename="/home/whitehole/Downloads/img/8xx/d/svgs/801.png"
   inkscape:export-xdpi="96"
   inkscape:export-ydpi="96"
   inkscape:version="0.92.4 (5da689c313, 2019-01-14)"><metadata
     id="metadata22"><rdf:RDF><cc:Work
         rdf:about=""><dc:format>image/svg+xml</dc:format><dc:type
           rdf:resource="http://purl.org/dc/dcmitype/StillImage" /><dc:title></dc:title></cc:Work></rdf:RDF></metadata><defs
     id="defs20"><clipPath
       clipPathUnits="userSpaceOnUse"
       id="clipPath975"><g
         id="g991"
         transform="matrix(0.5565787,0,0,0.5565787,-1105.772,208.39744)"><path
           id="path977"
           style="fill:#d9ecf2;stroke-width:1.09602189"
           data-original="#d9ecf2"
           d="m 2449.9685,294.6682 c 3.6476,-28.57364 -10.4251,-56.50078 -35.5565,-70.57781 -25.1358,-14.07276 -56.2996,-11.47398 -78.7552,6.57184 -24.866,-36.76811 -68.968,-55.54605 -112.7062,-47.98949 -43.738,7.55656 -78.982,40.04762 -90.0707,83.02366 -27.5118,-13.47336 -60.4739,-8.68683 -83.0194,12.05624 -22.5455,20.7388 -30.0549,53.19131 -18.9192,81.72642 11.1401,28.53938 38.6476,47.3216 69.2805,47.30876 h 341.0856 c 29.4769,0.0342 54.009,-22.64399 56.2866,-52.03535 2.2778,-29.39138 -18.4696,-55.57602 -47.6042,-60.07999 z m 0,0"
           inkscape:connector-curvature="0" /><g
           id="g987"
           style="fill:#bdd9e5"><path
             id="path979"
             style="fill:#bdd9e5;stroke-width:1.09602189"
             data-original="#bdd9e5"
             d="m 2449.9685,294.6682 c 2.6843,-20.1608 -3.4893,-40.49288 -16.9327,-55.75155 -13.4391,-15.26296 -32.8335,-23.95407 -53.1699,-23.83419 -7.5823,0.009 -15.1174,1.24586 -22.3058,3.66054 32.1443,10.48071 52.2281,42.4109 47.7583,75.9252 29.1303,4.50396 49.8819,30.68862 47.6042,60.07998 -2.2777,29.39137 -26.8097,52.0696 -56.2909,52.03535 h 44.6499 c 29.4814,0.0342 54.0134,-22.64398 56.291,-52.03535 2.2777,-29.39136 -18.4697,-55.57602 -47.6041,-60.07998 z m 0,0"
             inkscape:connector-curvature="0" /><path
             id="path981"
             style="fill:#bdd9e5;stroke-width:1.09602189"
             data-original="#bdd9e5"
             d="m 2303.1186,243.70319 c 9.1707,-4.25993 24.7932,-10.37369 32.5382,-13.04524 -3.5963,-5.14616 -7.5523,-10.03117 -11.8378,-14.61647 -26.6171,-28.11981 -65.8684,-40.50144 -103.8054,-32.75223 29.4343,5.95535 66.425,22.57549 83.105,60.41394 z m 0,0"
             inkscape:connector-curvature="0" /><path
             id="path983"
             style="fill:#bdd9e5;stroke-width:1.09602189"
             data-original="#bdd9e5"
             d="m 2104.5974,258.19123 c 3.1768,23.41889 13.7088,45.21946 30.085,62.2549 -4.9278,-17.85317 -5.5443,-36.62683 -1.8025,-54.76685 -8.8367,-4.34984 -18.4482,-6.89723 -28.2825,-7.48805 z m 0,0"
             inkscape:connector-curvature="0" /><path
             inkscape:connector-curvature="0"
             d="m 2449.9685,265.72742 c 2.6843,-20.1608 -3.4893,-40.49288 -16.9327,-55.75155 -13.4391,-15.26296 -32.8335,-23.95407 -53.1699,-23.83419 -7.5823,0.009 -15.1174,1.24586 -22.3058,3.66054 32.1443,10.48071 52.2281,42.4109 47.7583,75.9252 29.1303,4.50396 49.8819,30.68862 47.6042,60.07998 -2.2777,29.39137 -26.8097,52.0696 -56.2909,52.03535 h 44.6499 c 29.4814,0.0342 54.0134,-22.64398 56.291,-52.03535 2.2777,-29.39136 -18.4697,-55.57602 -47.6041,-60.07998 z m 0,0"
             data-original="#bdd9e5"
             style="fill:#f59a1d;fill-opacity:1;stroke-width:1.09602189"
             id="path985" /></g><path
           inkscape:connector-curvature="0"
           d="m 2449.9685,265.72742 c 3.6476,-28.57364 -10.4251,-56.50078 -35.5565,-70.57781 -25.1358,-14.07276 -56.2996,-11.47398 -78.7552,6.57184 -24.866,-36.76811 -68.968,-55.54605 -112.7062,-47.98949 -43.738,7.55656 -78.982,40.04762 -90.0707,83.02366 -27.5118,-13.47336 -60.4739,-8.68683 -83.0194,12.05624 -22.5455,20.7388 -30.0549,53.19131 -18.9192,81.72642 11.1401,28.53938 38.6476,47.3216 69.2805,47.30876 h 341.0856 c 29.4769,0.0342 54.009,-22.64399 56.2866,-52.03535 2.2778,-29.39138 -18.4696,-55.57602 -47.6042,-60.07999 z m 0,0"
           data-original="#d9ecf2"
           style="fill:#f59a1d;fill-opacity:1;stroke-width:1.09602189"
           id="path989" /></g></clipPath><clipPath
       clipPathUnits="userSpaceOnUse"
       id="clipPath1076"><g
         transform="matrix(0.65166377,0,0,0.65166377,-1316.4987,140.94597)"
         id="g1088"
         style="fill:#f59a1d;fill-opacity:1"><path
           inkscape:connector-curvature="0"
           d="m 2449.9685,294.6682 c 3.6476,-28.57364 -10.4251,-56.50078 -35.5565,-70.57781 -25.1358,-14.07276 -56.2996,-11.47398 -78.7552,6.57184 -24.866,-36.76811 -68.968,-55.54605 -112.7062,-47.98949 -43.738,7.55656 -78.982,40.04762 -90.0707,83.02366 -27.5118,-13.47336 -60.4739,-8.68683 -83.0194,12.05624 -22.5455,20.7388 -30.0549,53.19131 -18.9192,81.72642 11.1401,28.53938 38.6476,47.3216 69.2805,47.30876 h 341.0856 c 29.4769,0.0342 54.009,-22.64399 56.2866,-52.03535 2.2778,-29.39138 -18.4696,-55.57602 -47.6042,-60.07999 z m 0,0"
           data-original="#d9ecf2"
           style="fill:#f59a1d;fill-opacity:1;stroke-width:1.09602189"
           id="path1078" /><g
           style="fill:#f59a1d;fill-opacity:1"
           id="g1086"><path
             inkscape:connector-curvature="0"
             d="m 2449.9685,294.6682 c 2.6843,-20.1608 -3.4893,-40.49288 -16.9327,-55.75155 -13.4391,-15.26296 -32.8335,-23.95407 -53.1699,-23.83419 -7.5823,0.009 -15.1174,1.24586 -22.3058,3.66054 32.1443,10.48071 52.2281,42.4109 47.7583,75.9252 29.1303,4.50396 49.8819,30.68862 47.6042,60.07998 -2.2777,29.39137 -26.8097,52.0696 -56.2909,52.03535 h 44.6499 c 29.4814,0.0342 54.0134,-22.64398 56.291,-52.03535 2.2777,-29.39136 -18.4697,-55.57602 -47.6041,-60.07998 z m 0,0"
             data-original="#bdd9e5"
             style="fill:#f59a1d;fill-opacity:1;stroke-width:1.09602189"
             id="path1080" /><path
             inkscape:connector-curvature="0"
             d="m 2303.1186,243.70319 c 9.1707,-4.25993 24.7932,-10.37369 32.5382,-13.04524 -3.5963,-5.14616 -7.5523,-10.03117 -11.8378,-14.61647 -26.6171,-28.11981 -65.8684,-40.50144 -103.8054,-32.75223 29.4343,5.95535 66.425,22.57549 83.105,60.41394 z m 0,0"
             data-original="#bdd9e5"
             style="fill:#f59a1d;fill-opacity:1;stroke-width:1.09602189"
             id="path1082" /><path
             inkscape:connector-curvature="0"
             d="m 2104.5974,258.19123 c 3.1768,23.41889 13.7088,45.21946 30.085,62.2549 -4.9278,-17.85317 -5.5443,-36.62683 -1.8025,-54.76685 -8.8367,-4.34984 -18.4482,-6.89723 -28.2825,-7.48805 z m 0,0"
             data-original="#bdd9e5"
             style="fill:#f59a1d;fill-opacity:1;stroke-width:1.09602189"
             id="path1084" /></g></g></clipPath><clipPath
       id="clipPath975-1"
       clipPathUnits="userSpaceOnUse"><g
         transform="matrix(0.5565787,0,0,0.5565787,-1105.772,208.39744)"
         id="g991-2"><path
           inkscape:connector-curvature="0"
           d="m 2449.9685,294.6682 c 3.6476,-28.57364 -10.4251,-56.50078 -35.5565,-70.57781 -25.1358,-14.07276 -56.2996,-11.47398 -78.7552,6.57184 -24.866,-36.76811 -68.968,-55.54605 -112.7062,-47.98949 -43.738,7.55656 -78.982,40.04762 -90.0707,83.02366 -27.5118,-13.47336 -60.4739,-8.68683 -83.0194,12.05624 -22.5455,20.7388 -30.0549,53.19131 -18.9192,81.72642 11.1401,28.53938 38.6476,47.3216 69.2805,47.30876 h 341.0856 c 29.4769,0.0342 54.009,-22.64399 56.2866,-52.03535 2.2778,-29.39138 -18.4696,-55.57602 -47.6042,-60.07999 z m 0,0"
           data-original="#d9ecf2"
           style="fill:#d9ecf2;stroke-width:1.09602189"
           id="path977-7" /><g
           style="fill:#bdd9e5"
           id="g987-0"><path
             inkscape:connector-curvature="0"
             d="m 2449.9685,294.6682 c 2.6843,-20.1608 -3.4893,-40.49288 -16.9327,-55.75155 -13.4391,-15.26296 -32.8335,-23.95407 -53.1699,-23.83419 -7.5823,0.009 -15.1174,1.24586 -22.3058,3.66054 32.1443,10.48071 52.2281,42.4109 47.7583,75.9252 29.1303,4.50396 49.8819,30.68862 47.6042,60.07998 -2.2777,29.39137 -26.8097,52.0696 -56.2909,52.03535 h 44.6499 c 29.4814,0.0342 54.0134,-22.64398 56.291,-52.03535 2.2777,-29.39136 -18.4697,-55.57602 -47.6041,-60.07998 z m 0,0"
             data-original="#bdd9e5"
             style="fill:#bdd9e5;stroke-width:1.09602189"
             id="path979-9" /><path
             inkscape:connector-curvature="0"
             d="m 2303.1186,243.70319 c 9.1707,-4.25993 24.7932,-10.37369 32.5382,-13.04524 -3.5963,-5.14616 -7.5523,-10.03117 -11.8378,-14.61647 -26.6171,-28.11981 -65.8684,-40.50144 -103.8054,-32.75223 29.4343,5.95535 66.425,22.57549 83.105,60.41394 z m 0,0"
             data-original="#bdd9e5"
             style="fill:#bdd9e5;stroke-width:1.09602189"
             id="path981-3" /><path
             inkscape:connector-curvature="0"
             d="m 2104.5974,258.19123 c 3.1768,23.41889 13.7088,45.21946 30.085,62.2549 -4.9278,-17.85317 -5.5443,-36.62683 -1.8025,-54.76685 -8.8367,-4.34984 -18.4482,-6.89723 -28.2825,-7.48805 z m 0,0"
             data-original="#bdd9e5"
             style="fill:#bdd9e5;stroke-width:1.09602189"
             id="path983-6" /><path
             id="path985-0"
             style="fill:#f59a1d;fill-opacity:1;stroke-width:1.09602189"
             data-original="#bdd9e5"
             d="m 2449.9685,265.72742 c 2.6843,-20.1608 -3.4893,-40.49288 -16.9327,-55.75155 -13.4391,-15.26296 -32.8335,-23.95407 -53.1699,-23.83419 -7.5823,0.009 -15.1174,1.24586 -22.3058,3.66054 32.1443,10.48071 52.2281,42.4109 47.7583,75.9252 29.1303,4.50396 49.8819,30.68862 47.6042,60.07998 -2.2777,29.39137 -26.8097,52.0696 -56.2909,52.03535 h 44.6499 c 29.4814,0.0342 54.0134,-22.64398 56.291,-52.03535 2.2777,-29.39136 -18.4697,-55.57602 -47.6041,-60.07998 z m 0,0"
             inkscape:connector-curvature="0" /></g><path
           id="path989-6"
           style="fill:#f59a1d;fill-opacity:1;stroke-width:1.09602189"
           data-original="#d9ecf2"
           d="m 2449.9685,265.72742 c 3.6476,-28.57364 -10.4251,-56.50078 -35.5565,-70.57781 -25.1358,-14.07276 -56.2996,-11.47398 -78.7552,6.57184 -24.866,-36.76811 -68.968,-55.54605 -112.7062,-47.98949 -43.738,7.55656 -78.982,40.04762 -90.0707,83.02366 -27.5118,-13.47336 -60.4739,-8.68683 -83.0194,12.05624 -22.5455,20.7388 -30.0549,53.19131 -18.9192,81.72642 11.1401,28.53938 38.6476,47.3216 69.2805,47.30876 h 341.0856 c 29.4769,0.0342 54.009,-22.64399 56.2866,-52.03535 2.2778,-29.39138 -18.4696,-55.57602 -47.6042,-60.07999 z m 0,0"
           inkscape:connector-curvature="0" /></g></clipPath><clipPath
       id="clipPath1076-2"
       clipPathUnits="userSpaceOnUse"><g
         style="fill:#f59a1d;fill-opacity:1"
         id="g1088-6"
         transform="matrix(0.65166377,0,0,0.65166377,-1316.4987,140.94597)"><path
           id="path1078-1"
           style="fill:#f59a1d;fill-opacity:1;stroke-width:1.09602189"
           data-original="#d9ecf2"
           d="m 2449.9685,294.6682 c 3.6476,-28.57364 -10.4251,-56.50078 -35.5565,-70.57781 -25.1358,-14.07276 -56.2996,-11.47398 -78.7552,6.57184 -24.866,-36.76811 -68.968,-55.54605 -112.7062,-47.98949 -43.738,7.55656 -78.982,40.04762 -90.0707,83.02366 -27.5118,-13.47336 -60.4739,-8.68683 -83.0194,12.05624 -22.5455,20.7388 -30.0549,53.19131 -18.9192,81.72642 11.1401,28.53938 38.6476,47.3216 69.2805,47.30876 h 341.0856 c 29.4769,0.0342 54.009,-22.64399 56.2866,-52.03535 2.2778,-29.39138 -18.4696,-55.57602 -47.6042,-60.07999 z m 0,0"
           inkscape:connector-curvature="0" /><g
           id="g1086-8"
           style="fill:#f59a1d;fill-opacity:1"><path
             id="path1080-7"
             style="fill:#f59a1d;fill-opacity:1;stroke-width:1.09602189"
             data-original="#bdd9e5"
             d="m 2449.9685,294.6682 c 2.6843,-20.1608 -3.4893,-40.49288 -16.9327,-55.75155 -13.4391,-15.26296 -32.8335,-23.95407 -53.1699,-23.83419 -7.5823,0.009 -15.1174,1.24586 -22.3058,3.66054 32.1443,10.48071 52.2281,42.4109 47.7583,75.9252 29.1303,4.50396 49.8819,30.68862 47.6042,60.07998 -2.2777,29.39137 -26.8097,52.0696 -56.2909,52.03535 h 44.6499 c 29.4814,0.0342 54.0134,-22.64398 56.291,-52.03535 2.2777,-29.39136 -18.4697,-55.57602 -47.6041,-60.07998 z m 0,0"
             inkscape:connector-curvature="0" /><path
             id="path1082-9"
             style="fill:#f59a1d;fill-opacity:1;stroke-width:1.09602189"
             data-original="#bdd9e5"
             d="m 2303.1186,243.70319 c 9.1707,-4.25993 24.7932,-10.37369 32.5382,-13.04524 -3.5963,-5.14616 -7.5523,-10.03117 -11.8378,-14.61647 -26.6171,-28.11981 -65.8684,-40.50144 -103.8054,-32.75223 29.4343,5.95535 66.425,22.57549 83.105,60.41394 z m 0,0"
             inkscape:connector-curvature="0" /><path
             id="path1084-2"
             style="fill:#f59a1d;fill-opacity:1;stroke-width:1.09602189"
             data-original="#bdd9e5"
             d="m 2104.5974,258.19123 c 3.1768,23.41889 13.7088,45.21946 30.085,62.2549 -4.9278,-17.85317 -5.5443,-36.62683 -1.8025,-54.76685 -8.8367,-4.34984 -18.4482,-6.89723 -28.2825,-7.48805 z m 0,0"
             inkscape:connector-curvature="0" /></g></g></clipPath><clipPath
       clipPathUnits="userSpaceOnUse"
       id="clipPath994"><g
         transform="matrix(0.45616464,0,0,0.45616464,-853.49434,167.63292)"
         id="g1006"
         style="fill:#a6bec9;fill-opacity:1"><path
           inkscape:connector-curvature="0"
           d="m 2449.9685,294.6682 c 3.6476,-28.57364 -10.4251,-56.50078 -35.5565,-70.57781 -25.1358,-14.07276 -56.2996,-11.47398 -78.7552,6.57184 -24.866,-36.76811 -68.968,-55.54605 -112.7062,-47.98949 -43.738,7.55656 -78.982,40.04762 -90.0707,83.02366 -27.5118,-13.47336 -60.4739,-8.68683 -83.0194,12.05624 -22.5455,20.7388 -30.0549,53.19131 -18.9192,81.72642 11.1401,28.53938 38.6476,47.3216 69.2805,47.30876 h 341.0856 c 29.4769,0.0342 54.009,-22.64399 56.2866,-52.03535 2.2778,-29.39138 -18.4696,-55.57602 -47.6042,-60.07999 z m 0,0"
           data-original="#d9ecf2"
           style="fill:#a6bec9;fill-opacity:1;stroke-width:1.09602189"
           id="path996" /><g
           style="fill:#a6bec9;fill-opacity:1"
           id="g1004"><path
             inkscape:connector-curvature="0"
             d="m 2449.9685,294.6682 c 2.6843,-20.1608 -3.4893,-40.49288 -16.9327,-55.75155 -13.4391,-15.26296 -32.8335,-23.95407 -53.1699,-23.83419 -7.5823,0.009 -15.1174,1.24586 -22.3058,3.66054 32.1443,10.48071 52.2281,42.4109 47.7583,75.9252 29.1303,4.50396 49.8819,30.68862 47.6042,60.07998 -2.2777,29.39137 -26.8097,52.0696 -56.2909,52.03535 h 44.6499 c 29.4814,0.0342 54.0134,-22.64398 56.291,-52.03535 2.2777,-29.39136 -18.4697,-55.57602 -47.6041,-60.07998 z m 0,0"
             data-original="#bdd9e5"
             style="fill:#a6bec9;fill-opacity:1;stroke-width:1.09602189"
             id="path998" /><path
             inkscape:connector-curvature="0"
             d="m 2303.1186,243.70319 c 9.1707,-4.25993 24.7932,-10.37369 32.5382,-13.04524 -3.5963,-5.14616 -7.5523,-10.03117 -11.8378,-14.61647 -26.6171,-28.11981 -65.8684,-40.50144 -103.8054,-32.75223 29.4343,5.95535 66.425,22.57549 83.105,60.41394 z m 0,0"
             data-original="#bdd9e5"
             style="fill:#a6bec9;fill-opacity:1;stroke-width:1.09602189"
             id="path1000" /><path
             inkscape:connector-curvature="0"
             d="m 2104.5974,258.19123 c 3.1768,23.41889 13.7088,45.21946 30.085,62.2549 -4.9278,-17.85317 -5.5443,-36.62683 -1.8025,-54.76685 -8.8367,-4.34984 -18.4482,-6.89723 -28.2825,-7.48805 z m 0,0"
             data-original="#bdd9e5"
             style="fill:#a6bec9;fill-opacity:1;stroke-width:1.09602189"
             id="path1002" /></g></g></clipPath></defs><sodipodi:namedview
     pagecolor="#ffffff"
     bordercolor="#666666"
     borderopacity="1"
     objecttolerance="10"
     gridtolerance="10"
     guidetolerance="10"
     inkscape:pageopacity="0"
     inkscape:pageshadow="2"
     inkscape:window-width="1920"
     inkscape:window-height="1043"
     id="namedview18"
     showgrid="false"
     inkscape:lockguides="true"
     inkscape:zoom="0.88638134"
     inkscape:cx="94.602242"
     inkscape:cy="316.20038"
     inkscape:window-x="0"
     inkscape:window-y="0"
     inkscape:window-maximized="1"
     inkscape:current-layer="svg16" /><g
     id="g1311"
     transform="translate(0.04522314,-2.6971594)"><rect
       y="67.23629"
       x="67.422546"
       height="319.96182"
       width="319.0751"
       id="rect833-4"
       style="opacity:0;fill:#ff0017;fill-opacity:0;stroke:none;stroke-width:1.1413691;stroke-linejoin:round;stroke-miterlimit:4;stroke-dasharray:none;stroke-dashoffset:0;stroke-opacity:1" /><g
       transform="matrix(0.70317202,0,0,0.70317202,75.944293,85.136624)"
       id="g938"><path
         inkscape:connector-curvature="0"
         d="m 408.98047,202.05469 c 0,107.26562 -86.95313,194.21875 -194.21484,194.21875 C 107.5,396.27344 20.546875,309.32031 20.546875,202.05469 20.546875,94.792969 107.5,7.839844 214.76563,7.839844 c 107.26171,0 194.21484,86.953125 194.21484,194.214846 z m 0,0"
         data-original="#d9ecf2"
         style="fill:#d9ecf2"
         class=""
         id="path908" /><g
         style="fill:#bdd9e5"
         id="g922"><path
           inkscape:connector-curvature="0"
           d="M 214.77734,7.839844 C 207.03125,7.855469 199.29687,8.332031 191.60937,9.265625 289.22656,20.949219 362.70703,103.75 362.70703,202.0625 c 0,98.31641 -73.48047,181.11719 -171.09765,192.80078 71.62109,8.57031 142.08984,-23.25781 183.00781,-82.66406 40.91797,-59.40234 45.53906,-136.59375 12,-200.45313 C 353.07813,47.886719 286.90625,7.875 214.77734,7.839844 Z m 0,0"
           data-original="#bdd9e5"
           style="fill:#bdd9e5"
           class=""
           id="path910" /><path
           inkscape:connector-curvature="0"
           d="m 221.62891,290.41016 c 0,14.6914 -11.91016,26.60156 -26.60157,26.60156 -14.6914,0 -26.59765,-11.91016 -26.59765,-26.60156 0,-14.6875 11.90625,-26.59766 26.59765,-26.59766 14.69141,0 26.60157,11.91016 26.60157,26.59766 z m 0,0"
           data-original="#bdd9e5"
           style="fill:#bdd9e5"
           class=""
           id="path912" /><path
           inkscape:connector-curvature="0"
           d="m 70.15625,331.67187 c 14.757812,-10.3789 18.855469,-30.46875 9.347656,-45.80078 -9.507812,-15.33593 -29.324218,-20.58984 -45.183594,-11.98828 8.453126,21.22266 20.585938,40.78516 35.835938,57.78906 z m 0,0"
           data-original="#bdd9e5"
           style="fill:#bdd9e5"
           class=""
           id="path914" /><path
           inkscape:connector-curvature="0"
           d="m 330.08984,165.17578 c 0,26.20313 -21.24218,47.44531 -47.44531,47.44531 -26.20312,0 -47.44531,-21.24218 -47.44531,-47.44531 0,-26.20312 21.24219,-47.44531 47.44531,-47.44531 26.20313,0 47.44531,21.24219 47.44531,47.44531 z m 0,0"
           data-original="#bdd9e5"
           style="fill:#bdd9e5"
           class=""
           id="path916" /><path
           inkscape:connector-curvature="0"
           d="m 143.05469,138.36719 c 0,14.80468 -12,26.80859 -26.8086,26.80859 -14.80468,0 -26.804684,-12.00391 -26.804684,-26.80859 0,-14.80469 12.000004,-26.8086 26.804684,-26.8086 14.8086,0 26.8086,12.00391 26.8086,26.8086 z m 0,0"
           data-original="#bdd9e5"
           style="fill:#bdd9e5"
           class=""
           id="path918" /><path
           inkscape:connector-curvature="0"
           d="m 194.54297,58.492188 c 0,-8.511719 6.90234,-15.414063 15.41406,-15.414063 h 116.30859 c 12.63672,8.882813 24.17188,19.230469 34.3711,30.828125 H 209.95703 c -8.51562,0 -15.41406,-6.902344 -15.41406,-15.414062 z M 401.19141,256.49219 h -49.375 c -8.51172,0 -15.41407,6.89843 -15.41407,15.41015 0,8.51172 6.90235,15.41407 15.41407,15.41407 h 37.47265 c 4.83594,-9.91407 8.8125,-20.22266 11.88672,-30.81641 z m 0,0"
           data-original="#bdd9e5"
           style="fill:#bdd9e5"
           class=""
           id="path920" /></g><path
         inkscape:connector-curvature="0"
         d="m 354.89062,256.5 c -2.87109,9.80859 -6.52343,19.375 -10.91406,28.60937 2.36328,1.42969 5.07422,2.19532 7.83985,2.20704 h 37.47265 c 0.97657,-2 1.89063,-4 2.80078,-6.04297 0.26563,-0.59766 0.54688,-1.20313 0.79688,-1.78907 0.90625,-2.08593 1.76562,-4.1914 2.59766,-6.3164 0.1875,-0.48047 0.39843,-0.96094 0.5664,-1.44141 0.875,-2.28515 1.71094,-4.58984 2.50391,-6.91406 l 0.25781,-0.76172 c 0.83594,-2.49609 1.62891,-5.01172 2.375,-7.54687 z m 0,0"
         data-original="#d9ecf2"
         style="fill:#d9ecf2"
         class=""
         id="path924" /><path
         inkscape:connector-curvature="0"
         d="m 279.90234,43.078125 c 12.64844,8.878906 24.19532,19.226563 34.40235,30.824219 h 46.33203 c -7.64063,-8.6875 -16.03906,-16.679688 -25.09375,-23.882813 -3.01563,-2.398437 -6.10156,-4.707031 -9.26172,-6.925781 h -46.37891 z m 0,0"
         data-original="#d9ecf2"
         style="fill:#d9ecf2"
         class=""
         id="path926" /><path
         inkscape:connector-curvature="0"
         d="m 22.328125,228.03125 h 52.285156 c 8.511719,0 15.410157,-6.89844 15.410157,-15.41016 0,-8.51172 -6.898438,-15.41406 -15.410157,-15.41406 H 20.671875 c -0.03906,1.60156 -0.125,3.22656 -0.125,4.85156 0.01563,8.6875 0.613281,17.36328 1.78125,25.97266 z m 0,0"
         data-original="#bdd9e5"
         style="fill:#bdd9e5"
         class=""
         id="path928" /></g></g><g
     transform="matrix(0.6688193,0,0,0.6688193,-649.88099,-394.85241)"
     id="g40"><g
       id="g32"
       style="fill:#fabe02" /></g><g
     id="g1311-9"
     transform="translate(5.0491397,1.8527299)"
     clip-path="url(#clipPath994)"
     style="fill:#a6bec9;fill-opacity:1"><rect
       y="67.23629"
       x="67.422546"
       height="319.96182"
       width="319.0751"
       id="rect833-4-7"
       style="opacity:0;fill:#a6bec9;fill-opacity:1;stroke:none;stroke-width:1.1413691;stroke-linejoin:round;stroke-miterlimit:4;stroke-dasharray:none;stroke-dashoffset:0;stroke-opacity:1" /><g
       transform="matrix(0.70317202,0,0,0.70317202,75.944293,85.136624)"
       id="g938-3"
       style="fill:#a6bec9;fill-opacity:1"><path
         inkscape:connector-curvature="0"
         d="m 408.98047,202.05469 c 0,107.26562 -86.95313,194.21875 -194.21484,194.21875 C 107.5,396.27344 20.546875,309.32031 20.546875,202.05469 20.546875,94.792969 107.5,7.839844 214.76563,7.839844 c 107.26171,0 194.21484,86.953125 194.21484,194.214846 z m 0,0"
         data-original="#d9ecf2"
         style="fill:#a6bec9;fill-opacity:1"
         class=""
         id="path908-6" /><g
         style="fill:#a6bec9;fill-opacity:1"
         id="g922-1"><path
           inkscape:connector-curvature="0"
           d="M 214.77734,7.839844 C 207.03125,7.855469 199.29687,8.332031 191.60937,9.265625 289.22656,20.949219 362.70703,103.75 362.70703,202.0625 c 0,98.31641 -73.48047,181.11719 -171.09765,192.80078 71.62109,8.57031 142.08984,-23.25781 183.00781,-82.66406 40.91797,-59.40234 45.53906,-136.59375 12,-200.45313 C 353.07813,47.886719 286.90625,7.875 214.77734,7.839844 Z m 0,0"
           data-original="#bdd9e5"
           style="fill:#a6bec9;fill-opacity:1"
           class=""
           id="path910-2" /><path
           inkscape:connector-curvature="0"
           d="m 221.62891,290.41016 c 0,14.6914 -11.91016,26.60156 -26.60157,26.60156 -14.6914,0 -26.59765,-11.91016 -26.59765,-26.60156 0,-14.6875 11.90625,-26.59766 26.59765,-26.59766 14.69141,0 26.60157,11.91016 26.60157,26.59766 z m 0,0"
           data-original="#bdd9e5"
           style="fill:#a6bec9;fill-opacity:1"
           class=""
           id="path912-9" /><path
           inkscape:connector-curvature="0"
           d="m 70.15625,331.67187 c 14.757812,-10.3789 18.855469,-30.46875 9.347656,-45.80078 -9.507812,-15.33593 -29.324218,-20.58984 -45.183594,-11.98828 8.453126,21.22266 20.585938,40.78516 35.835938,57.78906 z m 0,0"
           data-original="#bdd9e5"
           style="fill:#a6bec9;fill-opacity:1"
           class=""
           id="path914-3" /><path
           inkscape:connector-curvature="0"
           d="m 330.08984,165.17578 c 0,26.20313 -21.24218,47.44531 -47.44531,47.44531 -26.20312,0 -47.44531,-21.24218 -47.44531,-47.44531 0,-26.20312 21.24219,-47.44531 47.44531,-47.44531 26.20313,0 47.44531,21.24219 47.44531,47.44531 z m 0,0"
           data-original="#bdd9e5"
           style="fill:#a6bec9;fill-opacity:1"
           class=""
           id="path916-1" /><path
           inkscape:connector-curvature="0"
           d="m 143.05469,138.36719 c 0,14.80468 -12,26.80859 -26.8086,26.80859 -14.80468,0 -26.804684,-12.00391 -26.804684,-26.80859 0,-14.80469 12.000004,-26.8086 26.804684,-26.8086 14.8086,0 26.8086,12.00391 26.8086,26.8086 z m 0,0"
           data-original="#bdd9e5"
           style="fill:#a6bec9;fill-opacity:1"
           class=""
           id="path918-9" /><path
           inkscape:connector-curvature="0"
           d="m 194.54297,58.492188 c 0,-8.511719 6.90234,-15.414063 15.41406,-15.414063 h 116.30859 c 12.63672,8.882813 24.17188,19.230469 34.3711,30.828125 H 209.95703 c -8.51562,0 -15.41406,-6.902344 -15.41406,-15.414062 z M 401.19141,256.49219 h -49.375 c -8.51172,0 -15.41407,6.89843 -15.41407,15.41015 0,8.51172 6.90235,15.41407 15.41407,15.41407 h 37.47265 c 4.83594,-9.91407 8.8125,-20.22266 11.88672,-30.81641 z m 0,0"
           data-original="#bdd9e5"
           style="fill:#a6bec9;fill-opacity:1"
           class=""
           id="path920-4" /></g><path
         inkscape:connector-curvature="0"
         d="m 354.89062,256.5 c -2.87109,9.80859 -6.52343,19.375 -10.91406,28.60937 2.36328,1.42969 5.07422,2.19532 7.83985,2.20704 h 37.47265 c 0.97657,-2 1.89063,-4 2.80078,-6.04297 0.26563,-0.59766 0.54688,-1.20313 0.79688,-1.78907 0.90625,-2.08593 1.76562,-4.1914 2.59766,-6.3164 0.1875,-0.48047 0.39843,-0.96094 0.5664,-1.44141 0.875,-2.28515 1.71094,-4.58984 2.50391,-6.91406 l 0.25781,-0.76172 c 0.83594,-2.49609 1.62891,-5.01172 2.375,-7.54687 z m 0,0"
         data-original="#d9ecf2"
         style="fill:#a6bec9;fill-opacity:1"
         class=""
         id="path924-7" /><path
         inkscape:connector-curvature="0"
         d="m 279.90234,43.078125 c 12.64844,8.878906 24.19532,19.226563 34.40235,30.824219 h 46.33203 c -7.64063,-8.6875 -16.03906,-16.679688 -25.09375,-23.882813 -3.01563,-2.398437 -6.10156,-4.707031 -9.26172,-6.925781 h -46.37891 z m 0,0"
         data-original="#d9ecf2"
         style="fill:#a6bec9;fill-opacity:1"
         class=""
         id="path926-8" /><path
         inkscape:connector-curvature="0"
         d="m 22.328125,228.03125 h 52.285156 c 8.511719,0 15.410157,-6.89844 15.410157,-15.41016 0,-8.51172 -6.898438,-15.41406 -15.410157,-15.41406 H 20.671875 c -0.03906,1.60156 -0.125,3.22656 -0.125,4.85156 0.01563,8.6875 0.613281,17.36328 1.78125,25.97266 z m 0,0"
         data-original="#bdd9e5"
         style="fill:#a6bec9;fill-opacity:1"
         class=""
         id="path928-4" /></g></g><g
     id="g4609"
     transform="matrix(0.45616464,0,0,0.45616464,-853.44912,186.27002)"><path
       id="path4599"
       style="fill:#26a3b9;stroke-width:1.09602189;fill-opacity:1"
       data-original="#d9ecf2"
       d="m 2449.9685,294.6682 c 3.6476,-28.57364 -10.4251,-56.50078 -35.5565,-70.57781 -25.1358,-14.07276 -56.2996,-11.47398 -78.7552,6.57184 -24.866,-36.76811 -68.968,-55.54605 -112.7062,-47.98949 -43.738,7.55656 -78.982,40.04762 -90.0707,83.02366 -27.5118,-13.47336 -60.4739,-8.68683 -83.0194,12.05624 -22.5455,20.7388 -30.0549,53.19131 -18.9192,81.72642 11.1401,28.53938 38.6476,47.3216 69.2805,47.30876 h 341.0856 c 29.4769,0.0342 54.009,-22.64399 56.2866,-52.03535 2.2778,-29.39138 -18.4696,-55.57602 -47.6042,-60.07999 z m 0,0"
       inkscape:connector-curvature="0" /><g
       id="g4607"
       style="fill:#bdd9e5"><path
         id="path4601"
         style="fill:#168aa5;stroke-width:1.09602189;fill-opacity:1"
         data-original="#bdd9e5"
         d="m 2449.9685,294.6682 c 2.6843,-20.1608 -3.4893,-40.49288 -16.9327,-55.75155 -13.4391,-15.26296 -32.8335,-23.95407 -53.1699,-23.83419 -7.5823,0.009 -15.1174,1.24586 -22.3058,3.66054 32.1443,10.48071 52.2281,42.4109 47.7583,75.9252 29.1303,4.50396 49.8819,30.68862 47.6042,60.07998 -2.2777,29.39137 -26.8097,52.0696 -56.2909,52.03535 h 44.6499 c 29.4814,0.0342 54.0134,-22.64398 56.291,-52.03535 2.2777,-29.39136 -18.4697,-55.57602 -47.6041,-60.07998 z m 0,0"
         inkscape:connector-curvature="0" /><path
         id="path4603"
         style="fill:#168aa5;stroke-width:1.09602189;fill-opacity:1"
         data-original="#bdd9e5"
         d="m 2303.1186,243.70319 c 9.1707,-4.25993 24.7932,-10.37369 32.5382,-13.04524 -3.5963,-5.14616 -7.5523,-10.03117 -11.8378,-14.61647 -26.6171,-28.11981 -65.8684,-40.50144 -103.8054,-32.75223 29.4343,5.95535 66.425,22.57549 83.105,60.41394 z m 0,0"
         inkscape:connector-curvature="0" /><path
         id="path4605"
         style="fill:#168aa5;stroke-width:1.09602189;fill-opacity:1"
         data-original="#bdd9e5"
         d="m 2104.5974,258.19123 c 3.1768,23.41889 13.7088,45.21946 30.085,62.2549 -4.9278,-17.85317 -5.5443,-36.62683 -1.8025,-54.76685 -8.8367,-4.34984 -18.4482,-6.89723 -28.2825,-7.48805 z m 0,0"
         inkscape:connector-curvature="0" /></g></g></svg>