<?xml version="1.0" encoding="UTF-8" standalone="no"?>
<svg
   xmlns:dc="http://purl.org/dc/elements/1.1/"
   xmlns:cc="http://creativecommons.org/ns#"
   xmlns:rdf="http://www.w3.org/1999/02/22-rdf-syntax-ns#"
   xmlns:svg="http://www.w3.org/2000/svg"
   xmlns="http://www.w3.org/2000/svg"
   xmlns:sodipodi="http://sodipodi.sourceforge.net/DTD/sodipodi-0.dtd"
   xmlns:inkscape="http://www.inkscape.org/namespaces/inkscape"
   version="1.1"
   width="512"
   height="512"
   x="0"
   y="0"
   viewBox="0 0 454 454"
   style="enable-background:new 0 0 512 512"
   xml:space="preserve"
   class=""
   id="svg16"
   sodipodi:docname="804.svg"
   inkscape:version="0.92.4 (5da689c313, 2019-01-14)"
   inkscape:export-filename="/home/whitehole/Downloads/img/804n.png"
   inkscape:export-xdpi="96"
   inkscape:export-ydpi="96"><metadata
     id="metadata22"><rdf:RDF><cc:Work
         rdf:about=""><dc:format>image/svg+xml</dc:format><dc:type
           rdf:resource="http://purl.org/dc/dcmitype/StillImage" /><dc:title></dc:title></cc:Work></rdf:RDF></metadata><defs
     id="defs20" /><sodipodi:namedview
     pagecolor="#ffffff"
     bordercolor="#666666"
     borderopacity="1"
     objecttolerance="10"
     gridtolerance="10"
     guidetolerance="10"
     inkscape:pageopacity="0"
     inkscape:pageshadow="2"
     inkscape:window-width="1920"
     inkscape:window-height="1043"
     id="namedview18"
     showgrid="false"
     inkscape:zoom="1.3037281"
     inkscape:cx="181.87796"
     inkscape:cy="236.16007"
     inkscape:window-x="0"
     inkscape:window-y="0"
     inkscape:window-maximized="1"
     inkscape:current-layer="svg16" /><rect
     style="opacity:0;fill:#ff0017;fill-opacity:0;stroke:none;stroke-width:1.1413691;stroke-linejoin:round;stroke-miterlimit:4;stroke-dasharray:none;stroke-dashoffset:0;stroke-opacity:1"
     id="rect833"
     width="319.0751"
     height="319.96182"
     x="67.422546"
     y="67.23629" /><g
     id="g878"
     transform="matrix(0.69354018,0,0,0.69354018,67.586756,131.13066)"><path
       id="path854"
       style="fill:#d9ecf2"
       data-original="#d9ecf2"
       d="M 116.92969,0.113281 C 92.386719,0.128906 71.058594,16.972656 65.359375,40.84375 52.628906,35.1875 37.738281,37.820312 27.722656,47.503906 17.707031,57.1875 14.570312,71.976562 19.792969,84.890625 c 5.222656,12.914063 17.757812,21.367185 31.6875,21.367185 H 116.92969 C 146.24219,106.25781 170,82.496094 170,53.1875 170,23.875 146.24219,0.113281 116.92969,0.113281 Z m 0,0"
       inkscape:connector-curvature="0" /><path
       id="path856"
       style="fill:#bdd9e5"
       data-original="#bdd9e5"
       d="M 170,53.1875 C 170,34.03125 159.66797,16.367188 142.97266,6.972656 115.78516,21.40625 95.902344,46.589844 88.171875,76.386719 65.828125,65.347656 39.355469,66.710938 18.261719,79.988281 21.921875,95.378906 35.667969,106.25 51.488281,106.25781 H 116.92969 C 146.24219,106.25781 170,82.496094 170,53.1875 Z m 0,0"
       inkscape:connector-curvature="0" /><path
       id="path858"
       style="fill:#bdd9e5"
       data-original="#bdd9e5"
       d="m 51.484375,37.882812 c -0.570313,0 -1.125,0.05469 -1.691406,0.08203 0.46875,10.589844 6.347656,20.191406 15.566406,25.421875 -1.71875,-7.417969 -1.71875,-15.128907 0,-22.542969 -4.367187,-1.953125 -9.09375,-2.960938 -13.875,-2.960938 z m 0,0"
       inkscape:connector-curvature="0" /><path
       id="path860"
       style="fill:#26a3b9"
       data-original="#26a3b9"
       d="M 411.84766,120.28906 C 415.38281,92.542969 401.71875,65.429688 377.3125,51.765625 352.90625,38.101562 322.64453,40.625 300.83984,58.144531 276.70312,22.4375 233.87109,4.191406 191.39453,11.523438 148.91797,18.859375 114.6875,50.410156 103.91797,92.144531 77.203125,79.066406 45.199219,83.714844 23.308594,103.85547 1.417969,124 -5.875,155.50391 4.9375,183.21484 c 10.816406,27.71094 37.523438,45.94922 67.269531,45.94141 H 403.40625 c 28.625,0.0273 52.44141,-21.99219 54.65234,-50.53125 2.20703,-28.53516 -17.93359,-53.96094 -46.22265,-58.33984 z m 0,0"
       inkscape:connector-curvature="0" /><path
       id="path862"
       style="fill:#168aa5"
       data-original="#168aa5"
       d="M 411.84766,120.28906 C 414.71875,97.636719 406.14062,75.039062 388.95703,60 371.77344,44.960938 348.23828,39.453125 326.16406,45.300781 c 33.5,8.492188 55.32422,40.734375 50.75391,74.988279 28.28515,4.37891 48.42969,29.80469 46.21875,58.33985 -2.21094,28.53906 -26.02735,50.55859 -54.65235,50.53125 h 34.92969 c 28.625,0.0273 52.44141,-21.99219 54.65235,-50.53125 2.21093,-28.53516 -17.9336,-53.96094 -46.21875,-58.33985 z m 0,0"
       inkscape:connector-curvature="0" /><path
       id="path864"
       style="fill:#168aa5"
       data-original="#168aa5"
       d="m 345.83984,153.4375 c -7.15625,0.004 -14.23047,1.53906 -20.74609,4.5 -12.90234,-27.11328 -42.20703,-42.40625 -71.82813,-37.48047 -29.625,4.92188 -52.40625,28.87109 -55.84375,58.70313 -13.86718,-4.02344 -28.82031,0.10546 -38.65625,10.67578 -9.83984,10.57031 -12.88671,25.77734 -7.8789,39.32422 h 238.5625 c 9.07422,-15.59375 9.12109,-34.84766 0.11719,-50.48047 -9.00391,-15.63282 -25.67579,-25.25782 -43.71485,-25.23828 z m 0,0"
       inkscape:connector-curvature="0" /><path
       id="path866"
       style="fill:#168aa5"
       data-original="#168aa5"
       d="M 78.753906,85.070312 C 81.035156,127.10156 105.6875,145.33594 105.6875,145.33594 100.89453,127.99609 100.28906,109.76563 103.91797,92.144531 96.03125,88.273438 87.503906,85.875 78.753906,85.070312 Z m 0,0"
       inkscape:connector-curvature="0" /><path
       id="path868"
       style="fill:#d9ecf2"
       data-original="#d9ecf2"
       d="m 345.83984,176.09375 c -7.15625,0.004 -14.23047,1.53906 -20.74609,4.5 -12.90234,-27.11328 -42.20703,-42.40625 -71.82813,-37.48047 -29.625,4.92188 -52.40625,28.87109 -55.84375,58.69922 -14.39453,-4.12891 -29.8789,0.5 -39.64062,11.85937 -9.76172,11.35547 -12.01172,27.35938 -5.76172,40.97266 6.25,13.60938 19.85547,22.33203 34.83203,22.32813 h 158.98828 c 27.85938,0 50.44532,-22.58203 50.44532,-50.44141 0,-27.85547 -22.58594,-50.44141 -50.44532,-50.44141 z m 0,0"
       inkscape:connector-curvature="0" /><g
       id="g876"
       style="fill:#bdd9e5"><path
         id="path870"
         style="fill:#bdd9e5"
         data-original="#bdd9e5"
         d="m 299.41016,180.59375 c 6.51562,-2.96094 13.58984,-4.49609 20.74609,-4.5 0.89062,0 1.75781,0.0898 2.63281,0.13281 -14.28125,-25.13281 -43.02344,-38.33203 -71.39062,-32.78125 20.98437,4.07813 38.79687,17.85938 48.01172,37.14844 z m 0,0"
         inkscape:connector-curvature="0" /><path
         id="path872"
         style="fill:#bdd9e5"
         data-original="#bdd9e5"
         d="m 345.83984,176.09375 c -4.3125,0.0195 -8.60937,0.60156 -12.77343,1.73047 24.54296,6.42578 40.48437,30.09765 37.21093,55.25781 -3.27343,25.16016 -24.74218,43.96484 -50.11718,43.89453 h 25.67968 c 27.85938,0 50.44532,-22.58203 50.44532,-50.4414 0,-27.85547 -22.58594,-50.44141 -50.44532,-50.44141 z m 0,0"
         inkscape:connector-curvature="0" /><path
         id="path874"
         style="fill:#bdd9e5"
         data-original="#bdd9e5"
         d="m 330,214.27734 c 0,0 16.13281,-11.05078 14.91406,-38.13281 -6.83984,0.12109 -13.58594,1.63672 -19.82031,4.45313 4.58594,10.59375 6.28125,22.21875 4.90625,33.67968 z m 0,0"
         inkscape:connector-curvature="0" /></g></g></svg>