<?xml version="1.0" encoding="UTF-8" standalone="no"?>
<svg
   xmlns:dc="http://purl.org/dc/elements/1.1/"
   xmlns:cc="http://creativecommons.org/ns#"
   xmlns:rdf="http://www.w3.org/1999/02/22-rdf-syntax-ns#"
   xmlns:svg="http://www.w3.org/2000/svg"
   xmlns="http://www.w3.org/2000/svg"
   xmlns:sodipodi="http://sodipodi.sourceforge.net/DTD/sodipodi-0.dtd"
   xmlns:inkscape="http://www.inkscape.org/namespaces/inkscape"
   version="1.1"
   width="512"
   height="512"
   x="0"
   y="0"
   viewBox="0 0 454 454"
   style="enable-background:new 0 0 512 512"
   xml:space="preserve"
   class=""
   id="svg16"
   sodipodi:docname="721.svg"
   inkscape:export-filename="/home/whitehole/Downloads/img/7xx/n/721.png"
   inkscape:export-xdpi="96"
   inkscape:export-ydpi="96"
   inkscape:version="0.92.4 (5da689c313, 2019-01-14)"><metadata
     id="metadata22"><rdf:RDF><cc:Work
         rdf:about=""><dc:format>image/svg+xml</dc:format><dc:type
           rdf:resource="http://purl.org/dc/dcmitype/StillImage" /><dc:title></dc:title></cc:Work></rdf:RDF></metadata><defs
     id="defs20"><clipPath
       clipPathUnits="userSpaceOnUse"
       id="clipPath975"><g
         id="g991"
         transform="matrix(0.5565787,0,0,0.5565787,-1105.772,208.39744)"><path
           id="path977"
           style="fill:#d9ecf2;stroke-width:1.09602189"
           data-original="#d9ecf2"
           d="m 2449.9685,294.6682 c 3.6476,-28.57364 -10.4251,-56.50078 -35.5565,-70.57781 -25.1358,-14.07276 -56.2996,-11.47398 -78.7552,6.57184 -24.866,-36.76811 -68.968,-55.54605 -112.7062,-47.98949 -43.738,7.55656 -78.982,40.04762 -90.0707,83.02366 -27.5118,-13.47336 -60.4739,-8.68683 -83.0194,12.05624 -22.5455,20.7388 -30.0549,53.19131 -18.9192,81.72642 11.1401,28.53938 38.6476,47.3216 69.2805,47.30876 h 341.0856 c 29.4769,0.0342 54.009,-22.64399 56.2866,-52.03535 2.2778,-29.39138 -18.4696,-55.57602 -47.6042,-60.07999 z m 0,0"
           inkscape:connector-curvature="0" /><g
           id="g987"
           style="fill:#bdd9e5"><path
             id="path979"
             style="fill:#bdd9e5;stroke-width:1.09602189"
             data-original="#bdd9e5"
             d="m 2449.9685,294.6682 c 2.6843,-20.1608 -3.4893,-40.49288 -16.9327,-55.75155 -13.4391,-15.26296 -32.8335,-23.95407 -53.1699,-23.83419 -7.5823,0.009 -15.1174,1.24586 -22.3058,3.66054 32.1443,10.48071 52.2281,42.4109 47.7583,75.9252 29.1303,4.50396 49.8819,30.68862 47.6042,60.07998 -2.2777,29.39137 -26.8097,52.0696 -56.2909,52.03535 h 44.6499 c 29.4814,0.0342 54.0134,-22.64398 56.291,-52.03535 2.2777,-29.39136 -18.4697,-55.57602 -47.6041,-60.07998 z m 0,0"
             inkscape:connector-curvature="0" /><path
             id="path981"
             style="fill:#bdd9e5;stroke-width:1.09602189"
             data-original="#bdd9e5"
             d="m 2303.1186,243.70319 c 9.1707,-4.25993 24.7932,-10.37369 32.5382,-13.04524 -3.5963,-5.14616 -7.5523,-10.03117 -11.8378,-14.61647 -26.6171,-28.11981 -65.8684,-40.50144 -103.8054,-32.75223 29.4343,5.95535 66.425,22.57549 83.105,60.41394 z m 0,0"
             inkscape:connector-curvature="0" /><path
             id="path983"
             style="fill:#bdd9e5;stroke-width:1.09602189"
             data-original="#bdd9e5"
             d="m 2104.5974,258.19123 c 3.1768,23.41889 13.7088,45.21946 30.085,62.2549 -4.9278,-17.85317 -5.5443,-36.62683 -1.8025,-54.76685 -8.8367,-4.34984 -18.4482,-6.89723 -28.2825,-7.48805 z m 0,0"
             inkscape:connector-curvature="0" /><path
             inkscape:connector-curvature="0"
             d="m 2449.9685,265.72742 c 2.6843,-20.1608 -3.4893,-40.49288 -16.9327,-55.75155 -13.4391,-15.26296 -32.8335,-23.95407 -53.1699,-23.83419 -7.5823,0.009 -15.1174,1.24586 -22.3058,3.66054 32.1443,10.48071 52.2281,42.4109 47.7583,75.9252 29.1303,4.50396 49.8819,30.68862 47.6042,60.07998 -2.2777,29.39137 -26.8097,52.0696 -56.2909,52.03535 h 44.6499 c 29.4814,0.0342 54.0134,-22.64398 56.291,-52.03535 2.2777,-29.39136 -18.4697,-55.57602 -47.6041,-60.07998 z m 0,0"
             data-original="#bdd9e5"
             style="fill:#f59a1d;fill-opacity:1;stroke-width:1.09602189"
             id="path985" /></g><path
           inkscape:connector-curvature="0"
           d="m 2449.9685,265.72742 c 3.6476,-28.57364 -10.4251,-56.50078 -35.5565,-70.57781 -25.1358,-14.07276 -56.2996,-11.47398 -78.7552,6.57184 -24.866,-36.76811 -68.968,-55.54605 -112.7062,-47.98949 -43.738,7.55656 -78.982,40.04762 -90.0707,83.02366 -27.5118,-13.47336 -60.4739,-8.68683 -83.0194,12.05624 -22.5455,20.7388 -30.0549,53.19131 -18.9192,81.72642 11.1401,28.53938 38.6476,47.3216 69.2805,47.30876 h 341.0856 c 29.4769,0.0342 54.009,-22.64399 56.2866,-52.03535 2.2778,-29.39138 -18.4696,-55.57602 -47.6042,-60.07999 z m 0,0"
           data-original="#d9ecf2"
           style="fill:#f59a1d;fill-opacity:1;stroke-width:1.09602189"
           id="path989" /></g></clipPath><clipPath
       clipPathUnits="userSpaceOnUse"
       id="clipPath1076"><g
         transform="matrix(0.65166377,0,0,0.65166377,-1316.4987,140.94597)"
         id="g1088"
         style="fill:#f59a1d;fill-opacity:1"><path
           inkscape:connector-curvature="0"
           d="m 2449.9685,294.6682 c 3.6476,-28.57364 -10.4251,-56.50078 -35.5565,-70.57781 -25.1358,-14.07276 -56.2996,-11.47398 -78.7552,6.57184 -24.866,-36.76811 -68.968,-55.54605 -112.7062,-47.98949 -43.738,7.55656 -78.982,40.04762 -90.0707,83.02366 -27.5118,-13.47336 -60.4739,-8.68683 -83.0194,12.05624 -22.5455,20.7388 -30.0549,53.19131 -18.9192,81.72642 11.1401,28.53938 38.6476,47.3216 69.2805,47.30876 h 341.0856 c 29.4769,0.0342 54.009,-22.64399 56.2866,-52.03535 2.2778,-29.39138 -18.4696,-55.57602 -47.6042,-60.07999 z m 0,0"
           data-original="#d9ecf2"
           style="fill:#f59a1d;fill-opacity:1;stroke-width:1.09602189"
           id="path1078" /><g
           style="fill:#f59a1d;fill-opacity:1"
           id="g1086"><path
             inkscape:connector-curvature="0"
             d="m 2449.9685,294.6682 c 2.6843,-20.1608 -3.4893,-40.49288 -16.9327,-55.75155 -13.4391,-15.26296 -32.8335,-23.95407 -53.1699,-23.83419 -7.5823,0.009 -15.1174,1.24586 -22.3058,3.66054 32.1443,10.48071 52.2281,42.4109 47.7583,75.9252 29.1303,4.50396 49.8819,30.68862 47.6042,60.07998 -2.2777,29.39137 -26.8097,52.0696 -56.2909,52.03535 h 44.6499 c 29.4814,0.0342 54.0134,-22.64398 56.291,-52.03535 2.2777,-29.39136 -18.4697,-55.57602 -47.6041,-60.07998 z m 0,0"
             data-original="#bdd9e5"
             style="fill:#f59a1d;fill-opacity:1;stroke-width:1.09602189"
             id="path1080" /><path
             inkscape:connector-curvature="0"
             d="m 2303.1186,243.70319 c 9.1707,-4.25993 24.7932,-10.37369 32.5382,-13.04524 -3.5963,-5.14616 -7.5523,-10.03117 -11.8378,-14.61647 -26.6171,-28.11981 -65.8684,-40.50144 -103.8054,-32.75223 29.4343,5.95535 66.425,22.57549 83.105,60.41394 z m 0,0"
             data-original="#bdd9e5"
             style="fill:#f59a1d;fill-opacity:1;stroke-width:1.09602189"
             id="path1082" /><path
             inkscape:connector-curvature="0"
             d="m 2104.5974,258.19123 c 3.1768,23.41889 13.7088,45.21946 30.085,62.2549 -4.9278,-17.85317 -5.5443,-36.62683 -1.8025,-54.76685 -8.8367,-4.34984 -18.4482,-6.89723 -28.2825,-7.48805 z m 0,0"
             data-original="#bdd9e5"
             style="fill:#f59a1d;fill-opacity:1;stroke-width:1.09602189"
             id="path1084" /></g></g></clipPath><clipPath
       id="clipPath975-1"
       clipPathUnits="userSpaceOnUse"><g
         transform="matrix(0.5565787,0,0,0.5565787,-1105.772,208.39744)"
         id="g991-2"><path
           inkscape:connector-curvature="0"
           d="m 2449.9685,294.6682 c 3.6476,-28.57364 -10.4251,-56.50078 -35.5565,-70.57781 -25.1358,-14.07276 -56.2996,-11.47398 -78.7552,6.57184 -24.866,-36.76811 -68.968,-55.54605 -112.7062,-47.98949 -43.738,7.55656 -78.982,40.04762 -90.0707,83.02366 -27.5118,-13.47336 -60.4739,-8.68683 -83.0194,12.05624 -22.5455,20.7388 -30.0549,53.19131 -18.9192,81.72642 11.1401,28.53938 38.6476,47.3216 69.2805,47.30876 h 341.0856 c 29.4769,0.0342 54.009,-22.64399 56.2866,-52.03535 2.2778,-29.39138 -18.4696,-55.57602 -47.6042,-60.07999 z m 0,0"
           data-original="#d9ecf2"
           style="fill:#d9ecf2;stroke-width:1.09602189"
           id="path977-7" /><g
           style="fill:#bdd9e5"
           id="g987-0"><path
             inkscape:connector-curvature="0"
             d="m 2449.9685,294.6682 c 2.6843,-20.1608 -3.4893,-40.49288 -16.9327,-55.75155 -13.4391,-15.26296 -32.8335,-23.95407 -53.1699,-23.83419 -7.5823,0.009 -15.1174,1.24586 -22.3058,3.66054 32.1443,10.48071 52.2281,42.4109 47.7583,75.9252 29.1303,4.50396 49.8819,30.68862 47.6042,60.07998 -2.2777,29.39137 -26.8097,52.0696 -56.2909,52.03535 h 44.6499 c 29.4814,0.0342 54.0134,-22.64398 56.291,-52.03535 2.2777,-29.39136 -18.4697,-55.57602 -47.6041,-60.07998 z m 0,0"
             data-original="#bdd9e5"
             style="fill:#bdd9e5;stroke-width:1.09602189"
             id="path979-9" /><path
             inkscape:connector-curvature="0"
             d="m 2303.1186,243.70319 c 9.1707,-4.25993 24.7932,-10.37369 32.5382,-13.04524 -3.5963,-5.14616 -7.5523,-10.03117 -11.8378,-14.61647 -26.6171,-28.11981 -65.8684,-40.50144 -103.8054,-32.75223 29.4343,5.95535 66.425,22.57549 83.105,60.41394 z m 0,0"
             data-original="#bdd9e5"
             style="fill:#bdd9e5;stroke-width:1.09602189"
             id="path981-3" /><path
             inkscape:connector-curvature="0"
             d="m 2104.5974,258.19123 c 3.1768,23.41889 13.7088,45.21946 30.085,62.2549 -4.9278,-17.85317 -5.5443,-36.62683 -1.8025,-54.76685 -8.8367,-4.34984 -18.4482,-6.89723 -28.2825,-7.48805 z m 0,0"
             data-original="#bdd9e5"
             style="fill:#bdd9e5;stroke-width:1.09602189"
             id="path983-6" /><path
             id="path985-0"
             style="fill:#f59a1d;fill-opacity:1;stroke-width:1.09602189"
             data-original="#bdd9e5"
             d="m 2449.9685,265.72742 c 2.6843,-20.1608 -3.4893,-40.49288 -16.9327,-55.75155 -13.4391,-15.26296 -32.8335,-23.95407 -53.1699,-23.83419 -7.5823,0.009 -15.1174,1.24586 -22.3058,3.66054 32.1443,10.48071 52.2281,42.4109 47.7583,75.9252 29.1303,4.50396 49.8819,30.68862 47.6042,60.07998 -2.2777,29.39137 -26.8097,52.0696 -56.2909,52.03535 h 44.6499 c 29.4814,0.0342 54.0134,-22.64398 56.291,-52.03535 2.2777,-29.39136 -18.4697,-55.57602 -47.6041,-60.07998 z m 0,0"
             inkscape:connector-curvature="0" /></g><path
           id="path989-6"
           style="fill:#f59a1d;fill-opacity:1;stroke-width:1.09602189"
           data-original="#d9ecf2"
           d="m 2449.9685,265.72742 c 3.6476,-28.57364 -10.4251,-56.50078 -35.5565,-70.57781 -25.1358,-14.07276 -56.2996,-11.47398 -78.7552,6.57184 -24.866,-36.76811 -68.968,-55.54605 -112.7062,-47.98949 -43.738,7.55656 -78.982,40.04762 -90.0707,83.02366 -27.5118,-13.47336 -60.4739,-8.68683 -83.0194,12.05624 -22.5455,20.7388 -30.0549,53.19131 -18.9192,81.72642 11.1401,28.53938 38.6476,47.3216 69.2805,47.30876 h 341.0856 c 29.4769,0.0342 54.009,-22.64399 56.2866,-52.03535 2.2778,-29.39138 -18.4696,-55.57602 -47.6042,-60.07999 z m 0,0"
           inkscape:connector-curvature="0" /></g></clipPath><clipPath
       id="clipPath1076-2"
       clipPathUnits="userSpaceOnUse"><g
         style="fill:#f59a1d;fill-opacity:1"
         id="g1088-6"
         transform="matrix(0.65166377,0,0,0.65166377,-1316.4987,140.94597)"><path
           id="path1078-1"
           style="fill:#f59a1d;fill-opacity:1;stroke-width:1.09602189"
           data-original="#d9ecf2"
           d="m 2449.9685,294.6682 c 3.6476,-28.57364 -10.4251,-56.50078 -35.5565,-70.57781 -25.1358,-14.07276 -56.2996,-11.47398 -78.7552,6.57184 -24.866,-36.76811 -68.968,-55.54605 -112.7062,-47.98949 -43.738,7.55656 -78.982,40.04762 -90.0707,83.02366 -27.5118,-13.47336 -60.4739,-8.68683 -83.0194,12.05624 -22.5455,20.7388 -30.0549,53.19131 -18.9192,81.72642 11.1401,28.53938 38.6476,47.3216 69.2805,47.30876 h 341.0856 c 29.4769,0.0342 54.009,-22.64399 56.2866,-52.03535 2.2778,-29.39138 -18.4696,-55.57602 -47.6042,-60.07999 z m 0,0"
           inkscape:connector-curvature="0" /><g
           id="g1086-8"
           style="fill:#f59a1d;fill-opacity:1"><path
             id="path1080-7"
             style="fill:#f59a1d;fill-opacity:1;stroke-width:1.09602189"
             data-original="#bdd9e5"
             d="m 2449.9685,294.6682 c 2.6843,-20.1608 -3.4893,-40.49288 -16.9327,-55.75155 -13.4391,-15.26296 -32.8335,-23.95407 -53.1699,-23.83419 -7.5823,0.009 -15.1174,1.24586 -22.3058,3.66054 32.1443,10.48071 52.2281,42.4109 47.7583,75.9252 29.1303,4.50396 49.8819,30.68862 47.6042,60.07998 -2.2777,29.39137 -26.8097,52.0696 -56.2909,52.03535 h 44.6499 c 29.4814,0.0342 54.0134,-22.64398 56.291,-52.03535 2.2777,-29.39136 -18.4697,-55.57602 -47.6041,-60.07998 z m 0,0"
             inkscape:connector-curvature="0" /><path
             id="path1082-9"
             style="fill:#f59a1d;fill-opacity:1;stroke-width:1.09602189"
             data-original="#bdd9e5"
             d="m 2303.1186,243.70319 c 9.1707,-4.25993 24.7932,-10.37369 32.5382,-13.04524 -3.5963,-5.14616 -7.5523,-10.03117 -11.8378,-14.61647 -26.6171,-28.11981 -65.8684,-40.50144 -103.8054,-32.75223 29.4343,5.95535 66.425,22.57549 83.105,60.41394 z m 0,0"
             inkscape:connector-curvature="0" /><path
             id="path1084-2"
             style="fill:#f59a1d;fill-opacity:1;stroke-width:1.09602189"
             data-original="#bdd9e5"
             d="m 2104.5974,258.19123 c 3.1768,23.41889 13.7088,45.21946 30.085,62.2549 -4.9278,-17.85317 -5.5443,-36.62683 -1.8025,-54.76685 -8.8367,-4.34984 -18.4482,-6.89723 -28.2825,-7.48805 z m 0,0"
             inkscape:connector-curvature="0" /></g></g></clipPath><clipPath
       clipPathUnits="userSpaceOnUse"
       id="clipPath994"><g
         transform="matrix(0.45616464,0,0,0.45616464,-853.49434,167.63292)"
         id="g1006"
         style="fill:#a6bec9;fill-opacity:1"><path
           inkscape:connector-curvature="0"
           d="m 2449.9685,294.6682 c 3.6476,-28.57364 -10.4251,-56.50078 -35.5565,-70.57781 -25.1358,-14.07276 -56.2996,-11.47398 -78.7552,6.57184 -24.866,-36.76811 -68.968,-55.54605 -112.7062,-47.98949 -43.738,7.55656 -78.982,40.04762 -90.0707,83.02366 -27.5118,-13.47336 -60.4739,-8.68683 -83.0194,12.05624 -22.5455,20.7388 -30.0549,53.19131 -18.9192,81.72642 11.1401,28.53938 38.6476,47.3216 69.2805,47.30876 h 341.0856 c 29.4769,0.0342 54.009,-22.64399 56.2866,-52.03535 2.2778,-29.39138 -18.4696,-55.57602 -47.6042,-60.07999 z m 0,0"
           data-original="#d9ecf2"
           style="fill:#a6bec9;fill-opacity:1;stroke-width:1.09602189"
           id="path996" /><g
           style="fill:#a6bec9;fill-opacity:1"
           id="g1004"><path
             inkscape:connector-curvature="0"
             d="m 2449.9685,294.6682 c 2.6843,-20.1608 -3.4893,-40.49288 -16.9327,-55.75155 -13.4391,-15.26296 -32.8335,-23.95407 -53.1699,-23.83419 -7.5823,0.009 -15.1174,1.24586 -22.3058,3.66054 32.1443,10.48071 52.2281,42.4109 47.7583,75.9252 29.1303,4.50396 49.8819,30.68862 47.6042,60.07998 -2.2777,29.39137 -26.8097,52.0696 -56.2909,52.03535 h 44.6499 c 29.4814,0.0342 54.0134,-22.64398 56.291,-52.03535 2.2777,-29.39136 -18.4697,-55.57602 -47.6041,-60.07998 z m 0,0"
             data-original="#bdd9e5"
             style="fill:#a6bec9;fill-opacity:1;stroke-width:1.09602189"
             id="path998" /><path
             inkscape:connector-curvature="0"
             d="m 2303.1186,243.70319 c 9.1707,-4.25993 24.7932,-10.37369 32.5382,-13.04524 -3.5963,-5.14616 -7.5523,-10.03117 -11.8378,-14.61647 -26.6171,-28.11981 -65.8684,-40.50144 -103.8054,-32.75223 29.4343,5.95535 66.425,22.57549 83.105,60.41394 z m 0,0"
             data-original="#bdd9e5"
             style="fill:#a6bec9;fill-opacity:1;stroke-width:1.09602189"
             id="path1000" /><path
             inkscape:connector-curvature="0"
             d="m 2104.5974,258.19123 c 3.1768,23.41889 13.7088,45.21946 30.085,62.2549 -4.9278,-17.85317 -5.5443,-36.62683 -1.8025,-54.76685 -8.8367,-4.34984 -18.4482,-6.89723 -28.2825,-7.48805 z m 0,0"
             data-original="#bdd9e5"
             style="fill:#a6bec9;fill-opacity:1;stroke-width:1.09602189"
             id="path1002" /></g></g></clipPath><clipPath
       id="clipPath936"
       clipPathUnits="userSpaceOnUse"><path
         id="path938"
         style="fill:#f59a1d;fill-opacity:1;stroke-width:0.98704565"
         data-original="#26a3b9"
         d="m 352.27251,212.90387 c -13.14391,0.004 -26.02948,3.66672 -37.21085,10.5799 -12.92413,-48.54646 -58.45546,-81.11124 -108.57116,-77.66044 -50.11956,3.45079 -90.75422,41.9533 -96.90012,91.81452 -22.397463,-5.49815 -45.959316,2.39051 -60.529802,20.26914 -14.57435,17.87478 -17.550913,42.5432 -7.65346,63.3714 9.901304,20.83207 30.906861,34.10321 53.97134,34.09163 H 352.27251 c 39.34303,0 71.23308,-31.89004 71.23308,-71.23307 0,-39.33916 -31.89005,-71.23308 -71.23308,-71.23308 z m 0,0"
         inkscape:connector-curvature="0" /></clipPath><clipPath
       id="clipPath936-7"
       clipPathUnits="userSpaceOnUse"><path
         id="path938-0"
         style="fill:#f59a1d;fill-opacity:1;stroke-width:0.98704565"
         data-original="#26a3b9"
         d="m 352.27251,212.90387 c -13.14391,0.004 -26.02948,3.66672 -37.21085,10.5799 -12.92413,-48.54646 -58.45546,-81.11124 -108.57116,-77.66044 -50.11956,3.45079 -90.75422,41.9533 -96.90012,91.81452 -22.397463,-5.49815 -45.959316,2.39051 -60.529802,20.26914 -14.57435,17.87478 -17.550913,42.5432 -7.65346,63.3714 9.901304,20.83207 30.906861,34.10321 53.97134,34.09163 H 352.27251 c 39.34303,0 71.23308,-31.89004 71.23308,-71.23307 0,-39.33916 -31.89005,-71.23308 -71.23308,-71.23308 z m 0,0"
         inkscape:connector-curvature="0" /></clipPath><clipPath
       id="clipPath975-9"
       clipPathUnits="userSpaceOnUse"><g
         transform="matrix(0.5565787,0,0,0.5565787,-1105.772,208.39744)"
         id="g991-22"><path
           inkscape:connector-curvature="0"
           d="m 2449.9685,294.6682 c 3.6476,-28.57364 -10.4251,-56.50078 -35.5565,-70.57781 -25.1358,-14.07276 -56.2996,-11.47398 -78.7552,6.57184 -24.866,-36.76811 -68.968,-55.54605 -112.7062,-47.98949 -43.738,7.55656 -78.982,40.04762 -90.0707,83.02366 -27.5118,-13.47336 -60.4739,-8.68683 -83.0194,12.05624 -22.5455,20.7388 -30.0549,53.19131 -18.9192,81.72642 11.1401,28.53938 38.6476,47.3216 69.2805,47.30876 h 341.0856 c 29.4769,0.0342 54.009,-22.64399 56.2866,-52.03535 2.2778,-29.39138 -18.4696,-55.57602 -47.6042,-60.07999 z m 0,0"
           data-original="#d9ecf2"
           style="fill:#d9ecf2;stroke-width:1.09602189"
           id="path977-8" /><g
           style="fill:#bdd9e5"
           id="g987-9"><path
             inkscape:connector-curvature="0"
             d="m 2449.9685,294.6682 c 2.6843,-20.1608 -3.4893,-40.49288 -16.9327,-55.75155 -13.4391,-15.26296 -32.8335,-23.95407 -53.1699,-23.83419 -7.5823,0.009 -15.1174,1.24586 -22.3058,3.66054 32.1443,10.48071 52.2281,42.4109 47.7583,75.9252 29.1303,4.50396 49.8819,30.68862 47.6042,60.07998 -2.2777,29.39137 -26.8097,52.0696 -56.2909,52.03535 h 44.6499 c 29.4814,0.0342 54.0134,-22.64398 56.291,-52.03535 2.2777,-29.39136 -18.4697,-55.57602 -47.6041,-60.07998 z m 0,0"
             data-original="#bdd9e5"
             style="fill:#bdd9e5;stroke-width:1.09602189"
             id="path979-7" /><path
             inkscape:connector-curvature="0"
             d="m 2303.1186,243.70319 c 9.1707,-4.25993 24.7932,-10.37369 32.5382,-13.04524 -3.5963,-5.14616 -7.5523,-10.03117 -11.8378,-14.61647 -26.6171,-28.11981 -65.8684,-40.50144 -103.8054,-32.75223 29.4343,5.95535 66.425,22.57549 83.105,60.41394 z m 0,0"
             data-original="#bdd9e5"
             style="fill:#bdd9e5;stroke-width:1.09602189"
             id="path981-36" /><path
             inkscape:connector-curvature="0"
             d="m 2104.5974,258.19123 c 3.1768,23.41889 13.7088,45.21946 30.085,62.2549 -4.9278,-17.85317 -5.5443,-36.62683 -1.8025,-54.76685 -8.8367,-4.34984 -18.4482,-6.89723 -28.2825,-7.48805 z m 0,0"
             data-original="#bdd9e5"
             style="fill:#bdd9e5;stroke-width:1.09602189"
             id="path983-1" /><path
             id="path985-2"
             style="fill:#f59a1d;fill-opacity:1;stroke-width:1.09602189"
             data-original="#bdd9e5"
             d="m 2449.9685,265.72742 c 2.6843,-20.1608 -3.4893,-40.49288 -16.9327,-55.75155 -13.4391,-15.26296 -32.8335,-23.95407 -53.1699,-23.83419 -7.5823,0.009 -15.1174,1.24586 -22.3058,3.66054 32.1443,10.48071 52.2281,42.4109 47.7583,75.9252 29.1303,4.50396 49.8819,30.68862 47.6042,60.07998 -2.2777,29.39137 -26.8097,52.0696 -56.2909,52.03535 h 44.6499 c 29.4814,0.0342 54.0134,-22.64398 56.291,-52.03535 2.2777,-29.39136 -18.4697,-55.57602 -47.6041,-60.07998 z m 0,0"
             inkscape:connector-curvature="0" /></g><path
           id="path989-9"
           style="fill:#f59a1d;fill-opacity:1;stroke-width:1.09602189"
           data-original="#d9ecf2"
           d="m 2449.9685,265.72742 c 3.6476,-28.57364 -10.4251,-56.50078 -35.5565,-70.57781 -25.1358,-14.07276 -56.2996,-11.47398 -78.7552,6.57184 -24.866,-36.76811 -68.968,-55.54605 -112.7062,-47.98949 -43.738,7.55656 -78.982,40.04762 -90.0707,83.02366 -27.5118,-13.47336 -60.4739,-8.68683 -83.0194,12.05624 -22.5455,20.7388 -30.0549,53.19131 -18.9192,81.72642 11.1401,28.53938 38.6476,47.3216 69.2805,47.30876 h 341.0856 c 29.4769,0.0342 54.009,-22.64399 56.2866,-52.03535 2.2778,-29.39138 -18.4696,-55.57602 -47.6042,-60.07999 z m 0,0"
           inkscape:connector-curvature="0" /></g></clipPath><clipPath
       id="clipPath1076-3"
       clipPathUnits="userSpaceOnUse"><g
         style="fill:#f59a1d;fill-opacity:1"
         id="g1088-1"
         transform="matrix(0.65166377,0,0,0.65166377,-1316.4987,140.94597)"><path
           id="path1078-9"
           style="fill:#f59a1d;fill-opacity:1;stroke-width:1.09602189"
           data-original="#d9ecf2"
           d="m 2449.9685,294.6682 c 3.6476,-28.57364 -10.4251,-56.50078 -35.5565,-70.57781 -25.1358,-14.07276 -56.2996,-11.47398 -78.7552,6.57184 -24.866,-36.76811 -68.968,-55.54605 -112.7062,-47.98949 -43.738,7.55656 -78.982,40.04762 -90.0707,83.02366 -27.5118,-13.47336 -60.4739,-8.68683 -83.0194,12.05624 -22.5455,20.7388 -30.0549,53.19131 -18.9192,81.72642 11.1401,28.53938 38.6476,47.3216 69.2805,47.30876 h 341.0856 c 29.4769,0.0342 54.009,-22.64399 56.2866,-52.03535 2.2778,-29.39138 -18.4696,-55.57602 -47.6042,-60.07999 z m 0,0"
           inkscape:connector-curvature="0" /><g
           id="g1086-4"
           style="fill:#f59a1d;fill-opacity:1"><path
             id="path1080-78"
             style="fill:#f59a1d;fill-opacity:1;stroke-width:1.09602189"
             data-original="#bdd9e5"
             d="m 2449.9685,294.6682 c 2.6843,-20.1608 -3.4893,-40.49288 -16.9327,-55.75155 -13.4391,-15.26296 -32.8335,-23.95407 -53.1699,-23.83419 -7.5823,0.009 -15.1174,1.24586 -22.3058,3.66054 32.1443,10.48071 52.2281,42.4109 47.7583,75.9252 29.1303,4.50396 49.8819,30.68862 47.6042,60.07998 -2.2777,29.39137 -26.8097,52.0696 -56.2909,52.03535 h 44.6499 c 29.4814,0.0342 54.0134,-22.64398 56.291,-52.03535 2.2777,-29.39136 -18.4697,-55.57602 -47.6041,-60.07998 z m 0,0"
             inkscape:connector-curvature="0" /><path
             id="path1082-4"
             style="fill:#f59a1d;fill-opacity:1;stroke-width:1.09602189"
             data-original="#bdd9e5"
             d="m 2303.1186,243.70319 c 9.1707,-4.25993 24.7932,-10.37369 32.5382,-13.04524 -3.5963,-5.14616 -7.5523,-10.03117 -11.8378,-14.61647 -26.6171,-28.11981 -65.8684,-40.50144 -103.8054,-32.75223 29.4343,5.95535 66.425,22.57549 83.105,60.41394 z m 0,0"
             inkscape:connector-curvature="0" /><path
             id="path1084-5"
             style="fill:#f59a1d;fill-opacity:1;stroke-width:1.09602189"
             data-original="#bdd9e5"
             d="m 2104.5974,258.19123 c 3.1768,23.41889 13.7088,45.21946 30.085,62.2549 -4.9278,-17.85317 -5.5443,-36.62683 -1.8025,-54.76685 -8.8367,-4.34984 -18.4482,-6.89723 -28.2825,-7.48805 z m 0,0"
             inkscape:connector-curvature="0" /></g></g></clipPath><clipPath
       clipPathUnits="userSpaceOnUse"
       id="clipPath975-1-0"><g
         id="g991-2-3"
         transform="matrix(0.5565787,0,0,0.5565787,-1105.772,208.39744)"><path
           id="path977-7-6"
           style="fill:#d9ecf2;stroke-width:1.09602189"
           data-original="#d9ecf2"
           d="m 2449.9685,294.6682 c 3.6476,-28.57364 -10.4251,-56.50078 -35.5565,-70.57781 -25.1358,-14.07276 -56.2996,-11.47398 -78.7552,6.57184 -24.866,-36.76811 -68.968,-55.54605 -112.7062,-47.98949 -43.738,7.55656 -78.982,40.04762 -90.0707,83.02366 -27.5118,-13.47336 -60.4739,-8.68683 -83.0194,12.05624 -22.5455,20.7388 -30.0549,53.19131 -18.9192,81.72642 11.1401,28.53938 38.6476,47.3216 69.2805,47.30876 h 341.0856 c 29.4769,0.0342 54.009,-22.64399 56.2866,-52.03535 2.2778,-29.39138 -18.4696,-55.57602 -47.6042,-60.07999 z m 0,0"
           inkscape:connector-curvature="0" /><g
           id="g987-0-1"
           style="fill:#bdd9e5"><path
             id="path979-9-0"
             style="fill:#bdd9e5;stroke-width:1.09602189"
             data-original="#bdd9e5"
             d="m 2449.9685,294.6682 c 2.6843,-20.1608 -3.4893,-40.49288 -16.9327,-55.75155 -13.4391,-15.26296 -32.8335,-23.95407 -53.1699,-23.83419 -7.5823,0.009 -15.1174,1.24586 -22.3058,3.66054 32.1443,10.48071 52.2281,42.4109 47.7583,75.9252 29.1303,4.50396 49.8819,30.68862 47.6042,60.07998 -2.2777,29.39137 -26.8097,52.0696 -56.2909,52.03535 h 44.6499 c 29.4814,0.0342 54.0134,-22.64398 56.291,-52.03535 2.2777,-29.39136 -18.4697,-55.57602 -47.6041,-60.07998 z m 0,0"
             inkscape:connector-curvature="0" /><path
             id="path981-3-6"
             style="fill:#bdd9e5;stroke-width:1.09602189"
             data-original="#bdd9e5"
             d="m 2303.1186,243.70319 c 9.1707,-4.25993 24.7932,-10.37369 32.5382,-13.04524 -3.5963,-5.14616 -7.5523,-10.03117 -11.8378,-14.61647 -26.6171,-28.11981 -65.8684,-40.50144 -103.8054,-32.75223 29.4343,5.95535 66.425,22.57549 83.105,60.41394 z m 0,0"
             inkscape:connector-curvature="0" /><path
             id="path983-6-3"
             style="fill:#bdd9e5;stroke-width:1.09602189"
             data-original="#bdd9e5"
             d="m 2104.5974,258.19123 c 3.1768,23.41889 13.7088,45.21946 30.085,62.2549 -4.9278,-17.85317 -5.5443,-36.62683 -1.8025,-54.76685 -8.8367,-4.34984 -18.4482,-6.89723 -28.2825,-7.48805 z m 0,0"
             inkscape:connector-curvature="0" /><path
             inkscape:connector-curvature="0"
             d="m 2449.9685,265.72742 c 2.6843,-20.1608 -3.4893,-40.49288 -16.9327,-55.75155 -13.4391,-15.26296 -32.8335,-23.95407 -53.1699,-23.83419 -7.5823,0.009 -15.1174,1.24586 -22.3058,3.66054 32.1443,10.48071 52.2281,42.4109 47.7583,75.9252 29.1303,4.50396 49.8819,30.68862 47.6042,60.07998 -2.2777,29.39137 -26.8097,52.0696 -56.2909,52.03535 h 44.6499 c 29.4814,0.0342 54.0134,-22.64398 56.291,-52.03535 2.2777,-29.39136 -18.4697,-55.57602 -47.6041,-60.07998 z m 0,0"
             data-original="#bdd9e5"
             style="fill:#f59a1d;fill-opacity:1;stroke-width:1.09602189"
             id="path985-0-2" /></g><path
           inkscape:connector-curvature="0"
           d="m 2449.9685,265.72742 c 3.6476,-28.57364 -10.4251,-56.50078 -35.5565,-70.57781 -25.1358,-14.07276 -56.2996,-11.47398 -78.7552,6.57184 -24.866,-36.76811 -68.968,-55.54605 -112.7062,-47.98949 -43.738,7.55656 -78.982,40.04762 -90.0707,83.02366 -27.5118,-13.47336 -60.4739,-8.68683 -83.0194,12.05624 -22.5455,20.7388 -30.0549,53.19131 -18.9192,81.72642 11.1401,28.53938 38.6476,47.3216 69.2805,47.30876 h 341.0856 c 29.4769,0.0342 54.009,-22.64399 56.2866,-52.03535 2.2778,-29.39138 -18.4696,-55.57602 -47.6042,-60.07999 z m 0,0"
           data-original="#d9ecf2"
           style="fill:#f59a1d;fill-opacity:1;stroke-width:1.09602189"
           id="path989-6-0" /></g></clipPath><clipPath
       clipPathUnits="userSpaceOnUse"
       id="clipPath1076-2-6"><g
         transform="matrix(0.65166377,0,0,0.65166377,-1316.4987,140.94597)"
         id="g1088-6-1"
         style="fill:#f59a1d;fill-opacity:1"><path
           inkscape:connector-curvature="0"
           d="m 2449.9685,294.6682 c 3.6476,-28.57364 -10.4251,-56.50078 -35.5565,-70.57781 -25.1358,-14.07276 -56.2996,-11.47398 -78.7552,6.57184 -24.866,-36.76811 -68.968,-55.54605 -112.7062,-47.98949 -43.738,7.55656 -78.982,40.04762 -90.0707,83.02366 -27.5118,-13.47336 -60.4739,-8.68683 -83.0194,12.05624 -22.5455,20.7388 -30.0549,53.19131 -18.9192,81.72642 11.1401,28.53938 38.6476,47.3216 69.2805,47.30876 h 341.0856 c 29.4769,0.0342 54.009,-22.64399 56.2866,-52.03535 2.2778,-29.39138 -18.4696,-55.57602 -47.6042,-60.07999 z m 0,0"
           data-original="#d9ecf2"
           style="fill:#f59a1d;fill-opacity:1;stroke-width:1.09602189"
           id="path1078-1-5" /><g
           style="fill:#f59a1d;fill-opacity:1"
           id="g1086-8-5"><path
             inkscape:connector-curvature="0"
             d="m 2449.9685,294.6682 c 2.6843,-20.1608 -3.4893,-40.49288 -16.9327,-55.75155 -13.4391,-15.26296 -32.8335,-23.95407 -53.1699,-23.83419 -7.5823,0.009 -15.1174,1.24586 -22.3058,3.66054 32.1443,10.48071 52.2281,42.4109 47.7583,75.9252 29.1303,4.50396 49.8819,30.68862 47.6042,60.07998 -2.2777,29.39137 -26.8097,52.0696 -56.2909,52.03535 h 44.6499 c 29.4814,0.0342 54.0134,-22.64398 56.291,-52.03535 2.2777,-29.39136 -18.4697,-55.57602 -47.6041,-60.07998 z m 0,0"
             data-original="#bdd9e5"
             style="fill:#f59a1d;fill-opacity:1;stroke-width:1.09602189"
             id="path1080-7-4" /><path
             inkscape:connector-curvature="0"
             d="m 2303.1186,243.70319 c 9.1707,-4.25993 24.7932,-10.37369 32.5382,-13.04524 -3.5963,-5.14616 -7.5523,-10.03117 -11.8378,-14.61647 -26.6171,-28.11981 -65.8684,-40.50144 -103.8054,-32.75223 29.4343,5.95535 66.425,22.57549 83.105,60.41394 z m 0,0"
             data-original="#bdd9e5"
             style="fill:#f59a1d;fill-opacity:1;stroke-width:1.09602189"
             id="path1082-9-7" /><path
             inkscape:connector-curvature="0"
             d="m 2104.5974,258.19123 c 3.1768,23.41889 13.7088,45.21946 30.085,62.2549 -4.9278,-17.85317 -5.5443,-36.62683 -1.8025,-54.76685 -8.8367,-4.34984 -18.4482,-6.89723 -28.2825,-7.48805 z m 0,0"
             data-original="#bdd9e5"
             style="fill:#f59a1d;fill-opacity:1;stroke-width:1.09602189"
             id="path1084-2-6" /></g></g></clipPath><clipPath
       id="clipPath994-5"
       clipPathUnits="userSpaceOnUse"><g
         style="fill:#a6bec9;fill-opacity:1"
         id="g1006-6"
         transform="matrix(0.45616464,0,0,0.45616464,-853.49434,167.63292)"><path
           id="path996-9"
           style="fill:#a6bec9;fill-opacity:1;stroke-width:1.09602189"
           data-original="#d9ecf2"
           d="m 2449.9685,294.6682 c 3.6476,-28.57364 -10.4251,-56.50078 -35.5565,-70.57781 -25.1358,-14.07276 -56.2996,-11.47398 -78.7552,6.57184 -24.866,-36.76811 -68.968,-55.54605 -112.7062,-47.98949 -43.738,7.55656 -78.982,40.04762 -90.0707,83.02366 -27.5118,-13.47336 -60.4739,-8.68683 -83.0194,12.05624 -22.5455,20.7388 -30.0549,53.19131 -18.9192,81.72642 11.1401,28.53938 38.6476,47.3216 69.2805,47.30876 h 341.0856 c 29.4769,0.0342 54.009,-22.64399 56.2866,-52.03535 2.2778,-29.39138 -18.4696,-55.57602 -47.6042,-60.07999 z m 0,0"
           inkscape:connector-curvature="0" /><g
           id="g1004-3"
           style="fill:#a6bec9;fill-opacity:1"><path
             id="path998-7"
             style="fill:#a6bec9;fill-opacity:1;stroke-width:1.09602189"
             data-original="#bdd9e5"
             d="m 2449.9685,294.6682 c 2.6843,-20.1608 -3.4893,-40.49288 -16.9327,-55.75155 -13.4391,-15.26296 -32.8335,-23.95407 -53.1699,-23.83419 -7.5823,0.009 -15.1174,1.24586 -22.3058,3.66054 32.1443,10.48071 52.2281,42.4109 47.7583,75.9252 29.1303,4.50396 49.8819,30.68862 47.6042,60.07998 -2.2777,29.39137 -26.8097,52.0696 -56.2909,52.03535 h 44.6499 c 29.4814,0.0342 54.0134,-22.64398 56.291,-52.03535 2.2777,-29.39136 -18.4697,-55.57602 -47.6041,-60.07998 z m 0,0"
             inkscape:connector-curvature="0" /><path
             id="path1000-4"
             style="fill:#a6bec9;fill-opacity:1;stroke-width:1.09602189"
             data-original="#bdd9e5"
             d="m 2303.1186,243.70319 c 9.1707,-4.25993 24.7932,-10.37369 32.5382,-13.04524 -3.5963,-5.14616 -7.5523,-10.03117 -11.8378,-14.61647 -26.6171,-28.11981 -65.8684,-40.50144 -103.8054,-32.75223 29.4343,5.95535 66.425,22.57549 83.105,60.41394 z m 0,0"
             inkscape:connector-curvature="0" /><path
             id="path1002-5"
             style="fill:#a6bec9;fill-opacity:1;stroke-width:1.09602189"
             data-original="#bdd9e5"
             d="m 2104.5974,258.19123 c 3.1768,23.41889 13.7088,45.21946 30.085,62.2549 -4.9278,-17.85317 -5.5443,-36.62683 -1.8025,-54.76685 -8.8367,-4.34984 -18.4482,-6.89723 -28.2825,-7.48805 z m 0,0"
             inkscape:connector-curvature="0" /></g></g></clipPath><clipPath
       clipPathUnits="userSpaceOnUse"
       id="clipPath1193"><path
         id="path1195"
         style="fill:#a6bec9;fill-opacity:1;stroke-width:0.69093198"
         data-original="#26a3b9"
         d="m 314.64033,219.56777 c -9.20074,0.003 -18.22063,2.5667 -26.0476,7.40592 -9.04689,-33.98251 -40.91882,-56.77787 -75.99981,-54.3623 -35.08369,2.41556 -63.52795,29.3673 -67.83008,64.27016 -15.67822,-3.84871 -32.17152,1.67335 -42.37086,14.1884 -10.202049,12.51234 -12.285634,29.78024 -5.357425,44.35998 6.930915,14.58245 21.634815,23.87224 37.779945,23.86415 h 179.82583 c 27.54012,0 49.86315,-22.32304 49.86315,-49.86316 0,-27.53741 -22.32303,-49.86315 -49.86315,-49.86315 z m 0,0"
         inkscape:connector-curvature="0" /></clipPath><clipPath
       id="clipPath936-5"
       clipPathUnits="userSpaceOnUse"><path
         id="path938-3"
         style="fill:#f59a1d;fill-opacity:1;stroke-width:0.98704565"
         data-original="#26a3b9"
         d="m 352.27251,212.90387 c -13.14391,0.004 -26.02948,3.66672 -37.21085,10.5799 -12.92413,-48.54646 -58.45546,-81.11124 -108.57116,-77.66044 -50.11956,3.45079 -90.75422,41.9533 -96.90012,91.81452 -22.397463,-5.49815 -45.959316,2.39051 -60.529802,20.26914 -14.57435,17.87478 -17.550913,42.5432 -7.65346,63.3714 9.901304,20.83207 30.906861,34.10321 53.97134,34.09163 H 352.27251 c 39.34303,0 71.23308,-31.89004 71.23308,-71.23307 0,-39.33916 -31.89005,-71.23308 -71.23308,-71.23308 z m 0,0"
         inkscape:connector-curvature="0" /></clipPath></defs><sodipodi:namedview
     pagecolor="#ffffff"
     bordercolor="#666666"
     borderopacity="1"
     objecttolerance="10"
     gridtolerance="10"
     guidetolerance="10"
     inkscape:pageopacity="0"
     inkscape:pageshadow="2"
     inkscape:window-width="1920"
     inkscape:window-height="1043"
     id="namedview18"
     showgrid="false"
     inkscape:lockguides="true"
     inkscape:zoom="1.0323759"
     inkscape:cx="86.143841"
     inkscape:cy="187.79691"
     inkscape:window-x="0"
     inkscape:window-y="0"
     inkscape:window-maximized="1"
     inkscape:current-layer="svg16" /><g
     id="g1311"
     transform="translate(0.04522314,-2.6971594)"><rect
       y="67.23629"
       x="67.422546"
       height="319.96182"
       width="319.0751"
       id="rect833-4"
       style="opacity:0;fill:#ff0017;fill-opacity:0;stroke:none;stroke-width:1.1413691;stroke-linejoin:round;stroke-miterlimit:4;stroke-dasharray:none;stroke-dashoffset:0;stroke-opacity:1" /><g
       transform="matrix(0.70317202,0,0,0.70317202,75.944293,85.136624)"
       id="g938"><path
         inkscape:connector-curvature="0"
         d="m 408.98047,202.05469 c 0,107.26562 -86.95313,141.84016 -194.21484,141.84016 C 107.5,343.89485 20.546875,309.32031 20.546875,202.05469 20.546875,94.792969 107.5,7.839844 214.76563,7.839844 c 107.26171,0 194.21484,86.953125 194.21484,194.214846 z"
         data-original="#d9ecf2"
         style="fill:#d9ecf2"
         class=""
         id="path908"
         sodipodi:nodetypes="sssss" /><g
         style="fill:#bdd9e5"
         id="g922"><path
           inkscape:connector-curvature="0"
           d="M 214.77734,7.839844 C 207.03125,7.855469 199.29687,8.332031 191.60937,9.265625 289.22656,20.949219 362.70703,103.75 362.70703,202.0625 c 0,98.31641 -73.48047,92.90061 -171.09765,104.5842 71.62109,8.57031 142.08984,64.95877 183.00781,5.55252 40.91797,-59.40234 45.53906,-136.59375 12,-200.45313 C 353.07813,47.886719 286.90625,7.875 214.77734,7.839844 Z"
           data-original="#bdd9e5"
           style="fill:#bdd9e5"
           class=""
           id="path910"
           sodipodi:nodetypes="ccsccsc" /><path
           inkscape:connector-curvature="0"
           d="m 221.62891,290.41016 c 0,14.6914 -11.91016,26.60156 -26.60157,26.60156 -14.6914,0 -26.59765,-11.91016 -26.59765,-26.60156 0,-14.6875 11.90625,-26.59766 26.59765,-26.59766 14.69141,0 26.60157,11.91016 26.60157,26.59766 z m 0,0"
           data-original="#bdd9e5"
           style="fill:#bdd9e5"
           class=""
           id="path912" /><path
           inkscape:connector-curvature="0"
           d="m 70.15625,331.67187 c 14.757812,-10.3789 18.855469,-30.46875 9.347656,-45.80078 -9.507812,-15.33593 -29.324218,-20.58984 -45.183594,-11.98828 8.453126,21.22266 20.585938,40.78516 35.835938,57.78906 z m 0,0"
           data-original="#bdd9e5"
           style="fill:#bdd9e5"
           class=""
           id="path914" /><path
           inkscape:connector-curvature="0"
           d="m 330.08984,165.17578 c 0,26.20313 -21.24218,47.44531 -47.44531,47.44531 -26.20312,0 -47.44531,-21.24218 -47.44531,-47.44531 0,-26.20312 21.24219,-47.44531 47.44531,-47.44531 26.20313,0 47.44531,21.24219 47.44531,47.44531 z m 0,0"
           data-original="#bdd9e5"
           style="fill:#bdd9e5"
           class=""
           id="path916" /><path
           inkscape:connector-curvature="0"
           d="m 143.05469,138.36719 c 0,14.80468 -12,26.80859 -26.8086,26.80859 -14.80468,0 -26.804684,-12.00391 -26.804684,-26.80859 0,-14.80469 12.000004,-26.8086 26.804684,-26.8086 14.8086,0 26.8086,12.00391 26.8086,26.8086 z m 0,0"
           data-original="#bdd9e5"
           style="fill:#bdd9e5"
           class=""
           id="path918" /><path
           inkscape:connector-curvature="0"
           d="m 194.54297,58.492188 c 0,-8.511719 6.90234,-15.414063 15.41406,-15.414063 h 116.30859 c 12.63672,8.882813 24.17188,19.230469 34.3711,30.828125 H 209.95703 c -8.51562,0 -15.41406,-6.902344 -15.41406,-15.414062 z M 401.19141,256.49219 h -49.375 c -8.51172,0 -15.41407,6.89843 -15.41407,15.41015 0,8.51172 6.90235,15.41407 15.41407,15.41407 h 37.47265 c 4.83594,-9.91407 8.8125,-20.22266 11.88672,-30.81641 z m 0,0"
           data-original="#bdd9e5"
           style="fill:#bdd9e5"
           class=""
           id="path920" /></g><path
         inkscape:connector-curvature="0"
         d="m 354.89062,256.5 c -2.87109,9.80859 -6.52343,19.375 -10.91406,28.60937 2.36328,1.42969 5.07422,2.19532 7.83985,2.20704 h 37.47265 c 0.97657,-2 1.89063,-4 2.80078,-6.04297 0.26563,-0.59766 0.54688,-1.20313 0.79688,-1.78907 0.90625,-2.08593 1.76562,-4.1914 2.59766,-6.3164 0.1875,-0.48047 0.39843,-0.96094 0.5664,-1.44141 0.875,-2.28515 1.71094,-4.58984 2.50391,-6.91406 l 0.25781,-0.76172 c 0.83594,-2.49609 1.62891,-5.01172 2.375,-7.54687 z m 0,0"
         data-original="#d9ecf2"
         style="fill:#d9ecf2"
         class=""
         id="path924" /><path
         inkscape:connector-curvature="0"
         d="m 279.90234,43.078125 c 12.64844,8.878906 24.19532,19.226563 34.40235,30.824219 h 46.33203 c -7.64063,-8.6875 -16.03906,-16.679688 -25.09375,-23.882813 -3.01563,-2.398437 -6.10156,-4.707031 -9.26172,-6.925781 h -46.37891 z m 0,0"
         data-original="#d9ecf2"
         style="fill:#d9ecf2"
         class=""
         id="path926" /><path
         inkscape:connector-curvature="0"
         d="m 22.328125,228.03125 h 52.285156 c 8.511719,0 15.410157,-6.89844 15.410157,-15.41016 0,-8.51172 -6.898438,-15.41406 -15.410157,-15.41406 H 20.671875 c -0.03906,1.60156 -0.125,3.22656 -0.125,4.85156 0.01563,8.6875 0.613281,17.36328 1.78125,25.97266 z m 0,0"
         data-original="#bdd9e5"
         style="fill:#bdd9e5"
         class=""
         id="path928" /></g></g><g
     id="g1311-0"
     transform="translate(0.04522314,-2.6971594)"
     clip-path="url(#clipPath1193)"
     style="fill:#a6bec9;fill-opacity:1"><rect
       y="67.23629"
       x="67.422546"
       height="319.96182"
       width="319.0751"
       id="rect833-4-48"
       style="opacity:0;fill:#a6bec9;fill-opacity:1;stroke:none;stroke-width:1.1413691;stroke-linejoin:round;stroke-miterlimit:4;stroke-dasharray:none;stroke-dashoffset:0;stroke-opacity:1" /><g
       transform="matrix(0.70317202,0,0,0.70317202,75.944293,85.136624)"
       id="g938-71"
       style="fill:#a6bec9;fill-opacity:1"><path
         inkscape:connector-curvature="0"
         d="m 408.98047,202.05469 c 0,107.26562 -86.95313,141.84016 -194.21484,141.84016 C 107.5,343.89485 20.546875,309.32031 20.546875,202.05469 20.546875,94.792969 107.5,7.839844 214.76563,7.839844 c 107.26171,0 194.21484,86.953125 194.21484,194.214846 z"
         data-original="#d9ecf2"
         style="fill:#a6bec9;fill-opacity:1"
         class=""
         id="path908-7"
         sodipodi:nodetypes="sssss" /><g
         style="fill:#a6bec9;fill-opacity:1"
         id="g922-2"><path
           inkscape:connector-curvature="0"
           d="M 214.77734,7.839844 C 207.03125,7.855469 199.29687,8.332031 191.60937,9.265625 289.22656,20.949219 362.70703,103.75 362.70703,202.0625 c 0,98.31641 -73.48047,92.90061 -171.09765,104.5842 71.62109,8.57031 142.08984,64.95877 183.00781,5.55252 40.91797,-59.40234 45.53906,-136.59375 12,-200.45313 C 353.07813,47.886719 286.90625,7.875 214.77734,7.839844 Z"
           data-original="#bdd9e5"
           style="fill:#a6bec9;fill-opacity:1"
           class=""
           id="path910-7"
           sodipodi:nodetypes="ccsccsc" /><path
           inkscape:connector-curvature="0"
           d="m 221.62891,290.41016 c 0,14.6914 -11.91016,26.60156 -26.60157,26.60156 -14.6914,0 -26.59765,-11.91016 -26.59765,-26.60156 0,-14.6875 11.90625,-26.59766 26.59765,-26.59766 14.69141,0 26.60157,11.91016 26.60157,26.59766 z m 0,0"
           data-original="#bdd9e5"
           style="fill:#a6bec9;fill-opacity:1"
           class=""
           id="path912-2" /><path
           inkscape:connector-curvature="0"
           d="m 70.15625,331.67187 c 14.757812,-10.3789 18.855469,-30.46875 9.347656,-45.80078 -9.507812,-15.33593 -29.324218,-20.58984 -45.183594,-11.98828 8.453126,21.22266 20.585938,40.78516 35.835938,57.78906 z m 0,0"
           data-original="#bdd9e5"
           style="fill:#a6bec9;fill-opacity:1"
           class=""
           id="path914-2" /><path
           inkscape:connector-curvature="0"
           d="m 330.08984,165.17578 c 0,26.20313 -21.24218,47.44531 -47.44531,47.44531 -26.20312,0 -47.44531,-21.24218 -47.44531,-47.44531 0,-26.20312 21.24219,-47.44531 47.44531,-47.44531 26.20313,0 47.44531,21.24219 47.44531,47.44531 z m 0,0"
           data-original="#bdd9e5"
           style="fill:#a6bec9;fill-opacity:1"
           class=""
           id="path916-6" /><path
           inkscape:connector-curvature="0"
           d="m 143.05469,138.36719 c 0,14.80468 -12,26.80859 -26.8086,26.80859 -14.80468,0 -26.804684,-12.00391 -26.804684,-26.80859 0,-14.80469 12.000004,-26.8086 26.804684,-26.8086 14.8086,0 26.8086,12.00391 26.8086,26.8086 z m 0,0"
           data-original="#bdd9e5"
           style="fill:#a6bec9;fill-opacity:1"
           class=""
           id="path918-1" /><path
           inkscape:connector-curvature="0"
           d="m 194.54297,58.492188 c 0,-8.511719 6.90234,-15.414063 15.41406,-15.414063 h 116.30859 c 12.63672,8.882813 24.17188,19.230469 34.3711,30.828125 H 209.95703 c -8.51562,0 -15.41406,-6.902344 -15.41406,-15.414062 z M 401.19141,256.49219 h -49.375 c -8.51172,0 -15.41407,6.89843 -15.41407,15.41015 0,8.51172 6.90235,15.41407 15.41407,15.41407 h 37.47265 c 4.83594,-9.91407 8.8125,-20.22266 11.88672,-30.81641 z m 0,0"
           data-original="#bdd9e5"
           style="fill:#a6bec9;fill-opacity:1"
           class=""
           id="path920-0" /></g><path
         inkscape:connector-curvature="0"
         d="m 354.89062,256.5 c -2.87109,9.80859 -6.52343,19.375 -10.91406,28.60937 2.36328,1.42969 5.07422,2.19532 7.83985,2.20704 h 37.47265 c 0.97657,-2 1.89063,-4 2.80078,-6.04297 0.26563,-0.59766 0.54688,-1.20313 0.79688,-1.78907 0.90625,-2.08593 1.76562,-4.1914 2.59766,-6.3164 0.1875,-0.48047 0.39843,-0.96094 0.5664,-1.44141 0.875,-2.28515 1.71094,-4.58984 2.50391,-6.91406 l 0.25781,-0.76172 c 0.83594,-2.49609 1.62891,-5.01172 2.375,-7.54687 z m 0,0"
         data-original="#d9ecf2"
         style="fill:#a6bec9;fill-opacity:1"
         class=""
         id="path924-6" /><path
         inkscape:connector-curvature="0"
         d="m 279.90234,43.078125 c 12.64844,8.878906 24.19532,19.226563 34.40235,30.824219 h 46.33203 c -7.64063,-8.6875 -16.03906,-16.679688 -25.09375,-23.882813 -3.01563,-2.398437 -6.10156,-4.707031 -9.26172,-6.925781 h -46.37891 z m 0,0"
         data-original="#d9ecf2"
         style="fill:#a6bec9;fill-opacity:1"
         class=""
         id="path926-1" /><path
         inkscape:connector-curvature="0"
         d="m 22.328125,228.03125 h 52.285156 c 8.511719,0 15.410157,-6.89844 15.410157,-15.41016 0,-8.51172 -6.898438,-15.41406 -15.410157,-15.41406 H 20.671875 c -0.03906,1.60156 -0.125,3.22656 -0.125,4.85156 0.01563,8.6875 0.613281,17.36328 1.78125,25.97266 z m 0,0"
         data-original="#bdd9e5"
         style="fill:#a6bec9;fill-opacity:1"
         class=""
         id="path928-5" /></g></g><g
     transform="matrix(0.6688193,0,0,0.6688193,-649.88099,-394.85241)"
     id="g40"><g
       id="g32"
       style="fill:#fabe02" /></g><g
     id="g1311-9"
     transform="translate(5.0491397,1.8527299)"
     clip-path="url(#clipPath994)"
     style="fill:#a6bec9;fill-opacity:1"><rect
       y="67.23629"
       x="67.422546"
       height="319.96182"
       width="319.0751"
       id="rect833-4-7"
       style="opacity:0;fill:#a6bec9;fill-opacity:1;stroke:none;stroke-width:1.1413691;stroke-linejoin:round;stroke-miterlimit:4;stroke-dasharray:none;stroke-dashoffset:0;stroke-opacity:1" /><g
       transform="matrix(0.70317202,0,0,0.70317202,75.944293,85.136624)"
       id="g938-3"
       style="fill:#a6bec9;fill-opacity:1"><g
         style="fill:#a6bec9;fill-opacity:1"
         id="g922-1"><path
           inkscape:connector-curvature="0"
           d="m 330.08984,165.17578 c 0,26.20313 -21.24218,47.44531 -47.44531,47.44531 -26.20312,0 -47.44531,-21.24218 -47.44531,-47.44531 0,-26.20312 21.24219,-47.44531 47.44531,-47.44531 26.20313,0 47.44531,21.24219 47.44531,47.44531 z m 0,0"
           data-original="#bdd9e5"
           style="fill:#a6bec9;fill-opacity:1"
           class=""
           id="path916-1" /><path
           inkscape:connector-curvature="0"
           d="m 143.05469,138.36719 c 0,14.80468 -12,26.80859 -26.8086,26.80859 -14.80468,0 -26.804684,-12.00391 -26.804684,-26.80859 0,-14.80469 12.000004,-26.8086 26.804684,-26.8086 14.8086,0 26.8086,12.00391 26.8086,26.8086 z m 0,0"
           data-original="#bdd9e5"
           style="fill:#a6bec9;fill-opacity:1"
           class=""
           id="path918-9" /><path
           inkscape:connector-curvature="0"
           d="m 194.54297,58.492188 c 0,-8.511719 6.90234,-15.414063 15.41406,-15.414063 h 116.30859 c 12.63672,8.882813 24.17188,19.230469 34.3711,30.828125 H 209.95703 c -8.51562,0 -15.41406,-6.902344 -15.41406,-15.414062 z M 401.19141,256.49219 h -49.375 c -8.51172,0 -15.41407,6.89843 -15.41407,15.41015 0,8.51172 6.90235,15.41407 15.41407,15.41407 h 37.47265 c 4.83594,-9.91407 8.8125,-20.22266 11.88672,-30.81641 z m 0,0"
           data-original="#bdd9e5"
           style="fill:#a6bec9;fill-opacity:1"
           class=""
           id="path920-4" /></g><path
         inkscape:connector-curvature="0"
         d="m 354.89062,256.5 c -2.87109,9.80859 -6.52343,19.375 -10.91406,28.60937 2.36328,1.42969 5.07422,2.19532 7.83985,2.20704 h 37.47265 c 0.97657,-2 1.89063,-4 2.80078,-6.04297 0.26563,-0.59766 0.54688,-1.20313 0.79688,-1.78907 0.90625,-2.08593 1.76562,-4.1914 2.59766,-6.3164 0.1875,-0.48047 0.39843,-0.96094 0.5664,-1.44141 0.875,-2.28515 1.71094,-4.58984 2.50391,-6.91406 l 0.25781,-0.76172 c 0.83594,-2.49609 1.62891,-5.01172 2.375,-7.54687 z m 0,0"
         data-original="#d9ecf2"
         style="fill:#a6bec9;fill-opacity:1"
         class=""
         id="path924-7" /><path
         inkscape:connector-curvature="0"
         d="m 279.90234,43.078125 c 12.64844,8.878906 24.19532,19.226563 34.40235,30.824219 h 46.33203 c -7.64063,-8.6875 -16.03906,-16.679688 -25.09375,-23.882813 -3.01563,-2.398437 -6.10156,-4.707031 -9.26172,-6.925781 h -46.37891 z m 0,0"
         data-original="#d9ecf2"
         style="fill:#a6bec9;fill-opacity:1"
         class=""
         id="path926-8" /><path
         inkscape:connector-curvature="0"
         d="m 22.328125,228.03125 h 52.285156 c 8.511719,0 15.410157,-6.89844 15.410157,-15.41016 0,-8.51172 -6.898438,-15.41406 -15.410157,-15.41406 H 20.671875 c -0.03906,1.60156 -0.125,3.22656 -0.125,4.85156 0.01563,8.6875 0.613281,17.36328 1.78125,25.97266 z m 0,0"
         data-original="#bdd9e5"
         style="fill:#a6bec9;fill-opacity:1"
         class=""
         id="path928-4" /></g></g><g
     id="g4609"
     transform="matrix(0.45616464,0,0,0.45616464,-853.44912,186.27002)"><g
       id="g4607"
       style="fill:#bdd9e5" /></g><g
     id="g932"
     transform="translate(-0.00520177,-0.14371254)"
     style="fill:#000000;fill-opacity:1"><g
       id="g14"
       transform="matrix(0.7,0,0,0.7,68.1,68.1)"
       style="fill:#000000;fill-opacity:1"><g
         id="g10"
         style="fill:#000000;fill-opacity:1" /></g><g
       style="fill:#000000;fill-opacity:1"
       clip-path="url(#clipPath936)"
       id="g14-5"
       transform="matrix(0.7,0,0,0.7,68.100003,68.100003)"><g
         id="g10-2"
         style="fill:#000000;fill-opacity:1" /></g><g
       transform="matrix(0.69093194,0,0,0.69093194,93.441806,-159.77607)"
       id="g853"
       style="fill:#000000;fill-opacity:1"><path
         inkscape:connector-curvature="0"
         d="m 320.21815,569.17397 c -13.31641,0.004 -26.37109,3.71484 -37.69922,10.71875 -13.09375,-49.1836 -59.22265,-82.17578 -109.99609,-78.67969 -50.77735,3.49609 -91.945312,42.50391 -98.171874,93.01953 -22.691406,-5.57031 -46.5625,2.42188 -61.324219,20.53516 -14.7656254,18.10937 -17.7812504,43.10156 -7.7539064,64.20312 10.0312504,21.10547 31.3125004,34.55078 54.6796874,34.53906 H 320.21815 c 39.85938,0 72.16797,-32.30859 72.16797,-72.16796 0,-39.85547 -32.30859,-72.16797 -72.16797,-72.16797 z m 0,0"
         data-original="#26a3b9"
         style="fill:#26a3b9;fill-opacity:1"
         id="path837" /><path
         inkscape:connector-curvature="0"
         d="m 320.21815,569.17397 c -5.32812,0.004 -10.64062,0.60547 -15.83984,1.79297 35.88672,8.04687 59.97656,41.80078 55.92187,78.35156 -4.05859,36.55469 -34.96094,64.20312 -71.73437,64.1875 h 31.65234 c 39.85938,0 72.16797,-32.3086 72.16797,-72.16797 0,-39.85547 -32.30859,-72.16797 -72.16797,-72.16797 z m 0,0"
         data-original="#168aa5"
         style="fill:#168aa5;fill-opacity:1"
         id="path839" /><path
         inkscape:connector-curvature="0"
         d="m 279.02284,569.30678 c -17.80078,-46.72656 -65.80078,-74.69141 -115.23047,-67.13672 40.39844,5.96875 73.51172,36.91406 85.69922,75.12109 -7.08984,17.48047 -4.85547,37.36329 5.9414,52.83204 0,0 0,-33.95313 27.08594,-50.23438 -0.91015,-3.42578 -1.99609,-6.80078 -3.25781,-10.10937 -0.0625,-0.16797 -0.15234,-0.3125 -0.23828,-0.47266 z m 0,0"
         data-original="#168aa5"
         style="fill:#168aa5;fill-opacity:1"
         id="path841" /><g
         style="fill:#000000;fill-opacity:1"
         id="g851" /></g></g><g
     id="g1023"
     transform="translate(-0.00520177,-0.14371254)"><g
       id="g14-6"
       transform="matrix(0.7,0,0,0.7,68.1,68.1)"><g
         id="g10-29"
         style="fill:#f59a1d" /></g><g
       style="fill:#f59a1d;fill-opacity:1"
       clip-path="url(#clipPath936-5)"
       id="g14-5-1"
       transform="matrix(0.7,0,0,0.7,68.100003,68.100003)"><path
         id="path2-6"
         style="fill:#f59a1d;fill-opacity:1"
         data-original="#fabe02"
         d="m 227,375.80859 c 379.01255,121.17506 189.50627,60.58753 0,0 z"
         inkscape:connector-curvature="0"
         sodipodi:nodetypes="cc" /><g
         id="g10-2-2"
         style="fill:#f59a1d;fill-opacity:1" /></g><g
       transform="matrix(0.69093194,0,0,0.69093194,93.441806,-159.77607)"
       id="g853-7"><g
         style="fill:#168aa5"
         id="g851-6" /></g><g
       transform="matrix(0.69464481,0,0,0.69464481,67.194143,81.385705)"
       id="g896"><g
         style="fill:#fabe02"
         id="g866" /><path
         inkscape:connector-curvature="0"
         d="m 53.871094,307.96875 c 9.390625,14.09375 25.160156,22.60937 42.09375,22.73828 H 271.66797 c 7.28906,0 13.19922,-5.91015 13.19922,-13.19922 0,-7.29297 -5.91016,-13.20312 -13.19922,-13.20312 H 62.984375 c -3.398437,0 -6.664063,1.3125 -9.113281,3.66406 z m 0,0"
         data-original="#168aa5"
         style="fill:#168aa5;fill-opacity:1"
         class=""
         id="path870" /><path
         inkscape:connector-curvature="0"
         d="M 257.44922,330.70703 H 48.761719 c -7.292969,0 -13.203125,-5.91016 -13.203125,-13.19922 0,-7.29297 5.910156,-13.20312 13.203125,-13.20312 H 257.44922 c 7.28906,0 13.19922,5.91015 13.19922,13.20312 0,7.28906 -5.91016,13.19922 -13.19922,13.19922 z m 114.0664,-13.19922 c 0,-7.29297 -5.91015,-13.20312 -13.19921,-13.20312 h -42.07032 c -7.28906,0 -13.19922,5.91015 -13.19922,13.20312 0,7.28906 5.91016,13.19922 13.19922,13.19922 h 42.0625 c 3.50391,0.004 6.86719,-1.38281 9.34766,-3.86328 2.48047,-2.47656 3.875,-5.83984 3.87109,-9.34375 z m 68.69922,0 c 0,-7.29297 -5.91015,-13.20312 -13.19922,-13.20312 h -14.42187 c -7.29297,0 -13.20313,5.91015 -13.20313,13.20312 0,7.28906 5.91016,13.19922 13.20313,13.19922 h 14.42187 c 7.29297,-0.004 13.19922,-5.91797 13.19532,-13.20703 z m -89.73047,58.20313 c 0,-7.28907 -5.91015,-13.19922 -13.19921,-13.19922 H 140.42188 c -7.29297,0 -13.20313,5.91015 -13.20313,13.19922 0,7.28906 5.91016,13.19922 13.20313,13.19922 h 196.85546 c 7.29297,0.004 13.20703,-5.90625 13.20703,-13.19922 z m -117.39062,58.21484 c 0,-7.28906 -5.91016,-13.19922 -13.20313,-13.19922 H 66.726562 c -7.289062,0 -13.199218,5.91016 -13.199218,13.19922 0,7.28906 5.910156,13.19922 13.199218,13.19922 H 219.88281 c 7.29297,0.008 13.21094,-5.90625 13.21094,-13.19922 z m 166.91797,0 c 0,-7.28906 -5.91016,-13.19922 -13.19922,-13.19922 h -99.06641 c -7.28906,0 -13.19922,5.91016 -13.19922,13.19922 0,7.28906 5.91016,13.19922 13.19922,13.19922 h 99.05469 c 7.29297,0.008 13.21094,-5.90234 13.21094,-13.19922 z m 57.48047,-58.21484 c 0,-7.28907 -5.91016,-13.19922 -13.19922,-13.19922 h -51.52344 c -7.29297,0 -13.20312,5.91015 -13.20312,13.19922 0,7.28906 5.91015,13.19922 13.20312,13.19922 h 51.51172 c 7.29297,0.004 13.20703,-5.90625 13.20703,-13.19922 z m -359.093752,0 c 0,-7.28907 -5.910157,-13.19922 -13.199219,-13.19922 h -72 C 5.910156,362.51172 0,368.42187 0,375.71094 0,383 5.910156,388.91016 13.199219,388.91016 h 72 c 7.289062,0 13.195312,-5.91016 13.195312,-13.19922 z m 0,0"
         data-original="#d9ecf2"
         style="fill:#d9ecf2"
         id="path878" /><path
         inkscape:connector-curvature="0"
         d="m 319.70312,388.91797 h 17.57422 c 7.28907,0 13.19922,-5.91016 13.19922,-13.19922 0,-7.28906 -5.91015,-13.19922 -13.19922,-13.19922 h -17.57422 c 7.29297,0 13.19922,5.91016 13.19922,13.19922 0,7.28906 -5.90625,13.19922 -13.19922,13.19922 z m 0,0"
         data-original="#bdd9e5"
         style="fill:#bdd9e5"
         id="path880" /><path
         inkscape:connector-curvature="0"
         d="m 422.64062,317.5 c -0.0156,6.66797 -5.01171,12.27344 -11.63671,13.04687 0.51953,0.0859 1.04687,0.13672 1.57031,0.16016 H 427 c 7.28906,0 13.19922,-5.91016 13.19922,-13.19922 0,-7.29297 -5.91016,-13.20312 -13.19922,-13.20312 h -14.42578 c -0.52344,0.0234 -1.05078,0.0781 -1.57031,0.16015 6.61718,0.77344 11.61328,6.3711 11.63671,13.03516 z m 0,0"
         data-original="#bdd9e5"
         style="fill:#bdd9e5"
         id="path882" /><path
         inkscape:connector-curvature="0"
         d="M 67.617188,388.91797 H 85.1875 c 7.289062,0 13.199219,-5.91016 13.199219,-13.19922 0,-7.28906 -5.910157,-13.19922 -13.199219,-13.19922 H 67.617188 c 7.289062,0 13.199218,5.91016 13.199218,13.19922 0,7.28906 -5.910156,13.19922 -13.199218,13.19922 z m 0,0"
         data-original="#bdd9e5"
         style="fill:#bdd9e5"
         id="path884" /><path
         id="path1005"
         style="fill:#168aa5;fill-opacity:1"
         data-original="#bdd9e5"
         d="m 366.42132,317.5 c 0,7.28906 -5.91016,13.19922 -13.20313,13.19922 h 17.57422 c 7.28906,0 13.19922,-5.91016 13.19922,-13.19922 0,-7.29297 -5.91016,-13.20313 -13.19922,-13.20313 h -17.57422 c 7.29297,0 13.20313,5.91016 13.20313,13.20313 z m 0,0"
         inkscape:connector-curvature="0" /><path
         inkscape:connector-curvature="0"
         d="m 353.92969,317.5 c 0,7.28906 -5.91016,13.19922 -13.20313,13.19922 h 17.57422 c 7.28906,0 13.19922,-5.91016 13.19922,-13.19922 0,-7.29297 -5.91016,-13.20313 -13.19922,-13.20313 h -17.57422 c 7.29297,0 13.20313,5.91016 13.20313,13.20313 z m 0,0"
         data-original="#bdd9e5"
         style="fill:#bdd9e5"
         id="path886" /><path
         inkscape:connector-curvature="0"
         d="m 444.28125,362.50391 h -17.55469 c 7.29297,0 13.20313,5.91015 13.20313,13.19921 0,7.28907 -5.91016,13.19922 -13.20313,13.19922 h 17.57422 c 7.28906,0 13.19922,-5.91015 13.19922,-13.19922 0,-7.28906 -5.91016,-13.19921 -13.19922,-13.19921 z m 0,0"
         data-original="#bdd9e5"
         style="fill:#bdd9e5"
         id="path888" /><path
         inkscape:connector-curvature="0"
         d="m 253.08594,317.5 c 0,7.28906 -5.91016,13.19922 -13.20313,13.19922 h 17.56641 c 7.28906,0 13.19922,-5.91016 13.19922,-13.19922 0,-7.29297 -5.91016,-13.20313 -13.19922,-13.20313 H 239.875 c 7.29297,-0.004 13.21094,5.91016 13.21094,13.20313 z m 0,0"
         data-original="#bdd9e5"
         style="fill:#bdd9e5"
         id="path890" /><path
         inkscape:connector-curvature="0"
         d="m 386.80469,420.71875 h -17.57422 c 7.29297,0 13.20312,5.91016 13.20312,13.19922 0,7.28906 -5.91015,13.19922 -13.20312,13.19922 h 17.57422 c 7.28906,0 13.19922,-5.91016 13.19922,-13.19922 0,-7.28906 -5.91016,-13.19922 -13.19922,-13.19922 z m 0,0"
         data-original="#bdd9e5"
         style="fill:#bdd9e5"
         id="path892" /><path
         inkscape:connector-curvature="0"
         d="m 219.88281,420.71875 h -17.55469 c 7.28907,0 13.19922,5.91016 13.19922,13.19922 0,7.28906 -5.91015,13.19922 -13.19922,13.19922 h 17.57032 c 7.29297,0 13.20312,-5.91016 13.20312,-13.19922 0,-7.28906 -5.91015,-13.19922 -13.20312,-13.19922 z m 0,0"
         data-original="#bdd9e5"
         style="fill:#bdd9e5"
         id="path894" /></g></g></svg>