<?xml version="1.0" encoding="UTF-8" standalone="no"?>
<svg
   xmlns:dc="http://purl.org/dc/elements/1.1/"
   xmlns:cc="http://creativecommons.org/ns#"
   xmlns:rdf="http://www.w3.org/1999/02/22-rdf-syntax-ns#"
   xmlns:svg="http://www.w3.org/2000/svg"
   xmlns="http://www.w3.org/2000/svg"
   xmlns:sodipodi="http://sodipodi.sourceforge.net/DTD/sodipodi-0.dtd"
   xmlns:inkscape="http://www.inkscape.org/namespaces/inkscape"
   version="1.1"
   width="512"
   height="512"
   x="0"
   y="0"
   viewBox="0 0 454 454"
   style="enable-background:new 0 0 512 512"
   xml:space="preserve"
   class=""
   id="svg16"
   sodipodi:docname="741.svg"
   inkscape:version="0.92.4 (5da689c313, 2019-01-14)"
   inkscape:export-filename="/home/whitehole/Downloads/img/800.png"
   inkscape:export-xdpi="96"
   inkscape:export-ydpi="96"><metadata
     id="metadata22"><rdf:RDF><cc:Work
         rdf:about=""><dc:format>image/svg+xml</dc:format><dc:type
           rdf:resource="http://purl.org/dc/dcmitype/StillImage" /><dc:title></dc:title></cc:Work></rdf:RDF></metadata><defs
     id="defs20" /><sodipodi:namedview
     pagecolor="#ffffff"
     bordercolor="#666666"
     borderopacity="1"
     objecttolerance="10"
     gridtolerance="10"
     guidetolerance="10"
     inkscape:pageopacity="0"
     inkscape:pageshadow="2"
     inkscape:window-width="1920"
     inkscape:window-height="1043"
     id="namedview18"
     showgrid="false"
     inkscape:zoom="1.1383002"
     inkscape:cx="-92.1641"
     inkscape:cy="289.36653"
     inkscape:window-x="0"
     inkscape:window-y="0"
     inkscape:window-maximized="1"
     inkscape:current-layer="svg16" /><rect
     style="opacity:0;fill:#ff0017;fill-opacity:1;stroke:none;stroke-width:1.1413691;stroke-linejoin:round;stroke-miterlimit:4;stroke-dasharray:none;stroke-dashoffset:0;stroke-opacity:1"
     id="rect833"
     width="319.0751"
     height="319.96182"
     x="67.422546"
     y="67.23629" /><g
     id="g872"
     transform="matrix(0.69464481,0,0,0.69464481,68.060098,-33.768452)"><g
       id="g842"
       style="fill:#fabe02" /><path
       id="path854"
       style="fill:#d9ecf2"
       data-original="#d9ecf2"
       d="M 257.44922,330.70703 H 48.761719 c -7.292969,0 -13.203125,-5.91016 -13.203125,-13.19922 0,-7.29297 5.910156,-13.20312 13.203125,-13.20312 H 257.44922 c 7.28906,0 13.19922,5.91015 13.19922,13.20312 0,7.28906 -5.91016,13.19922 -13.19922,13.19922 z m 114.0664,-13.19922 c 0,-7.29297 -5.91015,-13.20312 -13.19921,-13.20312 h -42.07032 c -7.28906,0 -13.19922,5.91015 -13.19922,13.20312 0,7.28906 5.91016,13.19922 13.19922,13.19922 h 42.0625 c 3.50391,0.004 6.86719,-1.38281 9.34766,-3.86328 2.48047,-2.47656 3.875,-5.83984 3.87109,-9.34375 z m 68.69922,0 c 0,-7.29297 -5.91015,-13.20312 -13.19922,-13.20312 h -14.42187 c -7.29297,0 -13.20313,5.91015 -13.20313,13.20312 0,7.28906 5.91016,13.19922 13.20313,13.19922 h 14.42187 c 7.29297,-0.004 13.19922,-5.91797 13.19532,-13.20703 z m -89.73047,58.20313 c 0,-7.28907 -5.91015,-13.19922 -13.19921,-13.19922 H 140.42188 c -7.29297,0 -13.20313,5.91015 -13.20313,13.19922 0,7.28906 5.91016,13.19922 13.20313,13.19922 h 196.85546 c 7.29297,0.004 13.20703,-5.90625 13.20703,-13.19922 z m -117.39062,58.21484 c 0,-7.28906 -5.91016,-13.19922 -13.20313,-13.19922 H 66.726562 c -7.289062,0 -13.199218,5.91016 -13.199218,13.19922 0,7.28906 5.910156,13.19922 13.199218,13.19922 H 219.88281 c 7.29297,0.008 13.21094,-5.90625 13.21094,-13.19922 z m 166.91797,0 c 0,-7.28906 -5.91016,-13.19922 -13.19922,-13.19922 h -99.06641 c -7.28906,0 -13.19922,5.91016 -13.19922,13.19922 0,7.28906 5.91016,13.19922 13.19922,13.19922 h 99.05469 c 7.29297,0.008 13.21094,-5.90234 13.21094,-13.19922 z m 57.48047,-58.21484 c 0,-7.28907 -5.91016,-13.19922 -13.19922,-13.19922 h -51.52344 c -7.29297,0 -13.20312,5.91015 -13.20312,13.19922 0,7.28906 5.91015,13.19922 13.20312,13.19922 h 51.51172 c 7.29297,0.004 13.20703,-5.90625 13.20703,-13.19922 z m -359.093752,0 c 0,-7.28907 -5.910157,-13.19922 -13.199219,-13.19922 h -72 C 5.910156,362.51172 0,368.42187 0,375.71094 0,383 5.910156,388.91016 13.199219,388.91016 h 72 c 7.289062,0 13.195312,-5.91016 13.195312,-13.19922 z m 0,0"
       inkscape:connector-curvature="0" /><path
       id="path856"
       style="fill:#bdd9e5"
       data-original="#bdd9e5"
       d="m 319.70312,388.91797 h 17.57422 c 7.28907,0 13.19922,-5.91016 13.19922,-13.19922 0,-7.28906 -5.91015,-13.19922 -13.19922,-13.19922 h -17.57422 c 7.29297,0 13.19922,5.91016 13.19922,13.19922 0,7.28906 -5.90625,13.19922 -13.19922,13.19922 z m 0,0"
       inkscape:connector-curvature="0" /><path
       id="path858"
       style="fill:#bdd9e5"
       data-original="#bdd9e5"
       d="m 422.64062,317.5 c -0.0156,6.66797 -5.01171,12.27344 -11.63671,13.04687 0.51953,0.0859 1.04687,0.13672 1.57031,0.16016 H 427 c 7.28906,0 13.19922,-5.91016 13.19922,-13.19922 0,-7.29297 -5.91016,-13.20312 -13.19922,-13.20312 h -14.42578 c -0.52344,0.0234 -1.05078,0.0781 -1.57031,0.16015 6.61718,0.77344 11.61328,6.3711 11.63671,13.03516 z m 0,0"
       inkscape:connector-curvature="0" /><path
       id="path860"
       style="fill:#bdd9e5"
       data-original="#bdd9e5"
       d="M 67.617188,388.91797 H 85.1875 c 7.289062,0 13.199219,-5.91016 13.199219,-13.19922 0,-7.28906 -5.910157,-13.19922 -13.199219,-13.19922 H 67.617188 c 7.289062,0 13.199218,5.91016 13.199218,13.19922 0,7.28906 -5.910156,13.19922 -13.199218,13.19922 z m 0,0"
       inkscape:connector-curvature="0" /><path
       id="path862"
       style="fill:#bdd9e5"
       data-original="#bdd9e5"
       d="m 353.92969,317.5 c 0,7.28906 -5.91016,13.19922 -13.20313,13.19922 h 17.57422 c 7.28906,0 13.19922,-5.91016 13.19922,-13.19922 0,-7.29297 -5.91016,-13.20313 -13.19922,-13.20313 h -17.57422 c 7.29297,0 13.20313,5.91016 13.20313,13.20313 z m 0,0"
       inkscape:connector-curvature="0" /><path
       id="path864"
       style="fill:#bdd9e5"
       data-original="#bdd9e5"
       d="m 444.28125,362.50391 h -17.55469 c 7.29297,0 13.20313,5.91015 13.20313,13.19921 0,7.28907 -5.91016,13.19922 -13.20313,13.19922 h 17.57422 c 7.28906,0 13.19922,-5.91015 13.19922,-13.19922 0,-7.28906 -5.91016,-13.19921 -13.19922,-13.19921 z m 0,0"
       inkscape:connector-curvature="0" /><path
       id="path866"
       style="fill:#bdd9e5"
       data-original="#bdd9e5"
       d="m 253.08594,317.5 c 0,7.28906 -5.91016,13.19922 -13.20313,13.19922 h 17.56641 c 7.28906,0 13.19922,-5.91016 13.19922,-13.19922 0,-7.29297 -5.91016,-13.20313 -13.19922,-13.20313 H 239.875 c 7.29297,-0.004 13.21094,5.91016 13.21094,13.20313 z m 0,0"
       inkscape:connector-curvature="0" /><path
       id="path868"
       style="fill:#bdd9e5"
       data-original="#bdd9e5"
       d="m 386.80469,420.71875 h -17.57422 c 7.29297,0 13.20312,5.91016 13.20312,13.19922 0,7.28906 -5.91015,13.19922 -13.20312,13.19922 h 17.57422 c 7.28906,0 13.19922,-5.91016 13.19922,-13.19922 0,-7.28906 -5.91016,-13.19922 -13.19922,-13.19922 z m 0,0"
       inkscape:connector-curvature="0" /><path
       id="path870"
       style="fill:#bdd9e5"
       data-original="#bdd9e5"
       d="m 219.88281,420.71875 h -17.55469 c 7.28907,0 13.19922,5.91016 13.19922,13.19922 0,7.28906 -5.91015,13.19922 -13.19922,13.19922 h 17.57032 c 7.29297,0 13.20312,-5.91016 13.20312,-13.19922 0,-7.28906 -5.91015,-13.19922 -13.20312,-13.19922 z m 0,0"
       inkscape:connector-curvature="0" /></g></svg>