<?xml version="1.0" encoding="UTF-8" standalone="no"?>
<svg
   xmlns:dc="http://purl.org/dc/elements/1.1/"
   xmlns:cc="http://creativecommons.org/ns#"
   xmlns:rdf="http://www.w3.org/1999/02/22-rdf-syntax-ns#"
   xmlns:svg="http://www.w3.org/2000/svg"
   xmlns="http://www.w3.org/2000/svg"
   xmlns:sodipodi="http://sodipodi.sourceforge.net/DTD/sodipodi-0.dtd"
   xmlns:inkscape="http://www.inkscape.org/namespaces/inkscape"
   version="1.1"
   width="512"
   height="512"
   x="0"
   y="0"
   viewBox="0 0 454 454"
   style="enable-background:new 0 0 512 512"
   xml:space="preserve"
   class=""
   id="svg16"
   sodipodi:docname="802.svg"
   inkscape:export-filename="/home/whitehole/Downloads/img/8xx/d/svgs/802n.png"
   inkscape:export-xdpi="96"
   inkscape:export-ydpi="96"
   inkscape:version="0.92.4 (5da689c313, 2019-01-14)"><metadata
     id="metadata22"><rdf:RDF><cc:Work
         rdf:about=""><dc:format>image/svg+xml</dc:format><dc:type
           rdf:resource="http://purl.org/dc/dcmitype/StillImage" /><dc:title></dc:title></cc:Work></rdf:RDF></metadata><defs
     id="defs20"><clipPath
       clipPathUnits="userSpaceOnUse"
       id="clipPath975"><g
         id="g991"
         transform="matrix(0.5565787,0,0,0.5565787,-1105.772,208.39744)"><path
           id="path977"
           style="fill:#d9ecf2;stroke-width:1.09602189"
           data-original="#d9ecf2"
           d="m 2449.9685,294.6682 c 3.6476,-28.57364 -10.4251,-56.50078 -35.5565,-70.57781 -25.1358,-14.07276 -56.2996,-11.47398 -78.7552,6.57184 -24.866,-36.76811 -68.968,-55.54605 -112.7062,-47.98949 -43.738,7.55656 -78.982,40.04762 -90.0707,83.02366 -27.5118,-13.47336 -60.4739,-8.68683 -83.0194,12.05624 -22.5455,20.7388 -30.0549,53.19131 -18.9192,81.72642 11.1401,28.53938 38.6476,47.3216 69.2805,47.30876 h 341.0856 c 29.4769,0.0342 54.009,-22.64399 56.2866,-52.03535 2.2778,-29.39138 -18.4696,-55.57602 -47.6042,-60.07999 z m 0,0"
           inkscape:connector-curvature="0" /><g
           id="g987"
           style="fill:#bdd9e5"><path
             id="path979"
             style="fill:#bdd9e5;stroke-width:1.09602189"
             data-original="#bdd9e5"
             d="m 2449.9685,294.6682 c 2.6843,-20.1608 -3.4893,-40.49288 -16.9327,-55.75155 -13.4391,-15.26296 -32.8335,-23.95407 -53.1699,-23.83419 -7.5823,0.009 -15.1174,1.24586 -22.3058,3.66054 32.1443,10.48071 52.2281,42.4109 47.7583,75.9252 29.1303,4.50396 49.8819,30.68862 47.6042,60.07998 -2.2777,29.39137 -26.8097,52.0696 -56.2909,52.03535 h 44.6499 c 29.4814,0.0342 54.0134,-22.64398 56.291,-52.03535 2.2777,-29.39136 -18.4697,-55.57602 -47.6041,-60.07998 z m 0,0"
             inkscape:connector-curvature="0" /><path
             id="path981"
             style="fill:#bdd9e5;stroke-width:1.09602189"
             data-original="#bdd9e5"
             d="m 2303.1186,243.70319 c 9.1707,-4.25993 24.7932,-10.37369 32.5382,-13.04524 -3.5963,-5.14616 -7.5523,-10.03117 -11.8378,-14.61647 -26.6171,-28.11981 -65.8684,-40.50144 -103.8054,-32.75223 29.4343,5.95535 66.425,22.57549 83.105,60.41394 z m 0,0"
             inkscape:connector-curvature="0" /><path
             id="path983"
             style="fill:#bdd9e5;stroke-width:1.09602189"
             data-original="#bdd9e5"
             d="m 2104.5974,258.19123 c 3.1768,23.41889 13.7088,45.21946 30.085,62.2549 -4.9278,-17.85317 -5.5443,-36.62683 -1.8025,-54.76685 -8.8367,-4.34984 -18.4482,-6.89723 -28.2825,-7.48805 z m 0,0"
             inkscape:connector-curvature="0" /><path
             inkscape:connector-curvature="0"
             d="m 2449.9685,265.72742 c 2.6843,-20.1608 -3.4893,-40.49288 -16.9327,-55.75155 -13.4391,-15.26296 -32.8335,-23.95407 -53.1699,-23.83419 -7.5823,0.009 -15.1174,1.24586 -22.3058,3.66054 32.1443,10.48071 52.2281,42.4109 47.7583,75.9252 29.1303,4.50396 49.8819,30.68862 47.6042,60.07998 -2.2777,29.39137 -26.8097,52.0696 -56.2909,52.03535 h 44.6499 c 29.4814,0.0342 54.0134,-22.64398 56.291,-52.03535 2.2777,-29.39136 -18.4697,-55.57602 -47.6041,-60.07998 z m 0,0"
             data-original="#bdd9e5"
             style="fill:#f59a1d;fill-opacity:1;stroke-width:1.09602189"
             id="path985" /></g><path
           inkscape:connector-curvature="0"
           d="m 2449.9685,265.72742 c 3.6476,-28.57364 -10.4251,-56.50078 -35.5565,-70.57781 -25.1358,-14.07276 -56.2996,-11.47398 -78.7552,6.57184 -24.866,-36.76811 -68.968,-55.54605 -112.7062,-47.98949 -43.738,7.55656 -78.982,40.04762 -90.0707,83.02366 -27.5118,-13.47336 -60.4739,-8.68683 -83.0194,12.05624 -22.5455,20.7388 -30.0549,53.19131 -18.9192,81.72642 11.1401,28.53938 38.6476,47.3216 69.2805,47.30876 h 341.0856 c 29.4769,0.0342 54.009,-22.64399 56.2866,-52.03535 2.2778,-29.39138 -18.4696,-55.57602 -47.6042,-60.07999 z m 0,0"
           data-original="#d9ecf2"
           style="fill:#f59a1d;fill-opacity:1;stroke-width:1.09602189"
           id="path989" /></g></clipPath><clipPath
       clipPathUnits="userSpaceOnUse"
       id="clipPath1076"><g
         transform="matrix(0.65166377,0,0,0.65166377,-1316.4987,140.94597)"
         id="g1088"
         style="fill:#f59a1d;fill-opacity:1"><path
           inkscape:connector-curvature="0"
           d="m 2449.9685,294.6682 c 3.6476,-28.57364 -10.4251,-56.50078 -35.5565,-70.57781 -25.1358,-14.07276 -56.2996,-11.47398 -78.7552,6.57184 -24.866,-36.76811 -68.968,-55.54605 -112.7062,-47.98949 -43.738,7.55656 -78.982,40.04762 -90.0707,83.02366 -27.5118,-13.47336 -60.4739,-8.68683 -83.0194,12.05624 -22.5455,20.7388 -30.0549,53.19131 -18.9192,81.72642 11.1401,28.53938 38.6476,47.3216 69.2805,47.30876 h 341.0856 c 29.4769,0.0342 54.009,-22.64399 56.2866,-52.03535 2.2778,-29.39138 -18.4696,-55.57602 -47.6042,-60.07999 z m 0,0"
           data-original="#d9ecf2"
           style="fill:#f59a1d;fill-opacity:1;stroke-width:1.09602189"
           id="path1078" /><g
           style="fill:#f59a1d;fill-opacity:1"
           id="g1086"><path
             inkscape:connector-curvature="0"
             d="m 2449.9685,294.6682 c 2.6843,-20.1608 -3.4893,-40.49288 -16.9327,-55.75155 -13.4391,-15.26296 -32.8335,-23.95407 -53.1699,-23.83419 -7.5823,0.009 -15.1174,1.24586 -22.3058,3.66054 32.1443,10.48071 52.2281,42.4109 47.7583,75.9252 29.1303,4.50396 49.8819,30.68862 47.6042,60.07998 -2.2777,29.39137 -26.8097,52.0696 -56.2909,52.03535 h 44.6499 c 29.4814,0.0342 54.0134,-22.64398 56.291,-52.03535 2.2777,-29.39136 -18.4697,-55.57602 -47.6041,-60.07998 z m 0,0"
             data-original="#bdd9e5"
             style="fill:#f59a1d;fill-opacity:1;stroke-width:1.09602189"
             id="path1080" /><path
             inkscape:connector-curvature="0"
             d="m 2303.1186,243.70319 c 9.1707,-4.25993 24.7932,-10.37369 32.5382,-13.04524 -3.5963,-5.14616 -7.5523,-10.03117 -11.8378,-14.61647 -26.6171,-28.11981 -65.8684,-40.50144 -103.8054,-32.75223 29.4343,5.95535 66.425,22.57549 83.105,60.41394 z m 0,0"
             data-original="#bdd9e5"
             style="fill:#f59a1d;fill-opacity:1;stroke-width:1.09602189"
             id="path1082" /><path
             inkscape:connector-curvature="0"
             d="m 2104.5974,258.19123 c 3.1768,23.41889 13.7088,45.21946 30.085,62.2549 -4.9278,-17.85317 -5.5443,-36.62683 -1.8025,-54.76685 -8.8367,-4.34984 -18.4482,-6.89723 -28.2825,-7.48805 z m 0,0"
             data-original="#bdd9e5"
             style="fill:#f59a1d;fill-opacity:1;stroke-width:1.09602189"
             id="path1084" /></g></g></clipPath><clipPath
       clipPathUnits="userSpaceOnUse"
       id="clipPath956"><g
         id="g968"
         transform="matrix(0.65166377,0,0,0.65166377,-1150.522,-75.298162)"
         style="fill:#f59a1d;fill-opacity:1"><path
           id="path958"
           style="fill:#f59a1d;fill-opacity:1;stroke-width:1.09602189"
           data-original="#d9ecf2"
           d="m 2449.9685,294.6682 c 3.6476,-28.57364 -10.4251,-56.50078 -35.5565,-70.57781 -25.1358,-14.07276 -56.2996,-11.47398 -78.7552,6.57184 -24.866,-36.76811 -68.968,-55.54605 -112.7062,-47.98949 -43.738,7.55656 -78.982,40.04762 -90.0707,83.02366 -27.5118,-13.47336 -60.4739,-8.68683 -83.0194,12.05624 -22.5455,20.7388 -30.0549,53.19131 -18.9192,81.72642 11.1401,28.53938 38.6476,47.3216 69.2805,47.30876 h 341.0856 c 29.4769,0.0342 54.009,-22.64399 56.2866,-52.03535 2.2778,-29.39138 -18.4696,-55.57602 -47.6042,-60.07999 z m 0,0"
           inkscape:connector-curvature="0" /><g
           id="g966"
           style="fill:#f59a1d;fill-opacity:1"><path
             id="path960"
             style="fill:#f59a1d;fill-opacity:1;stroke-width:1.09602189"
             data-original="#bdd9e5"
             d="m 2449.9685,294.6682 c 2.6843,-20.1608 -3.4893,-40.49288 -16.9327,-55.75155 -13.4391,-15.26296 -32.8335,-23.95407 -53.1699,-23.83419 -7.5823,0.009 -15.1174,1.24586 -22.3058,3.66054 32.1443,10.48071 52.2281,42.4109 47.7583,75.9252 29.1303,4.50396 49.8819,30.68862 47.6042,60.07998 -2.2777,29.39137 -26.8097,52.0696 -56.2909,52.03535 h 44.6499 c 29.4814,0.0342 54.0134,-22.64398 56.291,-52.03535 2.2777,-29.39136 -18.4697,-55.57602 -47.6041,-60.07998 z m 0,0"
             inkscape:connector-curvature="0" /><path
             id="path962"
             style="fill:#f59a1d;fill-opacity:1;stroke-width:1.09602189"
             data-original="#bdd9e5"
             d="m 2303.1186,243.70319 c 9.1707,-4.25993 24.7932,-10.37369 32.5382,-13.04524 -3.5963,-5.14616 -7.5523,-10.03117 -11.8378,-14.61647 -26.6171,-28.11981 -65.8684,-40.50144 -103.8054,-32.75223 29.4343,5.95535 66.425,22.57549 83.105,60.41394 z m 0,0"
             inkscape:connector-curvature="0" /><path
             id="path964"
             style="fill:#f59a1d;fill-opacity:1;stroke-width:1.09602189"
             data-original="#bdd9e5"
             d="m 2104.5974,258.19123 c 3.1768,23.41889 13.7088,45.21946 30.085,62.2549 -4.9278,-17.85317 -5.5443,-36.62683 -1.8025,-54.76685 -8.8367,-4.34984 -18.4482,-6.89723 -28.2825,-7.48805 z m 0,0"
             inkscape:connector-curvature="0" /></g></g></clipPath></defs><sodipodi:namedview
     pagecolor="#ffffff"
     bordercolor="#666666"
     borderopacity="1"
     objecttolerance="10"
     gridtolerance="10"
     guidetolerance="10"
     inkscape:pageopacity="0"
     inkscape:pageshadow="2"
     inkscape:window-width="1920"
     inkscape:window-height="1043"
     id="namedview18"
     showgrid="false"
     inkscape:lockguides="true"
     inkscape:zoom="1.0420551"
     inkscape:cx="192.78372"
     inkscape:cy="266.70506"
     inkscape:window-x="0"
     inkscape:window-y="0"
     inkscape:window-maximized="1"
     inkscape:current-layer="svg16" /><g
     transform="matrix(0.7,0,0,0.7,68.10000000000002,68.10000000000002)"
     id="g14"><path
       d="m375.808594 227c0 82.183594-66.625 148.808594-148.808594 148.808594s-148.808594-66.625-148.808594-148.808594 66.625-148.808594 148.808594-148.808594 148.808594 66.625 148.808594 148.808594zm0 0"
       data-original="#fabe02"
       style=""
       id="path2"
       fill="#fabe02" /><g
       id="g10"
       fill="#f59a1d"><path
         d="m227 78.199219c-5.8125.011719-11.621094.359375-17.390625 1.042969 74.882813 8.875 131.289063 72.363281 131.289063 147.769531s-56.40625 138.890625-131.289063 147.765625c54.871094 6.46875 108.808594-17.996094 140.085937-63.539063 31.277344-45.546875 34.746094-104.671875 9.003907-153.5625-25.738281-48.886719-76.449219-79.488281-131.699219-79.476562zm0 0"
         data-original="#f59a1d"
         style=""
         id="path4"
         fill="#f59a1d" /><path
         d="m 121.21763,232.38588 c -2.69823,-0.89804 -4.5856,-3.34175 -4.77714,-6.18031 -1.01122,-15.13276 0.94342,-30.32 5.75928,-44.70317 1.22123,-3.6693 5.18305,-5.65248 8.85235,-4.43125 3.6693,1.22123 5.65248,5.18304 4.43125,8.85234 -4.24222,12.65972 -5.9692,26.02483 -5.08358,39.34552 0.153,2.32347 -0.86011,4.57582 -2.70618,6.0034 -1.84236,1.42881 -4.27687,1.84127 -6.49081,1.10853 z m 0,0"
         data-original="#f59a1d"
         style="fill:#f59a1d"
         id="path8"
         inkscape:connector-curvature="0" /></g><path
       d="m 227,50.164062 c -3.86719,0 -7,-3.132812 -7,-7 V 7 c 0,-3.867188 3.13281,-7 7,-7 3.86719,0 7,3.132812 7,7 v 36.164062 c 0,3.867188 -3.13281,7 -7,7 z m -88.39844,23.691407 c 3.34766,-1.933594 4.4961,-6.214844 2.5625,-9.5625 L 123.07813,32.972656 c -1.94532,-3.320312 -6.20313,-4.445312 -9.53516,-2.523437 -3.33594,1.925781 -4.48828,6.179687 -2.58594,9.523437 l 18.08203,31.320313 c 0.92969,1.609375 2.45703,2.78125 4.25,3.265625 1.79688,0.480468 3.70703,0.226562 5.31641,-0.703125 z M 73.855469,138.60156 c 1.933593,-3.35156 0.785156,-7.63281 -2.5625,-9.5664 L 39.972656,110.95313 c -2.167968,-1.27344 -4.847656,-1.28516 -7.027344,-0.0312 -2.179687,1.25 -3.519531,3.57421 -3.511718,6.08593 0.0039,2.51172 1.355468,4.82813 3.539062,6.06641 l 31.320313,18.08594 c 1.605469,0.92968 3.519531,1.18359 5.3125,0.69922 1.792969,-0.48047 3.324219,-1.65235 4.25,-3.26172 z m 315.851561,2.5625 31.32031,-18.08593 c 3.32032,-1.94532 4.44532,-6.20313 2.52344,-9.53516 -1.92578,-3.33594 -6.17969,-4.48828 -9.52344,-2.58594 l -31.32031,18.08203 c -2.18359,1.24219 -3.53515,3.5586 -3.53906,6.07032 -0.004,2.51171 1.33594,4.83593 3.51172,6.08593 2.17969,1.25 4.85937,1.23828 7.02734,-0.0312 z M 325,71.292969 343.08594,39.972656 c 1.89843,-3.34375 0.74609,-7.597656 -2.58594,-9.523437 -3.33203,-1.921875 -7.59375,-0.796875 -9.53906,2.523437 L 312.875,64.292969 c -1.26953,2.167969 -1.28125,4.847656 -0.0312,7.027343 1.25391,2.175782 3.57422,3.515626 6.08594,3.511719 2.51172,-0.0039 4.82812,-1.355469 6.07031,-3.539062 z M 454,227 c 0,-3.86719 -3.13281,-7 -7,-7 h -36.16406 c -3.86719,0 -7,3.13281 -7,7 0,3.86719 3.13281,7 7,7 H 447 c 3.86719,0 7,-3.13281 7,-7 z m -403.835938,0 c 0,-3.86719 -3.132812,-7 -7,-7 H 7 c -3.867188,0 -7,3.13281 -7,7 0,3.86719 3.132812,7 7,7 h 36.164062 c 3.867188,0 7,-3.13281 7,-7 z M 340.5,423.58984 c 3.35156,-1.93359 4.49609,-6.21875 2.5625,-9.5664 l -18.08203,-31.32032 c -1.24219,-2.18359 -3.5586,-3.53515 -6.07031,-3.53906 -2.51172,-0.004 -4.83594,1.33594 -6.08594,3.51172 -1.25,2.17969 -1.23828,4.85938 0.0312,7.02734 l 18.08594,31.32032 c 0.92578,1.60937 2.45312,2.78515 4.25,3.26562 1.79296,0.48047 3.70312,0.23047 5.3125,-0.69922 z M 423.58984,340.5 c 1.9336,-3.34766 0.78516,-7.63281 -2.5664,-9.5625 l -31.32032,-18.08594 c -2.16796,-1.26953 -4.84765,-1.28125 -7.02734,-0.0312 -2.17578,1.25 -3.51562,3.57422 -3.51172,6.08594 0.004,2.51172 1.35547,4.82812 3.53906,6.07031 l 31.32032,18.08203 c 1.60937,0.92969 3.51953,1.1836 5.3125,0.70313 1.79687,-0.48047 3.32422,-1.65625 4.2539,-3.26563 z m -383.601559,2.5625 31.320313,-18.08203 c 2.183594,-1.24219 3.535156,-3.5586 3.539062,-6.07031 0.0078,-2.51172 -1.335937,-4.83594 -3.511718,-6.08594 -2.179688,-1.25 -4.859376,-1.23828 -7.027344,0.0312 l -31.320313,18.08594 c -2.183593,1.23828 -3.535156,3.55468 -3.539062,6.07031 -0.0078,2.51172 1.332031,4.83203 3.511719,6.08203 2.179687,1.25391 4.859374,1.24219 7.027343,-0.0312 z"
       data-original="#fabe02"
       style="fill:#fabe02"
       id="path12"
       inkscape:connector-curvature="0"
       sodipodi:nodetypes="sssssssccccccccccccccccccccccccsccccccccscsssssssssssssscccsccccccccccscccccccccccccc" /></g><g
     transform="matrix(0.6688193,0,0,0.6688193,-649.88099,-394.85241)"
     id="g40"><g
       id="g32"
       style="fill:#fabe02" /></g><g
     transform="matrix(0.7,0,0,0.7,68.100003,68.100003)"
     id="g14-2"
     clip-path="url(#clipPath1076)"
     style="fill:#f59a1d;fill-opacity:1"><path
       inkscape:connector-curvature="0"
       d="m 375.80859,227 c 0,82.18359 -66.625,148.80859 -148.80859,148.80859 -82.18359,0 -148.808594,-66.625 -148.808594,-148.80859 0,-82.18359 66.625004,-148.808594 148.808594,-148.808594 82.18359,0 148.80859,66.625004 148.80859,148.808594 z m 0,0"
       data-original="#fabe02"
       style="fill:#f59a1d;fill-opacity:1"
       id="path2-8" /><g
       style="fill:#f59a1d;fill-opacity:1"
       id="g10-9"><path
         inkscape:connector-curvature="0"
         d="m 227,78.199219 c -5.8125,0.01172 -11.62109,0.359375 -17.39063,1.042969 74.88282,8.875 131.28907,72.363282 131.28907,147.769532 0,75.40625 -56.40625,138.89062 -131.28907,147.76562 54.8711,6.46875 108.8086,-17.99609 140.08594,-63.53906 31.27735,-45.54687 34.7461,-104.67187 9.00391,-153.5625 C 332.96094,108.78906 282.25,78.1875 227,78.199219 Z m 0,0"
         data-original="#f59a1d"
         style="fill:#f59a1d;fill-opacity:1"
         id="path4-7" /><path
         inkscape:connector-curvature="0"
         d="m 125.13672,275.58984 c -2.84375,0 -5.40625,-1.72265 -6.48438,-4.35547 C 112.91406,257.19531 109.97266,242.16797 110,227 c 0,-3.86719 3.13281,-7 7,-7 3.86719,0 7,3.13281 7,7 -0.0273,13.35156 2.55469,26.57812 7.60156,38.9375 0.87891,2.15625 0.62891,4.61328 -0.67187,6.55078 -1.29688,1.9375 -3.47656,3.09766 -5.8086,3.10156 z m 0,0"
         data-original="#f59a1d"
         style="fill:#f59a1d;fill-opacity:1"
         id="path8-3" /></g><path
       d="m 227,50.164062 c -3.86719,0 -7,-3.132812 -7,-7 V 7 c 0,-3.867188 3.13281,-7 7,-7 3.86719,0 7,3.132812 7,7 v 36.164062 c 0,3.867188 -3.13281,7 -7,7 z m -88.39844,23.691407 c 3.34766,-1.933594 4.4961,-6.214844 2.5625,-9.5625 L 123.07813,32.972656 c -1.94532,-3.320312 -6.20313,-4.445312 -9.53516,-2.523437 -3.33594,1.925781 -4.48828,6.179687 -2.58594,9.523437 l 18.08203,31.320313 c 0.92969,1.609375 2.45703,2.78125 4.25,3.265625 1.79688,0.480468 3.70703,0.226562 5.31641,-0.703125 z M 73.855469,138.60156 c 1.933593,-3.35156 0.785156,-7.63281 -2.5625,-9.5664 L 39.972656,110.95313 c -2.167968,-1.27344 -4.847656,-1.28516 -7.027344,-0.0312 -2.179687,1.25 -3.519531,3.57421 -3.511718,6.08593 0.0039,2.51172 1.355468,4.82813 3.539062,6.06641 l 31.320313,18.08594 c 1.605469,0.92968 3.519531,1.18359 5.3125,0.69922 1.792969,-0.48047 3.324219,-1.65235 4.25,-3.26172 z m 315.851561,2.5625 31.32031,-18.08593 c 3.32032,-1.94532 4.44532,-6.20313 2.52344,-9.53516 -1.92578,-3.33594 -6.17969,-4.48828 -9.52344,-2.58594 l -31.32031,18.08203 c -2.18359,1.24219 -3.53515,3.5586 -3.53906,6.07032 -0.004,2.51171 1.33594,4.83593 3.51172,6.08593 2.17969,1.25 4.85937,1.23828 7.02734,-0.0312 z M 325,71.292969 343.08594,39.972656 c 1.89843,-3.34375 0.74609,-7.597656 -2.58594,-9.523437 -3.33203,-1.921875 -7.59375,-0.796875 -9.53906,2.523437 L 312.875,64.292969 c -1.26953,2.167969 -1.28125,4.847656 -0.0312,7.027343 1.25391,2.175782 3.57422,3.515626 6.08594,3.511719 2.51172,-0.0039 4.82812,-1.355469 6.07031,-3.539062 z M 454,227 c 0,-3.86719 -3.13281,-7 -7,-7 h -36.16406 c -3.86719,0 -7,3.13281 -7,7 0,3.86719 3.13281,7 7,7 H 447 c 3.86719,0 7,-3.13281 7,-7 z m -403.835938,0 c 0,-3.86719 -3.132812,-7 -7,-7 H 7 c -3.867188,0 -7,3.13281 -7,7 0,3.86719 3.132812,7 7,7 h 36.164062 c 3.867188,0 7,-3.13281 7,-7 z M 340.5,423.58984 c 3.35156,-1.93359 4.49609,-6.21875 2.5625,-9.5664 l -18.08203,-31.32032 c -1.24219,-2.18359 -3.5586,-3.53515 -6.07031,-3.53906 -2.51172,-0.004 -4.83594,1.33594 -6.08594,3.51172 -1.25,2.17969 -1.23828,4.85938 0.0312,7.02734 l 18.08594,31.32032 c 0.92578,1.60937 2.45312,2.78515 4.25,3.26562 1.79296,0.48047 3.70312,0.23047 5.3125,-0.69922 z M 423.58984,340.5 c 1.9336,-3.34766 0.78516,-7.63281 -2.5664,-9.5625 l -31.32032,-18.08594 c -2.16796,-1.26953 -4.84765,-1.28125 -7.02734,-0.0312 -2.17578,1.25 -3.51562,3.57422 -3.51172,6.08594 0.004,2.51172 1.35547,4.82812 3.53906,6.07031 l 31.32032,18.08203 c 1.60937,0.92969 3.51953,1.1836 5.3125,0.70313 1.79687,-0.48047 3.32422,-1.65625 4.2539,-3.26563 z"
       data-original="#fabe02"
       style="fill:#f59a1d;fill-opacity:1"
       id="path12-6"
       inkscape:connector-curvature="0"
       sodipodi:nodetypes="sssssssccccccccccccccccccccccccscccsccccscssssssssscsssscccsccccccccccsccccccc" /></g><g
     id="g4609"
     transform="matrix(0.45616464,0,0,0.45616464,-853.44912,186.27002)"><path
       id="path4599"
       style="fill:#d9ecf2;stroke-width:1.09602189"
       data-original="#d9ecf2"
       d="m 2449.9685,294.6682 c 3.6476,-28.57364 -10.4251,-56.50078 -35.5565,-70.57781 -25.1358,-14.07276 -56.2996,-11.47398 -78.7552,6.57184 -24.866,-36.76811 -68.968,-55.54605 -112.7062,-47.98949 -43.738,7.55656 -78.982,40.04762 -90.0707,83.02366 -27.5118,-13.47336 -60.4739,-8.68683 -83.0194,12.05624 -22.5455,20.7388 -30.0549,53.19131 -18.9192,81.72642 11.1401,28.53938 38.6476,47.3216 69.2805,47.30876 h 341.0856 c 29.4769,0.0342 54.009,-22.64399 56.2866,-52.03535 2.2778,-29.39138 -18.4696,-55.57602 -47.6042,-60.07999 z m 0,0"
       inkscape:connector-curvature="0" /><g
       id="g4607"
       style="fill:#bdd9e5"><path
         id="path4601"
         style="fill:#bdd9e5;stroke-width:1.09602189"
         data-original="#bdd9e5"
         d="m 2449.9685,294.6682 c 2.6843,-20.1608 -3.4893,-40.49288 -16.9327,-55.75155 -13.4391,-15.26296 -32.8335,-23.95407 -53.1699,-23.83419 -7.5823,0.009 -15.1174,1.24586 -22.3058,3.66054 32.1443,10.48071 52.2281,42.4109 47.7583,75.9252 29.1303,4.50396 49.8819,30.68862 47.6042,60.07998 -2.2777,29.39137 -26.8097,52.0696 -56.2909,52.03535 h 44.6499 c 29.4814,0.0342 54.0134,-22.64398 56.291,-52.03535 2.2777,-29.39136 -18.4697,-55.57602 -47.6041,-60.07998 z m 0,0"
         inkscape:connector-curvature="0" /><path
         id="path4603"
         style="fill:#bdd9e5;stroke-width:1.09602189"
         data-original="#bdd9e5"
         d="m 2303.1186,243.70319 c 9.1707,-4.25993 24.7932,-10.37369 32.5382,-13.04524 -3.5963,-5.14616 -7.5523,-10.03117 -11.8378,-14.61647 -26.6171,-28.11981 -65.8684,-40.50144 -103.8054,-32.75223 29.4343,5.95535 66.425,22.57549 83.105,60.41394 z m 0,0"
         inkscape:connector-curvature="0" /><path
         id="path4605"
         style="fill:#bdd9e5;stroke-width:1.09602189"
         data-original="#bdd9e5"
         d="m 2104.5974,258.19123 c 3.1768,23.41889 13.7088,45.21946 30.085,62.2549 -4.9278,-17.85317 -5.5443,-36.62683 -1.8025,-54.76685 -8.8367,-4.34984 -18.4482,-6.89723 -28.2825,-7.48805 z m 0,0"
         inkscape:connector-curvature="0" /></g></g><g
     transform="matrix(0.7,0,0,0.7,67.277785,69.446612)"
     id="g14-0"
     clip-path="url(#clipPath956)"
     style="fill:#f59a1d;fill-opacity:1"><path
       inkscape:connector-curvature="0"
       d="m 375.80859,227 c 0,82.18359 -66.625,148.80859 -148.80859,148.80859 -82.18359,0 -148.808594,-66.625 -148.808594,-148.80859 0,-82.18359 66.625004,-148.808594 148.808594,-148.808594 82.18359,0 148.80859,66.625004 148.80859,148.808594 z m 0,0"
       data-original="#fabe02"
       style="fill:#f59a1d;fill-opacity:1"
       id="path2-9" /><g
       style="fill:#f59a1d;fill-opacity:1"
       id="g10-3"><path
         inkscape:connector-curvature="0"
         d="m 227,78.199219 c -5.8125,0.01172 -11.62109,0.359375 -17.39063,1.042969 74.88282,8.875 131.28907,72.363282 131.28907,147.769532 0,75.40625 -56.40625,138.89062 -131.28907,147.76562 54.8711,6.46875 108.8086,-17.99609 140.08594,-63.53906 31.27735,-45.54687 34.7461,-104.67187 9.00391,-153.5625 C 332.96094,108.78906 282.25,78.1875 227,78.199219 Z m 0,0"
         data-original="#f59a1d"
         style="fill:#f59a1d;fill-opacity:1"
         id="path4-6" /></g><path
       d="m 227,50.164062 c -3.86719,0 -7,-3.132812 -7,-7 V 7 c 0,-3.867188 3.13281,-7 7,-7 3.86719,0 7,3.132812 7,7 v 36.164062 c 0,3.867188 -3.13281,7 -7,7 z m -88.39844,23.691407 c 3.34766,-1.933594 4.4961,-6.214844 2.5625,-9.5625 L 123.07813,32.972656 c -1.94532,-3.320312 -6.20313,-4.445312 -9.53516,-2.523437 -3.33594,1.925781 -4.48828,6.179687 -2.58594,9.523437 l 18.08203,31.320313 c 0.92969,1.609375 2.45703,2.78125 4.25,3.265625 1.79688,0.480468 3.70703,0.226562 5.31641,-0.703125 z M 73.855469,138.60156 c 1.933593,-3.35156 0.785156,-7.63281 -2.5625,-9.5664 L 39.972656,110.95313 c -2.167968,-1.27344 -4.847656,-1.28516 -7.027344,-0.0312 -2.179687,1.25 -3.519531,3.57421 -3.511718,6.08593 0.0039,2.51172 1.355468,4.82813 3.539062,6.06641 l 31.320313,18.08594 c 1.605469,0.92968 3.519531,1.18359 5.3125,0.69922 1.792969,-0.48047 3.324219,-1.65235 4.25,-3.26172 z M 454,227 c 0,-3.86719 -3.13281,-7 -7,-7 h -36.16406 c -3.86719,0 -7,3.13281 -7,7 0,3.86719 3.13281,7 7,7 H 447 c 3.86719,0 7,-3.13281 7,-7 z m -403.835938,0 c 0,-3.86719 -3.132812,-7 -7,-7 H 7 c -3.867188,0 -7,3.13281 -7,7 0,3.86719 3.132812,7 7,7 h 36.164062 c 3.867188,0 7,-3.13281 7,-7 z M 340.5,423.58984 c 3.35156,-1.93359 4.49609,-6.21875 2.5625,-9.5664 l -18.08203,-31.32032 c -1.24219,-2.18359 -3.5586,-3.53515 -6.07031,-3.53906 -2.51172,-0.004 -4.83594,1.33594 -6.08594,3.51172 -1.25,2.17969 -1.23828,4.85938 0.0312,7.02734 l 18.08594,31.32032 c 0.92578,1.60937 2.45312,2.78515 4.25,3.26562 1.79296,0.48047 3.70312,0.23047 5.3125,-0.69922 z M 423.58984,340.5 c 1.9336,-3.34766 0.78516,-7.63281 -2.5664,-9.5625 l -31.32032,-18.08594 c -2.16796,-1.26953 -4.84765,-1.28125 -7.02734,-0.0312 -2.17578,1.25 -3.51562,3.57422 -3.51172,6.08594 0.004,2.51172 1.35547,4.82812 3.53906,6.07031 l 31.32032,18.08203 c 1.60937,0.92969 3.51953,1.1836 5.3125,0.70313 1.79687,-0.48047 3.32422,-1.65625 4.2539,-3.26563 z m -383.601559,2.5625 31.320313,-18.08203 c 2.183594,-1.24219 3.535156,-3.5586 3.539062,-6.07031 0.0078,-2.51172 -1.335937,-4.83594 -3.511718,-6.08594 -2.179688,-1.25 -4.859376,-1.23828 -7.027344,0.0312 l -31.320313,18.08594 c -2.183593,1.23828 -3.535156,3.55468 -3.539062,6.07031 -0.0078,2.51172 1.332031,4.83203 3.511719,6.08203 2.179687,1.25391 4.859374,1.24219 7.027343,-0.0312 z"
       data-original="#fabe02"
       style="fill:#f59a1d;fill-opacity:1"
       id="path12-62"
       inkscape:connector-curvature="0"
       sodipodi:nodetypes="ssssssscccccccccccccccccccssssssscsssscccsccccccccccscccccccccccccccc" /></g><g
     transform="matrix(0.45616464,0,0,0.45616464,-737.26538,34.619038)"
     id="g942"><path
       inkscape:connector-curvature="0"
       d="m 2449.9685,294.6682 c 3.6476,-28.57364 -10.4251,-56.50078 -35.5565,-70.57781 -25.1358,-14.07276 -56.2996,-11.47398 -78.7552,6.57184 -24.866,-36.76811 -68.968,-55.54605 -112.7062,-47.98949 -43.738,7.55656 -78.982,40.04762 -90.0707,83.02366 -27.5118,-13.47336 -60.4739,-8.68683 -83.0194,12.05624 -22.5455,20.7388 -30.0549,53.19131 -18.9192,81.72642 11.1401,28.53938 38.6476,47.3216 69.2805,47.30876 h 341.0856 c 29.4769,0.0342 54.009,-22.64399 56.2866,-52.03535 2.2778,-29.39138 -18.4696,-55.57602 -47.6042,-60.07999 z m 0,0"
       data-original="#d9ecf2"
       style="fill:#d9ecf2;stroke-width:1.09602189"
       id="path932" /><g
       style="fill:#bdd9e5"
       id="g940"><path
         inkscape:connector-curvature="0"
         d="m 2449.9685,294.6682 c 2.6843,-20.1608 -3.4893,-40.49288 -16.9327,-55.75155 -13.4391,-15.26296 -32.8335,-23.95407 -53.1699,-23.83419 -7.5823,0.009 -15.1174,1.24586 -22.3058,3.66054 32.1443,10.48071 52.2281,42.4109 47.7583,75.9252 29.1303,4.50396 49.8819,30.68862 47.6042,60.07998 -2.2777,29.39137 -26.8097,52.0696 -56.2909,52.03535 h 44.6499 c 29.4814,0.0342 54.0134,-22.64398 56.291,-52.03535 2.2777,-29.39136 -18.4697,-55.57602 -47.6041,-60.07998 z m 0,0"
         data-original="#bdd9e5"
         style="fill:#bdd9e5;stroke-width:1.09602189"
         id="path934" /><path
         inkscape:connector-curvature="0"
         d="m 2303.1186,243.70319 c 9.1707,-4.25993 24.7932,-10.37369 32.5382,-13.04524 -3.5963,-5.14616 -7.5523,-10.03117 -11.8378,-14.61647 -26.6171,-28.11981 -65.8684,-40.50144 -103.8054,-32.75223 29.4343,5.95535 66.425,22.57549 83.105,60.41394 z m 0,0"
         data-original="#bdd9e5"
         style="fill:#bdd9e5;stroke-width:1.09602189"
         id="path936" /><path
         inkscape:connector-curvature="0"
         d="m 2104.5974,258.19123 c 3.1768,23.41889 13.7088,45.21946 30.085,62.2549 -4.9278,-17.85317 -5.5443,-36.62683 -1.8025,-54.76685 -8.8367,-4.34984 -18.4482,-6.89723 -28.2825,-7.48805 z m 0,0"
         data-original="#bdd9e5"
         style="fill:#bdd9e5;stroke-width:1.09602189"
         id="path938" /></g></g></svg>